2018.11.28 05:01:00;2684.65;2684.75;2683.90;2684.10
2018.11.28 05:05:00;2683.65;2684.10;2683.65;2683.95
2018.11.28 05:06:00;2684.00;2684.00;2683.40;2683.60
2018.11.28 05:44:00;2684.25;2684.60;2684.15;2684.60
2018.11.28 05:45:00;2684.40;2685.00;2684.40;2684.85
2018.11.28 05:58:00;2683.90;2684.25;2683.90;2684.25
2018.11.28 05:59:00;2683.90;2684.25;2683.90;2684.25
2018.11.28 06:00:00;2684.35;2684.35;2683.90;2684.35
2018.11.28 06:02:00;2684.15;2684.35;2683.90;2684.25
2018.11.28 06:03:00;2684.25;2684.35;2684.15;2684.35
2018.11.28 06:04:00;2684.35;2684.75;2684.35;2684.60
2018.11.28 06:05:00;2684.15;2684.60;2684.15;2684.60
2018.11.28 06:06:00;2684.60;2684.85;2684.60;2684.85
2018.11.28 06:07:00;2684.85;2685.00;2684.65;2684.85
2018.11.28 06:08:00;2684.85;2685.10;2684.65;2685.10
2018.11.28 06:10:00;2684.90;2685.10;2684.40;2684.85
2018.11.28 06:11:00;2684.65;2684.85;2684.40;2684.85
2018.11.28 06:12:00;2684.65;2684.85;2684.40;2684.75
2018.11.28 06:13:00;2684.40;2684.75;2684.40;2684.75
2018.11.28 06:14:00;2684.75;2685.00;2684.40;2685.00
2018.11.28 06:15:00;2684.65;2685.00;2684.65;2685.00
2018.11.28 06:16:00;2684.65;2685.10;2684.65;2685.00
2018.11.28 06:17:00;2684.65;2685.10;2684.65;2685.10
2018.11.28 06:18:00;2684.90;2685.10;2684.65;2684.85
2018.11.28 06:19:00;2684.40;2685.25;2684.40;2685.10
2018.11.28 06:20:00;2685.10;2685.85;2685.10;2685.75
2018.11.28 06:21:00;2685.40;2686.50;2685.40;2686.25
2018.11.28 06:22:00;2685.90;2687.25;2685.90;2686.90
2018.11.28 06:23:00;2687.00;2687.25;2686.65;2687.25
2018.11.28 06:24:00;2686.90;2687.25;2686.40;2686.60
2018.11.28 06:25:00;2686.40;2686.85;2686.40;2686.65
2018.11.28 06:26:00;2686.85;2687.10;2686.65;2687.00
2018.11.28 06:27:00;2686.65;2687.00;2686.40;2686.60
2018.11.28 06:28:00;2686.40;2686.60;2686.15;2686.60
2018.11.28 06:29:00;2686.60;2686.75;2685.90;2686.25
2018.11.28 06:30:00;2686.25;2686.50;2685.65;2686.00
2018.11.28 06:31:00;2685.65;2686.00;2685.65;2685.85
2018.11.28 06:32:00;2685.65;2685.75;2684.90;2685.50
2018.11.28 06:33:00;2685.50;2686.00;2685.40;2685.75
2018.11.28 06:34:00;2685.40;2685.75;2685.40;2685.60
2018.11.28 06:35:00;2685.40;2685.50;2685.15;2685.50
2018.11.28 06:36:00;2685.15;2685.50;2684.90;2685.50
2018.11.28 06:37:00;2685.50;2685.60;2685.40;2685.50
2018.11.28 06:38:00;2685.50;2685.75;2685.40;2685.60
2018.11.28 06:39:00;2685.60;2685.65;2685.40;2685.60
2018.11.28 06:40:00;2685.60;2685.75;2685.40;2685.75
2018.11.28 06:41:00;2685.40;2685.75;2685.40;2685.60
2018.11.28 06:42:00;2685.40;2685.50;2685.15;2685.35
2018.11.28 06:43:00;2685.15;2685.50;2685.15;2685.25
2018.11.28 06:44:00;2684.90;2685.60;2684.90;2685.60
2018.11.28 06:45:00;2685.40;2685.75;2685.40;2685.75
2018.11.28 06:46:00;2685.75;2685.85;2685.15;2685.50
2018.11.28 06:47:00;2685.50;2685.70;2685.40;2685.60
2018.11.28 06:48:00;2685.40;2685.85;2685.40;2685.85
2018.11.28 06:49:00;2685.65;2685.85;2685.65;2685.75
2018.11.28 06:50:00;2685.40;2685.65;2685.40;2685.50
2018.11.28 06:51:00;2685.15;2685.50;2685.15;2685.35
2018.11.28 06:52:00;2685.15;2685.50;2685.15;2685.25
2018.11.28 06:53:00;2685.25;2685.50;2684.90;2685.50
2018.11.28 06:54:00;2685.50;2685.50;2685.15;2685.25
2018.11.28 06:57:00;2684.90;2685.25;2684.90;2685.25
2018.11.28 06:59:00;2685.25;2685.60;2685.25;2685.60
2018.11.28 07:00:00;2685.40;2685.75;2685.15;2685.50
2018.11.28 07:01:00;2685.50;2686.00;2685.40;2685.85
2018.11.28 07:02:00;2685.85;2686.35;2685.85;2686.10
2018.11.28 07:03:00;2686.10;2686.10;2685.65;2686.10
2018.11.28 07:04:00;2686.10;2686.10;2685.65;2686.10
2018.11.28 07:05:00;2685.90;2686.10;2685.40;2685.60
2018.11.28 07:06:00;2685.60;2685.75;2684.90;2685.25
2018.11.28 07:07:00;2684.90;2685.50;2684.90;2685.25
2018.11.28 07:08:00;2685.25;2685.35;2685.15;2685.25
2018.11.28 07:09:00;2685.25;2685.50;2684.90;2685.50
2018.11.28 07:10:00;2685.50;2685.75;2685.15;2685.60
2018.11.28 07:11:00;2685.40;2686.00;2685.40;2686.00
2018.11.28 07:12:00;2685.65;2686.00;2685.65;2686.00
2018.11.28 07:13:00;2685.65;2685.95;2685.65;2685.75
2018.11.28 07:14:00;2685.75;2686.00;2685.65;2686.00
2018.11.28 07:15:00;2686.00;2686.00;2685.65;2685.65
2018.11.28 07:16:00;2685.75;2685.75;2685.40;2685.65
2018.11.28 07:17:00;2685.40;2685.75;2685.15;2685.50
2018.11.28 07:18:00;2685.50;2685.60;2685.15;2685.35
2018.11.28 07:19:00;2685.15;2685.35;2685.15;2685.35
2018.11.28 07:20:00;2685.35;2685.50;2685.15;2685.50
2018.11.28 07:21:00;2685.50;2685.50;2685.50;2685.50
2018.11.28 07:22:00;2685.50;2685.60;2685.50;2685.60
2018.11.28 07:23:00;2685.40;2685.50;2685.15;2685.50
2018.11.28 07:24:00;2685.15;2685.35;2685.15;2685.25
2018.11.28 07:25:00;2684.90;2685.10;2684.90;2685.10
2018.11.28 07:26:00;2685.10;2685.25;2684.90;2685.00
2018.11.28 07:27:00;2684.65;2684.85;2684.65;2684.75
2018.11.28 07:28:00;2684.75;2684.85;2684.65;2684.85
2018.11.28 07:29:00;2684.85;2685.00;2684.40;2684.75
2018.11.28 07:30:00;2684.75;2684.85;2684.40;2684.75
2018.11.28 07:31:00;2684.75;2685.25;2684.75;2685.25
2018.11.28 07:33:00;2685.25;2685.60;2685.15;2685.50
2018.11.28 07:34:00;2685.15;2685.60;2685.15;2685.60
2018.11.28 07:35:00;2685.60;2685.75;2685.40;2685.75
2018.11.28 07:36:00;2685.40;2685.75;2685.40;2685.75
2018.11.28 07:37:00;2685.75;2685.85;2685.65;2685.75
2018.11.28 07:38:00;2685.75;2685.75;2685.40;2685.75
2018.11.28 07:39:00;2685.40;2685.75;2685.40;2685.75
2018.11.28 07:40:00;2685.40;2686.00;2685.40;2686.00
2018.11.28 07:41:00;2685.65;2686.00;2685.65;2686.00
2018.11.28 07:42:00;2685.65;2686.00;2685.65;2685.75
2018.11.28 07:43:00;2685.85;2685.85;2685.65;2685.75
2018.11.28 07:44:00;2685.40;2685.85;2685.40;2685.75
2018.11.28 07:45:00;2685.75;2686.00;2685.40;2685.50
2018.11.28 07:46:00;2685.50;2685.75;2685.40;2685.75
2018.11.28 07:47:00;2685.40;2685.75;2685.40;2685.75
2018.11.28 07:48:00;2685.75;2686.00;2685.75;2686.00
2018.11.28 07:49:00;2685.65;2686.00;2685.65;2686.00
2018.11.28 07:50:00;2685.95;2686.00;2685.65;2685.85
2018.11.28 07:51:00;2685.85;2686.25;2685.85;2686.25
2018.11.28 07:52:00;2686.25;2686.35;2685.90;2686.25
2018.11.28 07:53:00;2685.90;2686.25;2685.40;2685.50
2018.11.28 07:54:00;2685.50;2685.75;2685.15;2685.50
2018.11.28 07:55:00;2685.50;2685.50;2684.40;2685.25
2018.11.28 07:56:00;2684.90;2685.50;2684.90;2685.50
2018.11.28 07:57:00;2685.60;2685.75;2685.40;2685.75
2018.11.28 07:58:00;2685.75;2686.00;2685.75;2686.00
2018.11.28 07:59:00;2686.00;2686.25;2685.65;2686.20
2018.11.28 08:00:00;2685.90;2686.25;2685.90;2686.25
2018.11.28 08:01:00;2686.25;2686.85;2686.25;2686.75
2018.11.28 08:02:00;2686.75;2686.75;2686.40;2686.60
2018.11.28 08:03:00;2686.40;2686.85;2686.40;2686.75
2018.11.28 08:04:00;2686.75;2687.00;2686.65;2686.85
2018.11.28 08:05:00;2686.65;2686.85;2686.65;2686.75
2018.11.28 08:06:00;2686.40;2686.60;2686.40;2686.60
2018.11.28 08:07:00;2686.40;2686.75;2686.15;2686.75
2018.11.28 08:08:00;2686.40;2686.90;2686.40;2686.75
2018.11.28 08:09:00;2686.85;2687.00;2686.65;2687.00
2018.11.28 08:10:00;2687.00;2688.00;2687.00;2688.00
2018.11.28 08:11:00;2687.85;2688.00;2687.15;2687.75
2018.11.28 08:12:00;2687.75;2689.85;2687.75;2689.85
2018.11.28 08:13:00;2689.65;2689.85;2689.40;2689.60
2018.11.28 08:14:00;2689.40;2689.50;2688.65;2689.25
2018.11.28 08:15:00;2689.25;2689.50;2688.90;2689.25
2018.11.28 08:16:00;2689.25;2690.10;2689.15;2689.75
2018.11.28 08:17:00;2689.75;2690.35;2689.75;2690.25
2018.11.28 08:18:00;2689.90;2690.20;2689.65;2690.00
2018.11.28 08:19:00;2689.65;2689.75;2689.40;2689.75
2018.11.28 08:20:00;2689.75;2689.85;2689.40;2689.60
2018.11.28 08:21:00;2689.60;2689.60;2689.15;2689.50
2018.11.28 08:22:00;2689.50;2689.75;2689.40;2689.75
2018.11.28 08:23:00;2689.40;2690.50;2689.40;2690.50
2018.11.28 08:24:00;2690.50;2690.75;2690.15;2690.75
2018.11.28 08:25:00;2690.40;2690.75;2690.40;2690.50
2018.11.28 08:26:00;2690.50;2691.60;2690.50;2691.10
2018.11.28 08:27:00;2690.90;2691.25;2690.90;2691.25
2018.11.28 08:28:00;2691.35;2691.35;2690.65;2691.25
2018.11.28 08:29:00;2691.25;2691.35;2691.25;2691.35
2018.11.28 08:30:00;2691.15;2691.60;2691.15;2691.50
2018.11.28 08:31:00;2691.50;2691.85;2691.40;2691.75
2018.11.28 08:32:00;2691.75;2691.85;2691.15;2691.35
2018.11.28 08:33:00;2691.15;2691.35;2690.15;2690.45
2018.11.28 08:34:00;2690.50;2690.75;2690.15;2690.50
2018.11.28 08:35:00;2690.15;2690.75;2690.15;2690.40
2018.11.28 08:36:00;2690.15;2690.50;2690.15;2690.45
2018.11.28 08:37:00;2690.15;2690.50;2689.65;2690.00
2018.11.28 08:38:00;2689.65;2690.50;2689.15;2690.50
2018.11.28 08:39:00;2690.15;2691.00;2690.15;2690.75
2018.11.28 08:40:00;2690.40;2691.00;2690.40;2691.00
2018.11.28 08:41:00;2691.00;2691.25;2690.40;2690.65
2018.11.28 08:42:00;2690.40;2690.75;2690.40;2690.60
2018.11.28 08:43:00;2690.60;2690.70;2689.90;2689.90
2018.11.28 08:44:00;2690.25;2690.45;2689.90;2690.25
2018.11.28 08:45:00;2690.25;2691.00;2690.25;2690.85
2018.11.28 08:46:00;2690.85;2691.25;2690.65;2691.25
2018.11.28 08:47:00;2691.25;2691.35;2690.65;2691.10
2018.11.28 08:48:00;2690.90;2691.00;2690.65;2690.85
2018.11.28 08:49:00;2690.85;2691.00;2690.85;2691.00
2018.11.28 08:50:00;2691.00;2691.00;2690.65;2690.75
2018.11.28 08:51:00;2690.75;2690.75;2690.15;2690.25
2018.11.28 08:52:00;2690.25;2690.75;2690.15;2690.70
2018.11.28 08:53:00;2690.40;2690.85;2690.15;2690.85
2018.11.28 08:54:00;2690.85;2691.00;2690.65;2690.85
2018.11.28 08:55:00;2690.85;2691.25;2690.85;2691.20
2018.11.28 08:56:00;2690.90;2691.10;2690.65;2691.00
2018.11.28 08:57:00;2690.65;2690.95;2690.40;2690.75
2018.11.28 08:58:00;2690.75;2690.85;2690.40;2690.75
2018.11.28 08:59:00;2690.75;2690.90;2690.65;2690.75
2018.11.28 09:00:00;2690.75;2691.25;2690.40;2690.85
2018.11.28 09:01:00;2690.85;2691.10;2690.65;2690.85
2018.11.28 09:02:00;2690.65;2690.85;2690.15;2690.25
2018.11.28 09:03:00;2690.25;2690.75;2689.90;2690.75
2018.11.28 09:04:00;2690.75;2691.00;2690.40;2690.75
2018.11.28 09:05:00;2690.85;2690.85;2689.65;2690.00
2018.11.28 09:06:00;2689.65;2690.25;2689.65;2690.25
2018.11.28 09:07:00;2690.25;2690.35;2690.15;2690.35
2018.11.28 09:08:00;2690.15;2690.35;2689.90;2690.25
2018.11.28 09:09:00;2690.25;2690.35;2690.15;2690.25
2018.11.28 09:10:00;2690.25;2690.60;2690.25;2690.50
2018.11.28 09:11:00;2690.15;2690.50;2690.15;2690.25
2018.11.28 09:12:00;2690.35;2690.50;2689.90;2690.10
2018.11.28 09:13:00;2689.90;2690.10;2689.40;2689.75
2018.11.28 09:14:00;2689.75;2690.00;2689.40;2689.75
2018.11.28 09:15:00;2689.75;2690.10;2689.40;2689.50
2018.11.28 09:16:00;2689.75;2689.85;2689.40;2689.60
2018.11.28 09:17:00;2689.60;2690.00;2689.60;2689.85
2018.11.28 09:18:00;2689.85;2689.85;2689.40;2689.60
2018.11.28 09:19:00;2689.40;2689.60;2689.40;2689.60
2018.11.28 09:20:00;2689.40;2689.60;2689.40;2689.60
2018.11.28 09:21:00;2689.40;2689.60;2689.15;2689.60
2018.11.28 09:22:00;2689.40;2689.75;2689.40;2689.75
2018.11.28 09:23:00;2689.75;2690.10;2689.75;2690.10
2018.11.28 09:24:00;2690.10;2690.50;2689.90;2690.50
2018.11.28 09:25:00;2690.50;2690.50;2689.65;2689.75
2018.11.28 09:26:00;2689.75;2690.00;2689.15;2689.60
2018.11.28 09:27:00;2689.40;2689.85;2689.15;2689.75
2018.11.28 09:28:00;2689.75;2690.10;2689.65;2690.00
2018.11.28 09:29:00;2689.65;2689.85;2689.40;2689.60
2018.11.28 09:30:00;2689.40;2689.60;2688.90;2689.35
2018.11.28 09:31:00;2688.90;2689.50;2688.90;2689.50
2018.11.28 09:32:00;2689.15;2690.00;2689.15;2689.85
2018.11.28 09:33:00;2689.85;2689.85;2688.90;2689.25
2018.11.28 09:34:00;2689.25;2689.35;2688.90;2689.00
2018.11.28 09:35:00;2689.10;2689.25;2688.90;2689.25
2018.11.28 09:36:00;2688.90;2689.25;2688.65;2689.25
2018.11.28 09:37:00;2689.25;2689.60;2689.15;2689.60
2018.11.28 09:38:00;2689.40;2689.60;2688.90;2689.25
2018.11.28 09:39:00;2688.90;2689.60;2688.90;2689.60
2018.11.28 09:40:00;2689.60;2689.75;2689.40;2689.60
2018.11.28 09:41:00;2689.60;2689.75;2689.40;2689.60
2018.11.28 09:42:00;2689.60;2689.75;2689.40;2689.60
2018.11.28 09:43:00;2689.60;2689.75;2689.40;2689.60
2018.11.28 09:44:00;2689.15;2689.35;2687.65;2688.00
2018.11.28 09:45:00;2687.65;2688.10;2687.40;2687.40
2018.11.28 09:46:00;2687.70;2688.00;2687.15;2687.50
2018.11.28 09:47:00;2687.50;2687.60;2687.40;2687.50
2018.11.28 09:48:00;2687.50;2687.75;2687.15;2687.50
2018.11.28 09:49:00;2687.50;2687.85;2687.15;2687.85
2018.11.28 09:50:00;2687.65;2687.85;2686.90;2687.25
2018.11.28 09:51:00;2687.25;2687.35;2687.15;2687.25
2018.11.28 09:52:00;2687.25;2687.85;2687.15;2687.35
2018.11.28 09:53:00;2687.15;2687.35;2686.90;2687.35
2018.11.28 09:54:00;2687.35;2687.75;2687.15;2687.50
2018.11.28 09:55:00;2687.50;2687.75;2687.15;2687.75
2018.11.28 09:56:00;2687.40;2687.70;2686.65;2687.00
2018.11.28 09:57:00;2687.00;2687.60;2686.90;2687.60
2018.11.28 09:58:00;2687.15;2687.40;2686.90;2687.10
2018.11.28 09:59:00;2686.90;2687.25;2686.90;2687.00
2018.11.28 10:00:00;2687.00;2687.00;2685.65;2686.25
2018.11.28 10:01:00;2685.90;2686.60;2685.40;2686.60
2018.11.28 10:02:00;2686.40;2686.75;2685.90;2686.25
2018.11.28 10:03:00;2685.90;2687.00;2685.90;2686.85
2018.11.28 10:04:00;2686.65;2687.35;2685.90;2686.10
2018.11.28 10:05:00;2685.90;2687.10;2685.90;2687.00
2018.11.28 10:06:00;2686.65;2687.10;2686.15;2686.60
2018.11.28 10:07:00;2686.40;2686.85;2685.90;2686.60
2018.11.28 10:08:00;2686.60;2687.00;2685.90;2686.35
2018.11.28 10:09:00;2686.15;2686.85;2686.15;2686.60
2018.11.28 10:10:00;2686.70;2686.75;2685.65;2686.00
2018.11.28 10:11:00;2686.00;2686.75;2685.65;2686.00
2018.11.28 10:12:00;2686.00;2686.25;2685.40;2685.65
2018.11.28 10:13:00;2685.75;2686.10;2685.65;2685.75
2018.11.28 10:14:00;2685.75;2686.35;2685.40;2686.25
2018.11.28 10:15:00;2686.25;2686.35;2685.40;2685.60
2018.11.28 10:16:00;2685.15;2685.50;2684.90;2685.00
2018.11.28 10:17:00;2685.00;2685.25;2684.65;2684.85
2018.11.28 10:18:00;2684.65;2685.50;2684.65;2685.10
2018.11.28 10:19:00;2684.90;2685.10;2684.65;2685.10
2018.11.28 10:20:00;2685.10;2685.35;2684.65;2685.35
2018.11.28 10:21:00;2684.90;2685.25;2684.65;2685.00
2018.11.28 10:22:00;2685.00;2685.10;2684.40;2685.10
2018.11.28 10:23:00;2684.90;2685.10;2684.40;2685.10
2018.11.28 10:24:00;2684.90;2686.25;2684.90;2686.00
2018.11.28 10:25:00;2686.10;2686.10;2685.15;2685.60
2018.11.28 10:26:00;2685.15;2685.75;2685.15;2685.75
2018.11.28 10:27:00;2685.75;2686.60;2685.40;2686.25
2018.11.28 10:28:00;2685.90;2686.85;2685.90;2686.15
2018.11.28 10:29:00;2686.50;2686.85;2685.90;2686.75
2018.11.28 10:30:00;2686.40;2686.60;2685.90;2686.25
2018.11.28 10:31:00;2685.90;2686.25;2685.65;2686.00
2018.11.28 10:32:00;2685.65;2686.00;2685.40;2686.00
2018.11.28 10:33:00;2686.10;2686.25;2685.65;2686.10
2018.11.28 10:34:00;2685.90;2686.10;2685.40;2686.00
2018.11.28 10:35:00;2686.00;2686.10;2685.40;2685.75
2018.11.28 10:36:00;2685.75;2685.75;2684.65;2685.00
2018.11.28 10:37:00;2684.65;2685.50;2684.40;2685.35
2018.11.28 10:38:00;2685.35;2685.50;2684.90;2685.20
2018.11.28 10:39:00;2685.25;2685.25;2684.90;2685.25
2018.11.28 10:40:00;2685.25;2685.35;2684.65;2685.00
2018.11.28 10:41:00;2685.10;2685.10;2684.65;2684.95
2018.11.28 10:42:00;2684.65;2685.10;2684.40;2684.65
2018.11.28 10:43:00;2684.75;2684.75;2682.90;2683.10
2018.11.28 10:44:00;2683.10;2683.60;2682.90;2683.60
2018.11.28 10:45:00;2683.40;2683.60;2682.65;2683.00
2018.11.28 10:46:00;2682.65;2683.25;2682.40;2683.25
2018.11.28 10:47:00;2683.25;2684.75;2682.65;2684.60
2018.11.28 10:48:00;2684.40;2684.60;2683.90;2684.25
2018.11.28 10:49:00;2683.90;2685.00;2683.90;2684.10
2018.11.28 10:50:00;2683.90;2685.10;2683.65;2685.00
2018.11.28 10:51:00;2685.00;2685.10;2684.40;2685.10
2018.11.28 10:52:00;2684.65;2685.00;2684.40;2684.60
2018.11.28 10:53:00;2684.40;2685.25;2684.40;2685.00
2018.11.28 10:54:00;2684.85;2685.75;2684.65;2685.60
2018.11.28 10:55:00;2685.60;2685.75;2685.15;2685.40
2018.11.28 10:56:00;2685.40;2686.00;2685.15;2686.00
2018.11.28 10:57:00;2685.65;2686.75;2685.65;2686.60
2018.11.28 10:58:00;2686.60;2687.35;2686.40;2687.25
2018.11.28 10:59:00;2687.25;2687.50;2687.15;2687.25
2018.11.28 11:00:00;2687.25;2688.25;2687.15;2687.75
2018.11.28 11:01:00;2687.40;2688.00;2687.15;2687.60
2018.11.28 11:02:00;2687.60;2687.75;2687.15;2687.60
2018.11.28 11:03:00;2687.40;2687.60;2686.65;2687.60
2018.11.28 11:04:00;2687.60;2687.60;2686.65;2686.65
2018.11.28 11:05:00;2686.75;2686.75;2686.15;2686.60
2018.11.28 11:06:00;2686.60;2687.75;2686.40;2687.75
2018.11.28 11:07:00;2687.40;2687.85;2687.15;2687.75
2018.11.28 11:08:00;2687.75;2687.85;2687.40;2687.75
2018.11.28 11:09:00;2687.85;2688.00;2687.15;2687.85
2018.11.28 11:10:00;2687.65;2688.50;2687.65;2688.10
2018.11.28 11:11:00;2687.90;2688.10;2687.40;2687.65
2018.11.28 11:12:00;2687.75;2688.00;2687.40;2687.75
2018.11.28 11:13:00;2687.40;2687.60;2686.90;2687.25
2018.11.28 11:14:00;2686.90;2687.35;2686.65;2687.35
2018.11.28 11:15:00;2687.15;2687.50;2686.90;2687.00
2018.11.28 11:16:00;2686.65;2686.85;2686.15;2686.75
2018.11.28 11:17:00;2686.40;2688.00;2686.40;2687.95
2018.11.28 11:18:00;2687.65;2689.10;2687.40;2689.00
2018.11.28 11:19:00;2689.00;2689.10;2688.15;2688.60
2018.11.28 11:20:00;2688.60;2688.85;2688.40;2688.85
2018.11.28 11:21:00;2688.65;2689.10;2688.40;2688.60
2018.11.28 11:22:00;2688.60;2688.60;2687.65;2688.00
2018.11.28 11:23:00;2688.00;2688.35;2687.40;2687.70
2018.11.28 11:24:00;2687.40;2687.75;2686.90;2687.00
2018.11.28 11:25:00;2686.65;2686.85;2685.40;2685.60
2018.11.28 11:26:00;2685.60;2686.00;2685.15;2685.60
2018.11.28 11:27:00;2685.60;2686.00;2685.40;2685.60
2018.11.28 11:28:00;2685.40;2685.45;2684.65;2685.10
2018.11.28 11:29:00;2684.90;2685.35;2684.40;2684.60
2018.11.28 11:30:00;2684.40;2685.10;2684.40;2684.85
2018.11.28 11:31:00;2684.85;2685.00;2683.90;2684.35
2018.11.28 11:32:00;2684.15;2685.00;2684.15;2684.65
2018.11.28 11:33:00;2685.00;2685.50;2684.40;2685.50
2018.11.28 11:34:00;2685.50;2685.85;2685.15;2685.25
2018.11.28 11:35:00;2685.25;2686.00;2684.90;2685.60
2018.11.28 11:36:00;2685.75;2685.85;2685.40;2685.50
2018.11.28 11:37:00;2685.15;2686.10;2685.15;2685.65
2018.11.28 11:38:00;2686.00;2686.00;2685.15;2685.50
2018.11.28 11:39:00;2685.50;2686.10;2685.40;2685.85
2018.11.28 11:40:00;2685.85;2686.35;2685.40;2686.35
2018.11.28 11:41:00;2686.15;2686.35;2685.65;2686.25
2018.11.28 11:42:00;2686.25;2686.35;2685.65;2686.10
2018.11.28 11:43:00;2685.90;2686.50;2685.65;2686.15
2018.11.28 11:44:00;2686.25;2686.50;2685.90;2686.35
2018.11.28 11:45:00;2686.15;2686.75;2686.15;2686.75
2018.11.28 11:46:00;2686.85;2686.85;2686.40;2686.50
2018.11.28 11:47:00;2686.50;2686.75;2686.15;2686.75
2018.11.28 11:48:00;2686.40;2687.35;2686.40;2687.00
2018.11.28 11:49:00;2686.65;2687.10;2686.40;2687.10
2018.11.28 11:50:00;2686.90;2688.35;2686.90;2688.00
2018.11.28 11:51:00;2688.00;2688.60;2687.90;2688.35
2018.11.28 11:52:00;2688.50;2688.50;2687.90;2688.00
2018.11.28 11:53:00;2688.10;2688.10;2687.40;2688.10
2018.11.28 11:54:00;2688.10;2688.60;2687.65;2688.00
2018.11.28 11:55:00;2687.65;2688.25;2687.65;2688.10
2018.11.28 11:56:00;2687.90;2688.10;2686.65;2687.25
2018.11.28 11:57:00;2686.90;2687.50;2686.90;2687.25
2018.11.28 11:58:00;2687.25;2687.50;2686.90;2687.00
2018.11.28 11:59:00;2686.65;2687.25;2686.65;2686.75
2018.11.28 12:00:00;2686.75;2688.10;2686.75;2687.75
2018.11.28 12:01:00;2687.40;2687.85;2686.90;2687.00
2018.11.28 12:02:00;2687.00;2687.50;2686.65;2687.25
2018.11.28 12:03:00;2687.25;2687.25;2685.90;2686.00
2018.11.28 12:04:00;2685.75;2686.10;2685.40;2685.90
2018.11.28 12:05:00;2686.00;2686.25;2685.65;2685.85
2018.11.28 12:06:00;2685.85;2686.50;2685.85;2686.35
2018.11.28 12:07:00;2686.15;2686.60;2686.15;2686.60
2018.11.28 12:08:00;2686.40;2686.85;2686.15;2686.75
2018.11.28 12:09:00;2686.75;2687.10;2686.65;2687.00
2018.11.28 12:10:00;2687.00;2687.25;2686.65;2687.00
2018.11.28 12:11:00;2687.10;2687.60;2686.90;2687.50
2018.11.28 12:12:00;2687.50;2688.10;2687.40;2687.75
2018.11.28 12:13:00;2687.40;2687.60;2686.40;2686.75
2018.11.28 12:14:00;2686.75;2687.00;2686.15;2686.35
2018.11.28 12:15:00;2686.35;2686.85;2686.15;2686.50
2018.11.28 12:16:00;2686.50;2686.85;2686.40;2686.85
2018.11.28 12:17:00;2686.85;2687.35;2686.85;2687.10
2018.11.28 12:18:00;2686.90;2687.00;2686.40;2686.75
2018.11.28 12:19:00;2686.40;2687.50;2686.40;2687.35
2018.11.28 12:20:00;2687.15;2687.35;2686.15;2686.50
2018.11.28 12:21:00;2686.60;2686.75;2686.15;2686.60
2018.11.28 12:22:00;2686.40;2686.85;2685.40;2685.60
2018.11.28 12:23:00;2685.60;2686.00;2685.40;2685.75
2018.11.28 12:24:00;2685.75;2686.35;2685.65;2685.85
2018.11.28 12:25:00;2685.40;2685.75;2685.15;2685.75
2018.11.28 12:26:00;2685.40;2686.00;2685.40;2686.00
2018.11.28 12:27:00;2686.00;2686.75;2685.90;2686.25
2018.11.28 12:28:00;2686.25;2686.50;2685.90;2686.10
2018.11.28 12:29:00;2685.90;2686.10;2685.40;2686.00
2018.11.28 12:30:00;2686.10;2686.50;2685.50;2686.50
2018.11.28 12:31:00;2686.15;2687.45;2686.15;2687.45
2018.11.28 12:32:00;2687.50;2688.10;2687.15;2688.00
2018.11.28 12:33:00;2688.10;2688.85;2687.40;2688.40
2018.11.28 12:34:00;2688.50;2689.75;2688.50;2689.75
2018.11.28 12:35:00;2689.75;2689.85;2688.90;2689.35
2018.11.28 12:36:00;2689.35;2689.50;2689.15;2689.50
2018.11.28 12:37:00;2689.15;2689.75;2689.15;2689.60
2018.11.28 12:38:00;2689.40;2689.75;2689.15;2689.75
2018.11.28 12:39:00;2689.40;2689.75;2688.90;2689.75
2018.11.28 12:40:00;2689.40;2690.25;2689.40;2689.60
2018.11.28 12:41:00;2689.40;2690.10;2689.40;2690.00
2018.11.28 12:42:00;2689.65;2690.25;2689.40;2689.85
2018.11.28 12:43:00;2689.85;2690.35;2689.65;2690.00
2018.11.28 12:44:00;2690.00;2690.10;2689.40;2689.75
2018.11.28 12:45:00;2689.40;2690.60;2689.40;2690.50
2018.11.28 12:46:00;2690.15;2690.25;2689.65;2690.00
2018.11.28 12:47:00;2690.00;2690.60;2689.90;2690.35
2018.11.28 12:48:00;2690.15;2690.35;2689.90;2690.35
2018.11.28 12:49:00;2690.15;2690.35;2689.90;2690.35
2018.11.28 12:50:00;2690.15;2690.35;2690.15;2690.25
2018.11.28 12:51:00;2690.35;2690.35;2689.90;2690.25
2018.11.28 12:52:00;2690.25;2690.35;2689.90;2690.35
2018.11.28 12:53:00;2690.15;2690.35;2690.15;2690.25
2018.11.28 12:54:00;2690.25;2690.25;2689.90;2690.00
2018.11.28 12:55:00;2689.65;2690.60;2689.65;2690.60
2018.11.28 12:56:00;2690.40;2691.10;2690.40;2691.10
2018.11.28 12:57:00;2690.90;2691.10;2690.65;2690.90
2018.11.28 12:58:00;2691.10;2691.10;2690.65;2691.00
2018.11.28 12:59:00;2690.65;2691.10;2690.15;2690.50
2018.11.28 13:00:00;2690.15;2690.75;2690.15;2690.60
2018.11.28 13:01:00;2690.40;2690.85;2690.15;2690.60
2018.11.28 13:03:00;2690.60;2691.25;2690.40;2691.25
2018.11.28 13:04:00;2691.25;2691.60;2690.90;2691.35
2018.11.28 13:05:00;2691.15;2691.60;2691.15;2691.50
2018.11.28 13:06:00;2691.15;2691.25;2690.40;2691.25
2018.11.28 13:07:00;2690.90;2691.60;2690.90;2691.50
2018.11.28 13:08:00;2691.15;2691.50;2690.90;2691.10
2018.11.28 13:09:00;2691.25;2691.35;2690.65;2691.35
2018.11.28 13:10:00;2691.15;2691.35;2690.90;2691.25
2018.11.28 13:11:00;2691.25;2691.75;2691.15;2691.75
2018.11.28 13:12:00;2691.40;2691.65;2690.90;2691.50
2018.11.28 13:13:00;2691.15;2691.35;2690.90;2691.00
2018.11.28 13:14:00;2690.65;2691.00;2690.65;2691.00
2018.11.28 13:15:00;2691.00;2691.10;2689.90;2690.25
2018.11.28 13:16:00;2689.90;2690.50;2689.90;2690.35
2018.11.28 13:17:00;2690.15;2690.25;2689.65;2690.00
2018.11.28 13:18:00;2689.65;2690.25;2688.90;2690.10
2018.11.28 13:19:00;2689.90;2690.10;2689.40;2689.50
2018.11.28 13:20:00;2689.50;2689.85;2689.50;2689.85
2018.11.28 13:21:00;2689.65;2689.85;2689.40;2689.75
2018.11.28 13:22:00;2689.40;2689.75;2689.15;2689.35
2018.11.28 13:23:00;2689.15;2689.35;2688.90;2689.10
2018.11.28 13:24:00;2689.10;2689.10;2688.90;2689.00
2018.11.28 13:25:00;2689.00;2689.10;2688.65;2689.00
2018.11.28 13:26:00;2688.65;2689.25;2688.65;2689.25
2018.11.28 13:27:00;2688.90;2689.25;2688.65;2689.10
2018.11.28 13:28:00;2689.10;2689.20;2688.40;2688.75
2018.11.28 13:29:00;2688.40;2689.10;2688.40;2688.85
2018.11.28 13:30:00;2688.65;2688.85;2688.40;2688.85
2018.11.28 13:31:00;2688.65;2689.10;2688.40;2689.00
2018.11.28 13:32:00;2689.00;2689.35;2688.65;2689.10
2018.11.28 13:33:00;2688.90;2689.35;2688.40;2689.35
2018.11.28 13:34:00;2689.15;2690.10;2689.15;2689.85
2018.11.28 13:35:00;2689.65;2690.00;2689.15;2689.75
2018.11.28 13:36:00;2689.40;2690.75;2689.40;2690.60
2018.11.28 13:37:00;2690.40;2690.60;2690.15;2690.50
2018.11.28 13:38:00;2690.15;2690.75;2689.90;2690.60
2018.11.28 13:39:00;2690.40;2690.60;2689.90;2690.25
2018.11.28 13:40:00;2690.25;2690.35;2689.90;2690.25
2018.11.28 13:41:00;2689.90;2690.25;2689.90;2690.25
2018.11.28 13:42:00;2690.25;2690.35;2689.90;2690.25
2018.11.28 13:43:00;2690.25;2691.60;2690.25;2691.60
2018.11.28 13:44:00;2691.60;2691.75;2691.15;2691.75
2018.11.28 13:45:00;2691.75;2691.85;2690.90;2691.35
2018.11.28 13:46:00;2691.35;2691.75;2690.90;2691.60
2018.11.28 13:47:00;2691.40;2692.10;2691.40;2691.75
2018.11.28 13:48:00;2691.40;2691.75;2691.40;2691.65
2018.11.28 13:49:00;2691.75;2691.75;2691.40;2691.50
2018.11.28 13:50:00;2691.15;2691.50;2691.15;2691.50
2018.11.28 13:51:00;2691.15;2691.35;2690.65;2691.25
2018.11.28 13:52:00;2690.90;2691.35;2690.90;2691.35
2018.11.28 13:53:00;2691.15;2691.25;2689.90;2690.60
2018.11.28 13:54:00;2690.60;2691.00;2690.40;2690.75
2018.11.28 13:55:00;2690.75;2691.25;2690.40;2690.50
2018.11.28 13:56:00;2690.15;2690.50;2689.90;2690.25
2018.11.28 13:57:00;2690.25;2690.50;2689.90;2690.35
2018.11.28 13:58:00;2690.35;2690.60;2690.15;2690.60
2018.11.28 13:59:00;2690.40;2692.25;2690.40;2691.75
2018.11.28 14:00:00;2691.75;2695.35;2691.75;2694.10
2018.11.28 14:01:00;2693.90;2694.50;2693.15;2693.50
2018.11.28 14:02:00;2693.50;2693.85;2692.65;2693.10
2018.11.28 14:03:00;2692.90;2693.35;2692.65;2693.35
2018.11.28 14:04:00;2693.15;2693.50;2692.90;2693.50
2018.11.28 14:05:00;2693.50;2693.50;2692.90;2693.10
2018.11.28 14:06:00;2693.10;2693.10;2692.65;2693.00
2018.11.28 14:07:00;2692.65;2692.85;2691.65;2692.35
2018.11.28 14:08:00;2692.35;2692.85;2692.35;2692.70
2018.11.28 14:09:00;2692.40;2692.75;2691.90;2692.70
2018.11.28 14:10:00;2692.40;2692.75;2692.15;2692.50
2018.11.28 14:11:00;2692.50;2692.60;2692.15;2692.50
2018.11.28 14:12:00;2692.60;2692.85;2692.40;2692.85
2018.11.28 14:13:00;2692.65;2692.85;2692.15;2692.35
2018.11.28 14:14:00;2692.15;2692.50;2691.65;2692.10
2018.11.28 14:15:00;2692.10;2692.25;2691.65;2692.10
2018.11.28 14:16:00;2692.10;2692.45;2691.65;2692.45
2018.11.28 14:17:00;2692.50;2692.50;2691.90;2692.35
2018.11.28 14:18:00;2692.15;2692.35;2691.65;2691.90
2018.11.28 14:19:00;2691.65;2692.00;2691.65;2692.00
2018.11.28 14:20:00;2692.00;2692.60;2691.65;2692.50
2018.11.28 14:21:00;2692.15;2693.25;2692.15;2692.60
2018.11.28 14:22:00;2692.60;2693.60;2692.40;2693.35
2018.11.28 14:23:00;2692.90;2693.25;2692.90;2693.00
2018.11.28 14:24:00;2693.00;2693.35;2692.90;2693.00
2018.11.28 14:25:00;2693.00;2693.35;2692.90;2693.35
2018.11.28 14:26:00;2693.15;2693.35;2692.65;2692.85
2018.11.28 14:27:00;2692.85;2693.20;2692.40;2693.00
2018.11.28 14:28:00;2693.10;2693.60;2692.90;2693.60
2018.11.28 14:29:00;2693.40;2693.60;2693.15;2693.60
2018.11.28 14:30:00;2693.40;2693.50;2692.90;2693.10
2018.11.28 14:31:00;2692.90;2693.10;2692.65;2693.00
2018.11.28 14:32:00;2692.65;2694.60;2692.65;2694.50
2018.11.28 14:33:00;2694.50;2694.60;2693.65;2693.85
2018.11.28 14:34:00;2693.85;2694.85;2693.65;2694.85
2018.11.28 14:35:00;2694.65;2694.85;2694.15;2694.25
2018.11.28 14:36:00;2694.15;2694.60;2693.90;2694.00
2018.11.28 14:37:00;2694.00;2695.85;2694.00;2695.85
2018.11.28 14:38:00;2695.65;2696.60;2695.15;2696.60
2018.11.28 14:39:00;2696.15;2696.60;2695.65;2696.00
2018.11.28 14:40:00;2696.00;2696.10;2695.15;2695.75
2018.11.28 14:41:00;2695.40;2695.75;2695.40;2695.60
2018.11.28 14:42:00;2695.60;2695.85;2695.15;2695.75
2018.11.28 14:43:00;2695.75;2695.85;2695.15;2695.35
2018.11.28 14:44:00;2695.15;2695.50;2694.90;2695.25
2018.11.28 14:45:00;2695.40;2695.60;2694.90;2695.10
2018.11.28 14:46:00;2694.90;2695.85;2694.65;2695.35
2018.11.28 14:47:00;2695.15;2695.75;2694.65;2695.10
2018.11.28 14:48:00;2694.90;2695.25;2694.65;2695.20
2018.11.28 14:49:00;2694.90;2695.75;2694.90;2695.35
2018.11.28 14:50:00;2695.15;2695.75;2694.90;2695.75
2018.11.28 14:51:00;2695.40;2696.50;2695.40;2695.85
2018.11.28 14:52:00;2695.85;2695.85;2695.15;2695.35
2018.11.28 14:53:00;2695.35;2695.35;2694.65;2695.00
2018.11.28 14:54:00;2694.65;2695.00;2694.40;2694.85
2018.11.28 14:55:00;2695.00;2695.35;2694.90;2695.35
2018.11.28 14:56:00;2695.15;2695.35;2694.90;2695.10
2018.11.28 14:57:00;2694.65;2695.10;2694.40;2694.75
2018.11.28 14:58:00;2694.40;2694.75;2694.40;2694.60
2018.11.28 14:59:00;2694.60;2695.35;2694.60;2695.35
2018.11.28 15:00:00;2695.15;2695.35;2694.15;2694.40
2018.11.28 15:01:00;2694.15;2694.85;2694.15;2694.75
2018.11.28 15:02:00;2694.40;2694.85;2694.40;2694.75
2018.11.28 15:03:00;2694.40;2695.10;2694.40;2695.10
2018.11.28 15:04:00;2695.10;2695.60;2694.90;2695.35
2018.11.28 15:05:00;2695.15;2695.50;2695.15;2695.25
2018.11.28 15:06:00;2694.90;2695.00;2694.40;2694.75
2018.11.28 15:07:00;2694.40;2695.35;2694.40;2695.10
2018.11.28 15:08:00;2695.10;2695.85;2694.90;2695.40
2018.11.28 15:09:00;2695.60;2696.00;2695.40;2695.75
2018.11.28 15:10:00;2695.40;2695.70;2695.15;2695.60
2018.11.28 15:11:00;2695.60;2695.60;2694.90;2695.25
2018.11.28 15:12:00;2694.90;2695.25;2694.15;2694.35
2018.11.28 15:13:00;2693.90;2694.50;2693.90;2694.50
2018.11.28 15:14:00;2694.15;2694.75;2694.15;2694.70
2018.11.28 15:15:00;2694.75;2694.85;2694.15;2694.75
2018.11.28 15:16:00;2694.40;2694.75;2693.90;2694.35
2018.11.28 15:17:00;2694.15;2694.60;2694.15;2694.25
2018.11.28 15:18:00;2694.25;2694.35;2693.90;2694.10
2018.11.28 15:19:00;2693.90;2694.85;2693.90;2694.75
2018.11.28 15:20:00;2694.85;2695.10;2694.65;2695.00
2018.11.28 15:21:00;2694.65;2695.10;2694.65;2695.00
2018.11.28 15:22:00;2695.00;2695.25;2694.90;2695.10
2018.11.28 15:23:00;2694.65;2695.25;2694.65;2695.25
2018.11.28 15:24:00;2695.25;2695.85;2695.25;2695.60
2018.11.28 15:25:00;2695.40;2696.10;2695.40;2695.85
2018.11.28 15:26:00;2695.85;2696.10;2695.65;2696.10
2018.11.28 15:27:00;2695.90;2696.00;2694.90;2695.10
2018.11.28 15:28:00;2695.10;2695.50;2694.65;2695.50
2018.11.28 15:29:00;2695.15;2695.70;2694.90;2695.65
2018.11.28 15:30:00;2695.40;2696.00;2694.65;2695.25
2018.11.28 15:31:00;2694.90;2695.35;2694.40;2694.75
2018.11.28 15:32:00;2694.75;2695.25;2694.40;2694.75
2018.11.28 15:33:00;2694.75;2696.10;2694.75;2696.10
2018.11.28 15:34:00;2695.90;2696.10;2695.40;2695.85
2018.11.28 15:35:00;2695.85;2695.85;2694.65;2694.65
2018.11.28 15:36:00;2694.65;2694.85;2693.90;2694.10
2018.11.28 15:37:00;2693.90;2694.60;2693.90;2694.00
2018.11.28 15:38:00;2694.00;2694.60;2693.90;2694.35
2018.11.28 15:39:00;2694.15;2694.75;2693.90;2694.25
2018.11.28 15:40:00;2694.10;2694.25;2694.10;2694.25
2018.11.28 15:41:00;2694.10;2694.35;2693.90;2694.25
2018.11.28 15:42:00;2694.25;2694.60;2694.15;2694.60
2018.11.28 15:43:00;2694.60;2695.25;2694.60;2695.10
2018.11.28 15:44:00;2694.90;2695.25;2694.65;2694.85
2018.11.28 15:45:00;2694.85;2695.25;2694.15;2694.25
2018.11.28 15:46:00;2694.25;2694.50;2693.90;2694.50
2018.11.28 15:47:00;2694.15;2694.50;2694.15;2694.35
2018.11.28 15:48:00;2694.35;2694.50;2694.15;2694.35
2018.11.28 15:49:00;2694.35;2694.60;2694.15;2694.25
2018.11.28 15:50:00;2694.25;2694.85;2693.90;2694.60
2018.11.28 15:51:00;2694.40;2695.10;2694.40;2694.90
2018.11.28 15:52:00;2695.00;2695.50;2694.65;2695.25
2018.11.28 15:53:00;2695.25;2695.35;2694.90;2695.35
2018.11.28 15:54:00;2695.15;2695.35;2694.65;2695.00
2018.11.28 15:55:00;2695.00;2695.25;2694.85;2695.10
2018.11.28 15:56:00;2694.65;2695.10;2694.65;2695.10
2018.11.28 15:57:00;2694.90;2695.50;2694.65;2695.50
2018.11.28 15:58:00;2695.50;2695.60;2694.90;2695.00
2018.11.28 15:59:00;2695.00;2695.00;2694.40;2694.60
2018.11.28 16:00:00;2694.40;2695.10;2693.65;2694.85
2018.11.28 16:01:00;2694.85;2695.50;2694.65;2695.10
2018.11.28 16:02:00;2695.10;2695.25;2694.15;2694.50
2018.11.28 16:03:00;2694.50;2694.75;2693.40;2693.75
2018.11.28 16:04:00;2693.75;2693.85;2693.40;2693.60
2018.11.28 16:05:00;2693.60;2693.75;2693.15;2693.35
2018.11.28 16:06:00;2692.90;2693.50;2692.90;2693.50
2018.11.28 16:07:00;2693.15;2693.75;2693.15;2693.60
2018.11.28 16:08:00;2693.40;2694.00;2693.40;2693.60
2018.11.28 16:09:00;2693.40;2693.75;2693.40;2693.75
2018.11.28 16:10:00;2693.40;2694.10;2693.40;2694.00
2018.11.28 16:11:00;2694.00;2694.25;2693.90;2694.10
2018.11.28 16:12:00;2694.10;2694.25;2693.90;2694.10
2018.11.28 16:13:00;2693.90;2694.25;2693.90;2694.00
2018.11.28 16:14:00;2694.00;2694.25;2693.65;2694.00
2018.11.28 16:15:00;2693.65;2694.00;2693.40;2693.60
2018.11.28 16:16:00;2693.15;2693.75;2692.90;2693.50
2018.11.28 16:17:00;2693.15;2693.85;2693.15;2693.60
2018.11.28 16:18:00;2693.60;2693.75;2692.90;2693.50
2018.11.28 16:19:00;2693.15;2693.60;2692.90;2693.35
2018.11.28 16:20:00;2693.15;2694.10;2693.15;2694.10
2018.11.28 16:21:00;2693.90;2694.60;2693.90;2694.25
2018.11.28 16:22:00;2694.25;2694.75;2694.15;2694.60
2018.11.28 16:23:00;2694.40;2694.60;2694.15;2694.35
2018.11.28 16:24:00;2694.15;2694.60;2693.65;2694.25
2018.11.28 16:25:00;2694.25;2694.35;2693.90;2694.10
2018.11.28 16:26:00;2693.65;2694.10;2693.40;2693.60
2018.11.28 16:27:00;2693.60;2694.25;2693.60;2694.10
2018.11.28 16:28:00;2693.65;2694.25;2693.15;2694.25
2018.11.28 16:29:00;2694.25;2694.35;2693.65;2694.15
2018.11.28 16:30:00;2694.60;2695.25;2693.65;2694.60
2018.11.28 16:31:00;2694.40;2694.60;2692.15;2692.75
2018.11.28 16:32:00;2692.75;2693.00;2691.65;2692.10
2018.11.28 16:33:00;2691.90;2693.25;2691.90;2692.75
2018.11.28 16:34:00;2692.40;2693.60;2692.15;2693.00
2018.11.28 16:35:00;2693.10;2694.50;2692.65;2693.00
2018.11.28 16:36:00;2692.65;2694.35;2691.90;2693.10
2018.11.28 16:37:00;2692.90;2695.85;2692.90;2695.00
2018.11.28 16:38:00;2695.15;2695.75;2694.40;2695.75
2018.11.28 16:39:00;2695.40;2696.35;2694.90;2695.65
2018.11.28 16:40:00;2695.85;2697.25;2694.65;2694.90
2018.11.28 16:41:00;2694.90;2695.25;2693.15;2693.85
2018.11.28 16:42:00;2693.85;2694.75;2693.15;2693.90
2018.11.28 16:43:00;2694.10;2695.25;2692.90;2693.25
2018.11.28 16:44:00;2692.90;2693.35;2691.90;2692.60
2018.11.28 16:45:00;2692.40;2694.00;2691.15;2692.00
2018.11.28 16:46:00;2691.65;2692.10;2690.40;2691.10
2018.11.28 16:47:00;2690.90;2692.75;2690.65;2692.40
2018.11.28 16:48:00;2692.50;2694.85;2692.50;2694.15
2018.11.28 16:49:00;2694.25;2694.85;2693.65;2693.75
2018.11.28 16:50:00;2693.75;2696.00;2693.65;2695.35
2018.11.28 16:51:00;2695.35;2695.75;2694.15;2694.85
2018.11.28 16:52:00;2694.65;2695.25;2693.90;2694.25
2018.11.28 16:53:00;2693.90;2694.50;2692.90;2693.75
2018.11.28 16:54:00;2693.75;2694.85;2691.15;2691.75
2018.11.28 16:55:00;2691.40;2692.60;2691.15;2691.35
2018.11.28 16:56:00;2691.15;2692.35;2690.15;2691.90
2018.11.28 16:57:00;2692.10;2692.10;2689.90;2691.35
2018.11.28 16:58:00;2690.90;2691.85;2690.65;2691.60
2018.11.28 16:59:00;2691.60;2692.50;2690.90;2691.65
2018.11.28 17:00:00;2691.85;2694.35;2691.40;2694.00
2018.11.28 17:01:00;2693.65;2694.85;2692.90;2693.50
2018.11.28 17:02:00;2693.50;2693.85;2692.15;2693.00
2018.11.28 17:03:00;2693.00;2693.60;2691.90;2692.40
2018.11.28 17:04:00;2692.85;2692.85;2691.65;2692.15
2018.11.28 17:05:00;2692.25;2692.75;2690.90;2691.10
2018.11.28 17:06:00;2690.90;2692.00;2690.90;2691.25
2018.11.28 17:07:00;2691.25;2691.25;2688.65;2689.25
2018.11.28 17:08:00;2688.90;2689.75;2688.65;2689.25
2018.11.28 17:09:00;2688.90;2690.35;2688.65;2689.75
2018.11.28 17:10:00;2690.00;2690.00;2687.65;2688.50
2018.11.28 17:11:00;2688.50;2688.50;2687.15;2688.00
2018.11.28 17:12:00;2687.65;2688.85;2687.65;2688.40
2018.11.28 17:13:00;2688.50;2688.50;2687.40;2687.65
2018.11.28 17:14:00;2687.85;2688.50;2687.65;2687.75
2018.11.28 17:15:00;2687.75;2688.10;2686.65;2687.10
2018.11.28 17:16:00;2687.10;2688.10;2687.10;2688.10
2018.11.28 17:17:00;2687.90;2688.10;2686.15;2687.00
2018.11.28 17:18:00;2687.10;2687.75;2686.90;2687.75
2018.11.28 17:19:00;2687.75;2688.50;2687.40;2687.85
2018.11.28 17:20:00;2687.85;2688.85;2687.65;2688.85
2018.11.28 17:21:00;2688.40;2688.75;2687.65;2688.00
2018.11.28 17:22:00;2688.00;2688.85;2687.90;2688.75
2018.11.28 17:23:00;2688.85;2689.10;2686.65;2687.25
2018.11.28 17:24:00;2687.35;2688.50;2686.90;2688.25
2018.11.28 17:25:00;2688.10;2688.35;2687.15;2687.75
2018.11.28 17:26:00;2687.75;2688.60;2687.65;2688.35
2018.11.28 17:27:00;2688.15;2688.35;2686.40;2686.60
2018.11.28 17:28:00;2686.40;2686.85;2685.65;2686.35
2018.11.28 17:29:00;2686.35;2686.85;2686.15;2686.25
2018.11.28 17:30:00;2685.90;2686.75;2683.90;2684.25
2018.11.28 17:31:00;2684.25;2684.60;2683.40;2684.00
2018.11.28 17:32:00;2684.10;2684.75;2683.90;2683.90
2018.11.28 17:33:00;2684.15;2685.00;2684.15;2684.75
2018.11.28 17:34:00;2684.40;2686.10;2684.15;2685.85
2018.11.28 17:35:00;2685.85;2686.85;2685.15;2686.60
2018.11.28 17:36:00;2686.60;2687.35;2686.40;2687.25
2018.11.28 17:37:00;2687.25;2688.00;2686.15;2686.60
2018.11.28 17:38:00;2686.40;2687.35;2686.15;2686.50
2018.11.28 17:39:00;2686.50;2686.60;2685.40;2686.25
2018.11.28 17:40:00;2686.25;2686.25;2684.90;2685.75
2018.11.28 17:41:00;2685.40;2687.10;2685.40;2686.35
2018.11.28 17:42:00;2686.15;2687.00;2685.65;2686.65
2018.11.28 17:43:00;2686.75;2686.85;2685.40;2686.35
2018.11.28 17:44:00;2686.35;2686.85;2685.65;2685.85
2018.11.28 17:45:00;2685.85;2686.35;2684.65;2685.50
2018.11.28 17:46:00;2685.50;2686.35;2685.15;2686.00
2018.11.28 17:47:00;2686.10;2687.60;2685.90;2687.35
2018.11.28 17:48:00;2687.15;2687.35;2686.40;2686.60
2018.11.28 17:49:00;2686.60;2688.35;2686.40;2687.75
2018.11.28 17:50:00;2687.75;2688.10;2687.15;2687.15
2018.11.28 17:51:00;2687.35;2687.85;2686.90;2687.75
2018.11.28 17:52:00;2687.75;2689.00;2687.75;2688.35
2018.11.28 17:53:00;2688.60;2688.85;2687.65;2688.60
2018.11.28 17:54:00;2688.15;2689.60;2687.90;2689.00
2018.11.28 17:55:00;2689.00;2689.75;2688.90;2689.35
2018.11.28 17:56:00;2689.25;2689.25;2688.65;2689.00
2018.11.28 17:57:00;2688.65;2689.25;2687.90;2688.25
2018.11.28 17:58:00;2688.50;2688.50;2687.65;2688.25
2018.11.28 17:59:00;2687.90;2688.50;2687.90;2688.50
2018.11.28 18:00:00;2687.90;2689.85;2687.65;2689.40
2018.11.28 18:01:00;2689.50;2689.50;2688.65;2688.85
2018.11.28 18:02:00;2688.65;2690.10;2688.40;2690.10
2018.11.28 18:03:00;2690.10;2690.25;2689.65;2689.85
2018.11.28 18:04:00;2689.65;2689.85;2688.65;2689.15
2018.11.28 18:05:00;2689.25;2689.75;2688.90;2689.10
2018.11.28 18:06:00;2688.90;2690.60;2688.40;2690.60
2018.11.28 18:07:00;2690.60;2691.00;2690.15;2691.00
2018.11.28 18:08:00;2690.65;2692.10;2690.65;2691.60
2018.11.28 18:09:00;2691.60;2693.10;2691.60;2692.10
2018.11.28 18:10:00;2691.90;2692.50;2691.65;2692.00
2018.11.28 18:11:00;2692.00;2693.10;2691.90;2693.10
2018.11.28 18:12:00;2692.90;2693.25;2691.90;2693.00
2018.11.28 18:13:00;2692.65;2693.10;2691.90;2692.85
2018.11.28 18:14:00;2692.65;2693.10;2692.15;2692.35
2018.11.28 18:15:00;2692.35;2692.85;2691.15;2691.60
2018.11.28 18:16:00;2691.60;2691.85;2690.65;2691.25
2018.11.28 18:17:00;2691.25;2691.35;2689.90;2690.35
2018.11.28 18:18:00;2690.50;2690.75;2689.90;2690.75
2018.11.28 18:19:00;2690.75;2691.25;2690.40;2691.00
2018.11.28 18:20:00;2691.00;2691.60;2690.65;2691.25
2018.11.28 18:21:00;2691.25;2691.50;2689.65;2690.40
2018.11.28 18:22:00;2690.60;2691.10;2690.40;2690.40
2018.11.28 18:23:00;2690.60;2690.75;2689.90;2690.25
2018.11.28 18:24:00;2690.25;2690.60;2689.40;2690.25
2018.11.28 18:25:00;2689.90;2690.85;2689.65;2690.85
2018.11.28 18:26:00;2690.85;2690.85;2689.90;2690.60
2018.11.28 18:27:00;2690.60;2691.10;2689.90;2691.10
2018.11.28 18:28:00;2690.90;2691.35;2690.65;2691.25
2018.11.28 18:29:00;2690.90;2692.00;2690.90;2691.75
2018.11.28 18:30:00;2691.75;2691.75;2690.65;2691.00
2018.11.28 18:31:00;2691.25;2692.50;2690.90;2692.35
2018.11.28 18:32:00;2692.35;2692.60;2691.90;2692.25
2018.11.28 18:33:00;2692.25;2692.85;2691.90;2692.10
2018.11.28 18:34:00;2691.65;2692.60;2691.65;2692.50
2018.11.28 18:35:00;2692.60;2692.75;2691.90;2692.10
2018.11.28 18:36:00;2691.90;2692.75;2691.65;2691.85
2018.11.28 18:37:00;2691.65;2692.25;2691.40;2691.70
2018.11.28 18:38:00;2691.40;2692.50;2691.15;2691.75
2018.11.28 18:39:00;2692.00;2692.25;2691.40;2692.10
2018.11.28 18:40:00;2691.90;2692.10;2690.65;2690.85
2018.11.28 18:41:00;2690.65;2690.85;2690.15;2690.35
2018.11.28 18:42:00;2690.35;2691.00;2690.15;2690.60
2018.11.28 18:43:00;2690.40;2691.00;2690.15;2690.65
2018.11.28 18:44:00;2690.75;2692.25;2690.40;2692.00
2018.11.28 18:45:00;2691.65;2692.10;2691.40;2691.75
2018.11.28 18:46:00;2691.75;2692.10;2690.90;2691.40
2018.11.28 18:47:00;2691.50;2692.10;2690.90;2692.10
2018.11.28 18:48:00;2691.90;2692.85;2691.15;2691.85
2018.11.28 18:49:00;2691.65;2692.25;2690.90;2692.10
2018.11.28 18:50:00;2691.90;2692.85;2691.65;2692.10
2018.11.28 18:51:00;2691.90;2692.25;2691.65;2692.10
2018.11.28 18:52:00;2692.10;2696.00;2691.90;2695.85
2018.11.28 18:53:00;2695.40;2695.60;2694.40;2694.60
2018.11.28 18:54:00;2694.60;2694.60;2693.40;2693.75
2018.11.28 18:55:00;2693.75;2694.10;2693.40;2694.10
2018.11.28 18:56:00;2693.65;2694.10;2692.65;2693.25
2018.11.28 18:57:00;2692.90;2693.35;2690.40;2691.35
2018.11.28 18:58:00;2691.15;2694.50;2691.15;2693.60
2018.11.28 18:59:00;2693.60;2695.35;2693.60;2694.75
2018.11.28 19:00:00;2694.75;2703.50;2694.65;2703.50
2018.11.28 19:01:00;2703.40;2706.35;2701.40;2706.25
2018.11.28 19:02:00;2706.25;2710.25;2704.25;2710.25
2018.11.28 19:03:00;2710.25;2711.60;2708.40;2711.00
2018.11.28 19:04:00;2710.65;2713.35;2710.40;2713.00
2018.11.28 19:05:00;2712.65;2718.10;2712.65;2716.00
2018.11.28 19:06:00;2715.75;2717.75;2713.65;2715.00
2018.11.28 19:07:00;2715.25;2717.25;2714.40;2716.50
2018.11.28 19:08:00;2716.50;2720.10;2716.40;2719.85
2018.11.28 19:09:00;2719.85;2722.85;2718.65;2721.85
2018.11.28 19:10:00;2721.85;2722.50;2718.65;2719.00
2018.11.28 19:11:00;2718.65;2719.60;2716.40;2717.25
2018.11.28 19:12:00;2717.25;2717.35;2714.65;2715.75
2018.11.28 19:13:00;2715.75;2718.85;2714.90;2718.35
2018.11.28 19:14:00;2718.15;2721.00;2718.15;2720.40
2018.11.28 19:15:00;2720.40;2723.10;2719.65;2719.90
2018.11.28 19:16:00;2720.00;2720.50;2717.15;2718.40
2018.11.28 19:17:00;2718.60;2719.35;2716.40;2719.00
2018.11.28 19:18:00;2718.65;2719.85;2717.65;2717.75
2018.11.28 19:19:00;2717.75;2720.10;2717.75;2720.10
2018.11.28 19:20:00;2719.90;2721.50;2719.90;2720.65
2018.11.28 19:21:00;2720.65;2722.10;2720.15;2721.50
2018.11.28 19:22:00;2721.50;2723.25;2719.90;2720.75
2018.11.28 19:23:00;2720.75;2721.35;2719.40;2720.00
2018.11.28 19:24:00;2719.65;2720.00;2718.65;2719.35
2018.11.28 19:25:00;2719.35;2719.85;2717.90;2718.40
2018.11.28 19:26:00;2718.75;2719.10;2717.65;2718.25
2018.11.28 19:27:00;2717.90;2720.35;2717.90;2719.50
2018.11.28 19:28:00;2719.60;2721.85;2719.60;2721.75
2018.11.28 19:29:00;2721.75;2724.25;2721.65;2722.50
2018.11.28 19:30:00;2722.15;2724.00;2719.90;2721.35
2018.11.28 19:31:00;2720.90;2723.00;2720.90;2723.00
2018.11.28 19:32:00;2722.65;2724.85;2722.40;2723.00
2018.11.28 19:33:00;2723.00;2723.75;2722.40;2722.75
2018.11.28 19:34:00;2722.75;2723.10;2720.90;2721.35
2018.11.28 19:35:00;2721.15;2722.35;2720.40;2720.85
2018.11.28 19:36:00;2720.65;2721.25;2719.40;2720.10
2018.11.28 19:37:00;2719.90;2721.50;2719.40;2719.90
2018.11.28 19:38:00;2720.25;2721.25;2719.40;2719.60
2018.11.28 19:39:00;2719.15;2723.35;2718.90;2723.10
2018.11.28 19:40:00;2722.90;2723.10;2720.40;2720.75
2018.11.28 19:41:00;2720.75;2721.25;2719.40;2720.35
2018.11.28 19:42:00;2720.15;2722.10;2719.90;2719.90
2018.11.28 19:43:00;2720.00;2722.00;2719.15;2721.50
2018.11.28 19:44:00;2721.50;2722.35;2721.15;2721.85
2018.11.28 19:45:00;2721.65;2723.85;2721.65;2723.60
2018.11.28 19:46:00;2723.40;2724.00;2721.90;2722.50
2018.11.28 19:47:00;2722.50;2725.35;2722.50;2724.75
2018.11.28 19:48:00;2724.65;2726.25;2721.90;2722.15
2018.11.28 19:49:00;2722.25;2725.10;2721.90;2723.50
2018.11.28 19:50:00;2723.50;2725.50;2723.40;2724.10
2018.11.28 19:51:00;2724.10;2725.60;2723.90;2724.75
2018.11.28 19:52:00;2725.00;2725.35;2724.15;2724.50
2018.11.28 19:53:00;2724.50;2726.75;2724.40;2724.60
2018.11.28 19:54:00;2724.60;2726.75;2724.15;2725.85
2018.11.28 19:55:00;2725.85;2726.75;2724.65;2725.00
2018.11.28 19:56:00;2724.65;2726.35;2724.65;2726.10
2018.11.28 19:57:00;2725.90;2726.50;2724.15;2724.75
2018.11.28 19:58:00;2724.75;2725.35;2722.50;2722.85
2018.11.28 19:59:00;2723.00;2723.75;2721.65;2722.00
2018.11.28 20:00:00;2721.90;2723.35;2719.40;2720.75
2018.11.28 20:01:00;2720.85;2721.85;2719.90;2721.10
2018.11.28 20:02:00;2720.90;2721.00;2719.65;2720.00
2018.11.28 20:03:00;2720.00;2720.10;2718.65;2718.75
2018.11.28 20:04:00;2718.75;2718.85;2717.15;2717.75
2018.11.28 20:05:00;2717.40;2719.00;2717.40;2718.25
2018.11.28 20:06:00;2718.25;2718.25;2717.40;2717.60
2018.11.28 20:07:00;2717.60;2718.60;2717.40;2717.60
2018.11.28 20:08:00;2717.60;2719.85;2717.60;2719.35
2018.11.28 20:09:00;2719.35;2720.10;2718.65;2719.25
2018.11.28 20:10:00;2718.90;2719.35;2718.40;2718.75
2018.11.28 20:11:00;2718.75;2719.35;2718.65;2719.10
2018.11.28 20:12:00;2718.65;2718.85;2717.90;2718.50
2018.11.28 20:13:00;2718.50;2720.85;2718.40;2720.85
2018.11.28 20:14:00;2720.85;2722.10;2720.65;2721.75
2018.11.28 20:15:00;2721.40;2722.35;2720.65;2721.00
2018.11.28 20:16:00;2721.10;2722.75;2721.10;2722.60
2018.11.28 20:17:00;2722.60;2723.25;2722.60;2723.25
2018.11.28 20:18:00;2723.25;2724.00;2722.90;2723.85
2018.11.28 20:19:00;2723.65;2723.85;2722.65;2723.50
2018.11.28 20:20:00;2723.50;2723.60;2722.65;2723.25
2018.11.28 20:21:00;2723.25;2723.35;2722.65;2723.25
2018.11.28 20:22:00;2722.90;2723.25;2721.65;2722.35
2018.11.28 20:23:00;2721.90;2722.85;2721.90;2722.40
2018.11.28 20:24:00;2722.50;2723.10;2722.15;2723.10
2018.11.28 20:25:00;2722.90;2725.00;2722.90;2725.00
2018.11.28 20:26:00;2725.00;2725.35;2723.40;2723.85
2018.11.28 20:27:00;2723.75;2723.75;2722.15;2722.60
2018.11.28 20:28:00;2722.40;2724.10;2722.40;2724.10
2018.11.28 20:29:00;2723.90;2725.85;2723.65;2724.90
2018.11.28 20:30:00;2725.25;2727.00;2724.40;2726.85
2018.11.28 20:31:00;2726.85;2727.35;2725.90;2726.15
2018.11.28 20:32:00;2726.45;2726.60;2724.90;2725.60
2018.11.28 20:33:00;2725.60;2726.60;2725.60;2725.85
2018.11.28 20:34:00;2725.65;2726.10;2725.40;2726.10
2018.11.28 20:35:00;2725.90;2727.10;2725.90;2726.75
2018.11.28 20:36:00;2726.75;2728.50;2726.40;2728.50
2018.11.28 20:37:00;2728.15;2729.85;2728.15;2729.25
2018.11.28 20:38:00;2729.35;2730.25;2729.15;2729.60
2018.11.28 20:39:00;2729.60;2730.60;2729.60;2730.35
2018.11.28 20:40:00;2730.35;2730.75;2729.65;2730.75
2018.11.28 20:41:00;2730.75;2730.75;2729.90;2730.40
2018.11.28 20:42:00;2730.50;2732.50;2730.40;2732.50
2018.11.28 20:43:00;2732.60;2732.75;2731.90;2732.60
2018.11.28 20:44:00;2732.40;2732.60;2731.40;2731.40
2018.11.28 20:45:00;2731.75;2732.60;2731.40;2732.25
2018.11.28 20:46:00;2731.90;2733.50;2731.90;2733.40
2018.11.28 20:47:00;2733.50;2733.75;2732.15;2732.60
2018.11.28 20:48:00;2732.40;2732.85;2731.65;2732.35
2018.11.28 20:49:00;2732.15;2732.35;2730.90;2731.25
2018.11.28 20:50:00;2731.45;2732.00;2730.40;2731.00
2018.11.28 20:51:00;2731.00;2731.60;2729.90;2730.60
2018.11.28 20:52:00;2730.40;2732.35;2730.40;2730.90
2018.11.28 20:53:00;2731.00;2731.35;2730.40;2731.10
2018.11.28 20:54:00;2730.90;2731.35;2730.40;2730.75
2018.11.28 20:55:00;2730.75;2733.10;2730.75;2733.10
2018.11.28 20:56:00;2732.90;2733.25;2731.40;2731.75
2018.11.28 20:57:00;2732.00;2732.35;2731.40;2731.60
2018.11.28 20:58:00;2731.40;2732.10;2730.90;2731.25
2018.11.28 20:59:00;2731.50;2731.85;2731.15;2731.85
2018.11.28 21:00:00;2731.65;2732.10;2730.65;2730.85
2018.11.28 21:01:00;2730.85;2731.75;2730.40;2731.60
2018.11.28 21:02:00;2731.15;2732.60;2731.15;2732.50
2018.11.28 21:03:00;2732.60;2733.35;2732.40;2733.10
2018.11.28 21:04:00;2733.10;2733.85;2732.65;2733.65
2018.11.28 21:05:00;2733.75;2734.35;2732.90;2733.10
2018.11.28 21:06:00;2732.90;2733.10;2730.90;2732.35
2018.11.28 21:07:00;2732.35;2732.85;2731.90;2732.25
2018.11.28 21:08:00;2731.90;2732.60;2731.40;2731.90
2018.11.28 21:09:00;2732.00;2733.00;2731.40;2731.75
2018.11.28 21:10:00;2731.40;2733.25;2731.40;2732.60
2018.11.28 21:11:00;2732.15;2732.75;2731.15;2731.60
2018.11.28 21:12:00;2731.60;2732.75;2731.40;2732.25
2018.11.28 21:13:00;2732.25;2732.75;2731.65;2732.35
2018.11.28 21:14:00;2732.15;2733.85;2731.90;2733.75
2018.11.28 21:15:00;2733.40;2733.60;2728.90;2728.90
2018.11.28 21:16:00;2729.00;2730.25;2728.40;2729.90
2018.11.28 21:17:00;2730.00;2731.85;2729.65;2731.75
2018.11.28 21:18:00;2731.40;2732.60;2731.40;2732.10
2018.11.28 21:19:00;2731.90;2732.50;2731.15;2731.60
2018.11.28 21:20:00;2731.40;2732.10;2729.90;2730.10
2018.11.28 21:21:00;2730.15;2730.35;2728.15;2728.40
2018.11.28 21:22:00;2728.60;2729.25;2727.65;2728.15
2018.11.28 21:23:00;2728.35;2729.35;2727.90;2728.25
2018.11.28 21:24:00;2728.50;2730.25;2727.90;2729.95
2018.11.28 21:25:00;2730.00;2730.75;2729.15;2730.75
2018.11.28 21:26:00;2730.75;2731.75;2730.15;2731.60
2018.11.28 21:27:00;2731.60;2732.00;2730.90;2731.10
2018.11.28 21:28:00;2731.10;2731.60;2730.90;2731.50
2018.11.28 21:29:00;2731.15;2731.35;2729.65;2730.35
2018.11.28 21:30:00;2730.35;2731.10;2730.15;2730.35
2018.11.28 21:31:00;2730.15;2731.50;2730.15;2731.10
2018.11.28 21:32:00;2731.10;2731.25;2730.40;2731.25
2018.11.28 21:33:00;2731.25;2731.60;2729.15;2729.50
2018.11.28 21:34:00;2729.50;2730.50;2728.90;2730.35
2018.11.28 21:35:00;2730.35;2730.75;2729.90;2730.50
2018.11.28 21:36:00;2729.90;2730.85;2729.90;2730.65
2018.11.28 21:37:00;2730.75;2732.10;2730.65;2731.35
2018.11.28 21:38:00;2731.35;2731.60;2730.40;2730.85
2018.11.28 21:39:00;2730.65;2730.85;2728.65;2729.25
2018.11.28 21:40:00;2729.25;2731.25;2729.25;2730.75
2018.11.28 21:41:00;2730.75;2731.35;2730.40;2731.00
2018.11.28 21:42:00;2731.10;2731.35;2730.15;2730.75
2018.11.28 21:43:00;2730.75;2731.60;2729.90;2731.60
2018.11.28 21:44:00;2731.60;2731.60;2730.65;2730.85
2018.11.28 21:45:00;2730.85;2732.00;2730.65;2731.50
2018.11.28 21:46:00;2731.15;2731.50;2730.65;2731.35
2018.11.28 21:47:00;2731.15;2731.75;2730.90;2731.35
2018.11.28 21:48:00;2731.15;2731.75;2730.40;2731.00
2018.11.28 21:49:00;2731.00;2731.35;2729.65;2731.35
2018.11.28 21:50:00;2731.15;2731.85;2730.65;2730.90
2018.11.28 21:51:00;2731.10;2731.35;2730.40;2731.10
2018.11.28 21:52:00;2730.90;2732.25;2730.90;2732.25
2018.11.28 21:53:00;2731.85;2731.85;2729.40;2729.50
2018.11.28 21:54:00;2729.75;2730.50;2729.15;2729.35
2018.11.28 21:55:00;2729.35;2729.75;2727.90;2728.60
2018.11.28 21:56:00;2728.40;2729.60;2728.40;2728.75
2018.11.28 21:57:00;2728.60;2728.95;2728.15;2728.50
2018.11.28 21:58:00;2728.50;2728.50;2726.40;2726.75
2018.11.28 21:59:00;2726.75;2727.25;2726.40;2726.65
2018.11.28 22:00:00;2726.85;2727.10;2725.65;2726.60
2018.11.28 22:01:00;2726.60;2727.00;2725.90;2726.25
2018.11.28 22:02:00;2725.90;2726.10;2724.40;2724.60
2018.11.28 22:03:00;2724.15;2726.85;2724.15;2726.85
2018.11.28 22:04:00;2726.65;2727.60;2726.65;2727.25
2018.11.28 22:05:00;2727.25;2727.60;2726.65;2726.75
2018.11.28 22:06:00;2726.75;2728.50;2726.75;2727.85
2018.11.28 22:07:00;2727.85;2728.10;2726.90;2727.35
2018.11.28 22:08:00;2727.35;2728.10;2726.40;2726.75
2018.11.28 22:09:00;2726.75;2726.85;2725.90;2726.75
2018.11.28 22:10:00;2726.75;2728.25;2726.40;2727.75
2018.11.28 22:11:00;2727.85;2727.85;2727.15;2727.75
2018.11.28 22:12:00;2727.40;2728.10;2727.15;2727.15
2018.11.28 22:13:00;2727.35;2728.85;2726.65;2728.65
2018.11.28 22:14:00;2728.75;2730.00;2728.40;2729.60
2018.11.28 22:15:00;2728.90;2729.85;2728.90;2728.90
2018.11.28 22:16:00;2729.25;2729.60;2728.65;2729.10
2018.11.28 22:17:00;2728.90;2729.25;2727.90;2728.25
2018.11.28 22:18:00;2728.25;2729.25;2728.15;2729.10
2018.11.28 22:19:00;2728.90;2729.50;2728.40;2729.10
2018.11.28 22:20:00;2728.90;2731.00;2728.90;2730.85
2018.11.28 22:21:00;2730.85;2732.00;2730.85;2731.40
2018.11.28 22:22:00;2731.50;2731.50;2730.40;2730.85
2018.11.28 22:23:00;2730.40;2732.10;2730.40;2731.85
2018.11.28 22:24:00;2731.85;2732.50;2731.40;2731.60
2018.11.28 22:25:00;2731.40;2732.50;2731.40;2732.25
2018.11.28 22:26:00;2732.25;2732.60;2731.15;2731.50
2018.11.28 22:27:00;2731.15;2731.35;2730.65;2730.75
2018.11.28 22:28:00;2730.75;2731.75;2730.65;2731.75
2018.11.28 22:29:00;2731.40;2734.25;2731.40;2733.60
2018.11.28 22:30:00;2733.40;2733.60;2731.90;2732.10
2018.11.28 22:31:00;2731.90;2732.25;2731.15;2731.85
2018.11.28 22:32:00;2731.85;2733.25;2731.85;2733.10
2018.11.28 22:33:00;2732.90;2734.35;2732.90;2734.25
2018.11.28 22:34:00;2733.90;2736.35;2733.90;2736.35
2018.11.28 22:35:00;2736.15;2737.10;2735.90;2736.85
2018.11.28 22:36:00;2736.85;2737.10;2736.40;2736.75
2018.11.28 22:37:00;2736.40;2737.25;2736.40;2737.10
2018.11.28 22:38:00;2737.10;2738.25;2736.90;2738.10
2018.11.28 22:39:00;2738.10;2738.10;2736.90;2737.60
2018.11.28 22:40:00;2737.60;2737.85;2736.65;2737.85
2018.11.28 22:41:00;2737.85;2738.25;2737.65;2738.10
2018.11.28 22:42:00;2737.90;2738.85;2737.90;2738.75
2018.11.28 22:43:00;2738.40;2739.35;2738.40;2738.85
2018.11.28 22:44:00;2738.65;2738.85;2737.40;2737.75
2018.11.28 22:45:00;2737.75;2740.60;2737.75;2740.60
2018.11.28 22:46:00;2740.40;2741.10;2740.15;2741.10
2018.11.28 22:47:00;2740.90;2741.35;2740.65;2741.35
2018.11.28 22:48:00;2741.15;2742.25;2740.90;2742.00
2018.11.28 22:49:00;2742.10;2742.60;2741.65;2742.50
2018.11.28 22:50:00;2742.15;2742.85;2741.90;2742.50
2018.11.28 22:51:00;2742.50;2742.60;2741.90;2742.25
2018.11.28 22:52:00;2741.90;2742.25;2741.40;2742.10
2018.11.28 22:53:00;2742.10;2742.25;2741.40;2741.75
2018.11.28 22:54:00;2741.75;2742.00;2741.15;2741.85
2018.11.28 22:55:00;2740.90;2743.10;2740.90;2743.00
2018.11.28 22:56:00;2743.00;2743.25;2742.40;2742.75
2018.11.28 22:57:00;2742.75;2743.10;2741.90;2742.10
2018.11.28 22:58:00;2742.10;2743.60;2741.65;2743.35
2018.11.28 22:59:00;2743.35;2744.25;2741.65;2743.65
2018.11.28 23:00:00;2743.75;2744.10;2740.40;2740.60
2018.11.28 23:01:00;2740.40;2740.60;2738.40;2738.60
2018.11.28 23:02:00;2738.40;2740.10;2738.40;2739.10
2018.11.28 23:03:00;2739.10;2739.85;2739.10;2739.85
2018.11.28 23:04:00;2739.65;2740.50;2739.65;2740.00
2018.11.28 23:05:00;2740.00;2740.35;2739.90;2740.25
2018.11.28 23:06:00;2740.25;2740.60;2740.15;2740.50
2018.11.28 23:07:00;2740.15;2740.50;2740.15;2740.35
2018.11.28 23:08:00;2740.15;2740.35;2740.15;2740.25
2018.11.28 23:09:00;2740.25;2740.25;2739.40;2739.75
2018.11.28 23:10:00;2740.00;2740.10;2739.15;2739.60
2018.11.28 23:11:00;2739.40;2739.50;2738.65;2739.00
2018.11.28 23:12:00;2738.65;2739.00;2738.65;2739.00
2018.11.28 23:13:00;2739.00;2739.60;2738.90;2739.50
2018.11.28 23:14:00;2739.50;2741.50;2739.40;2741.50
2018.11.28 23:30:00;2741.25;2741.35;2740.40;2741.25
2018.11.28 23:31:00;2741.25;2741.50;2740.75;2741.00
2018.11.28 23:32:00;2740.95;2741.00;2740.40;2740.75
2018.11.28 23:33:00;2740.85;2741.25;2740.65;2741.25
2018.11.28 23:34:00;2740.90;2741.50;2740.90;2741.50
2018.11.28 23:35:00;2741.50;2741.60;2741.40;2741.60
2018.11.28 23:36:00;2741.40;2741.60;2741.15;2741.60
2018.11.28 23:37:00;2741.15;2741.35;2740.90;2741.25
2018.11.28 23:38:00;2741.15;2741.25;2740.90;2741.25
2018.11.28 23:39:00;2740.90;2741.25;2740.90;2741.10
2018.11.28 23:40:00;2740.90;2741.10;2740.90;2741.10
2018.11.28 23:41:00;2741.10;2741.10;2740.65;2740.90
2018.11.28 23:42:00;2740.65;2741.10;2740.65;2740.85
2018.11.28 23:43:00;2740.85;2741.00;2740.65;2740.85
2018.11.28 23:44:00;2740.85;2741.00;2740.65;2740.75
2018.11.28 23:45:00;2740.75;2740.75;2739.90;2740.10
2018.11.28 23:46:00;2740.25;2740.25;2739.90;2740.10
2018.11.28 23:47:00;2739.90;2740.10;2739.90;2740.10
2018.11.28 23:48:00;2739.90;2740.10;2739.65;2739.85
2018.11.28 23:49:00;2739.65;2739.75;2739.40;2739.50
2018.11.28 23:50:00;2739.60;2739.60;2739.15;2739.35
2018.11.28 23:51:00;2739.15;2739.35;2739.15;2739.35
2018.11.28 23:52:00;2739.35;2739.60;2739.15;2739.60
2018.11.28 23:53:00;2739.60;2739.85;2739.60;2739.85
2018.11.28 23:54:00;2739.40;2740.00;2739.40;2739.85
2018.11.28 23:55:00;2740.00;2740.60;2739.90;2740.60
2018.11.28 23:56:00;2740.40;2740.60;2740.40;2740.50
2018.11.28 23:57:00;2740.50;2740.75;2740.40;2740.75
2018.11.28 23:58:00;2740.85;2740.85;2740.40;2740.75
