2018.11.28 05:01:00;24771.10;24772.00;24761.20;24762.00
2018.11.28 05:05:00;24761.00;24764.00;24759.20;24763.00
2018.11.28 05:06:00;24764.00;24764.00;24759.20;24760.00
2018.11.28 05:44:00;24766.00;24771.00;24766.00;24770.00
2018.11.28 05:45:00;24767.20;24774.00;24767.20;24772.00
2018.11.28 05:58:00;24763.20;24767.00;24763.20;24766.10
2018.11.28 05:59:00;24766.10;24767.00;24765.20;24767.00
2018.11.28 06:00:00;24767.00;24768.00;24765.20;24767.20
2018.11.28 06:01:00;24767.20;24768.10;24765.20;24768.10
2018.11.28 06:02:00;24769.00;24769.00;24765.20;24767.00
2018.11.28 06:03:00;24767.00;24768.10;24765.20;24768.10
2018.11.28 06:04:00;24767.20;24771.00;24767.20;24770.00
2018.11.28 06:05:00;24767.20;24771.00;24767.20;24770.10
2018.11.28 06:06:00;24770.10;24773.00;24770.10;24773.00
2018.11.28 06:07:00;24773.00;24774.00;24771.20;24773.20
2018.11.28 06:08:00;24773.20;24776.00;24773.20;24775.10
2018.11.28 06:09:00;24776.00;24776.00;24773.20;24775.10
2018.11.28 06:10:00;24776.00;24776.00;24769.20;24773.00
2018.11.28 06:11:00;24773.00;24773.00;24769.20;24773.00
2018.11.28 06:12:00;24773.00;24773.00;24767.20;24771.10
2018.11.28 06:13:00;24769.20;24772.00;24767.20;24771.10
2018.11.28 06:14:00;24772.00;24774.00;24769.20;24773.10
2018.11.28 06:15:00;24773.10;24774.00;24771.20;24773.10
2018.11.28 06:16:00;24773.10;24773.10;24769.20;24772.00
2018.11.28 06:17:00;24769.20;24773.00;24767.20;24773.00
2018.11.28 06:18:00;24771.20;24773.00;24769.20;24770.10
2018.11.28 06:19:00;24767.20;24777.00;24767.20;24776.00
2018.11.28 06:20:00;24776.00;24785.00;24776.00;24784.10
2018.11.28 06:21:00;24785.00;24797.20;24781.20;24793.50
2018.11.28 06:22:00;24791.20;24809.50;24789.20;24805.60
2018.11.28 06:23:00;24805.60;24810.50;24801.20;24807.20
2018.11.28 06:24:00;24808.60;24810.50;24793.20;24795.50
2018.11.28 06:25:00;24793.20;24799.50;24793.20;24798.50
2018.11.28 06:26:00;24798.50;24800.60;24797.20;24799.50
2018.11.28 06:27:00;24797.20;24799.50;24795.20;24795.60
2018.11.28 06:28:00;24795.60;24795.60;24793.20;24795.50
2018.11.28 06:29:00;24795.50;24796.50;24789.20;24792.60
2018.11.28 06:30:00;24793.50;24794.50;24787.20;24788.50
2018.11.28 06:31:00;24787.20;24788.50;24785.20;24786.50
2018.11.28 06:32:00;24786.50;24786.50;24779.20;24784.60
2018.11.28 06:33:00;24784.60;24788.50;24784.60;24786.50
2018.11.28 06:34:00;24786.50;24786.50;24783.20;24785.50
2018.11.28 06:35:00;24785.50;24785.50;24783.20;24784.50
2018.11.28 06:36:00;24783.20;24784.50;24779.20;24783.60
2018.11.28 06:37:00;24783.60;24785.50;24783.20;24784.50
2018.11.28 06:38:00;24784.60;24786.50;24783.20;24784.60
2018.11.28 06:39:00;24785.50;24785.60;24783.20;24784.60
2018.11.28 06:40:00;24785.50;24786.50;24783.20;24786.50
2018.11.28 06:41:00;24786.50;24786.50;24785.20;24785.60
2018.11.28 06:42:00;24783.20;24785.50;24781.20;24783.60
2018.11.28 06:43:00;24781.20;24784.50;24781.20;24781.50
2018.11.28 06:44:00;24782.50;24786.50;24782.50;24785.50
2018.11.28 06:45:00;24785.60;24787.50;24785.20;24787.50
2018.11.28 06:46:00;24787.50;24788.50;24783.20;24785.60
2018.11.28 06:47:00;24785.60;24787.50;24785.20;24786.50
2018.11.28 06:48:00;24786.50;24789.50;24785.20;24788.60
2018.11.28 06:49:00;24788.60;24788.60;24787.20;24788.50
2018.11.28 06:50:00;24787.20;24787.50;24785.20;24786.50
2018.11.28 06:51:00;24785.20;24786.50;24783.20;24785.50
2018.11.28 06:52:00;24785.50;24786.60;24783.20;24784.50
2018.11.28 06:53:00;24783.20;24784.50;24781.20;24784.50
2018.11.28 06:54:00;24784.50;24784.60;24781.20;24781.60
2018.11.28 06:55:00;24781.60;24782.60;24781.20;24782.50
2018.11.28 06:56:00;24782.60;24783.50;24781.20;24781.50
2018.11.28 06:57:00;24781.60;24782.50;24781.60;24782.50
2018.11.28 06:58:00;24782.50;24782.50;24782.50;24782.50
2018.11.28 06:59:00;24783.50;24784.50;24783.50;24784.50
2018.11.28 07:00:00;24784.50;24788.50;24783.20;24786.50
2018.11.28 07:01:00;24785.20;24790.50;24785.20;24789.50
2018.11.28 07:02:00;24790.50;24794.50;24790.50;24792.50
2018.11.28 07:03:00;24792.50;24793.50;24791.20;24793.50
2018.11.28 07:04:00;24791.20;24794.50;24789.20;24793.50
2018.11.28 07:05:00;24793.60;24793.60;24787.20;24788.60
2018.11.28 07:06:00;24788.60;24789.50;24783.20;24785.50
2018.11.28 07:07:00;24785.50;24787.50;24783.20;24784.60
2018.11.28 07:08:00;24784.60;24785.50;24783.20;24784.60
2018.11.28 07:09:00;24783.20;24786.50;24781.20;24786.50
2018.11.28 07:10:00;24787.50;24788.60;24785.20;24787.60
2018.11.28 07:11:00;24787.60;24790.50;24787.20;24790.50
2018.11.28 07:12:00;24789.20;24791.50;24787.20;24791.50
2018.11.28 07:13:00;24792.50;24792.50;24787.20;24789.50
2018.11.28 07:14:00;24789.50;24792.50;24789.20;24791.60
2018.11.28 07:15:00;24791.60;24791.60;24789.20;24789.60
2018.11.28 07:16:00;24789.60;24789.60;24787.20;24787.50
2018.11.28 07:17:00;24788.50;24788.50;24783.20;24787.50
2018.11.28 07:18:00;24785.20;24788.50;24783.20;24786.50
2018.11.28 07:19:00;24785.20;24786.50;24783.20;24786.50
2018.11.28 07:20:00;24785.20;24786.50;24783.20;24786.50
2018.11.28 07:21:00;24786.50;24788.50;24786.50;24787.50
2018.11.28 07:22:00;24787.50;24788.50;24785.20;24788.50
2018.11.28 07:23:00;24787.20;24788.50;24785.20;24787.50
2018.11.28 07:24:00;24785.20;24787.50;24783.20;24785.50
2018.11.28 07:25:00;24783.20;24785.50;24781.20;24783.50
2018.11.28 07:26:00;24783.50;24784.50;24781.20;24782.60
2018.11.28 07:27:00;24782.60;24782.60;24779.20;24780.50
2018.11.28 07:28:00;24781.50;24781.50;24779.20;24781.50
2018.11.28 07:29:00;24781.50;24783.50;24781.20;24781.50
2018.11.28 07:30:00;24781.50;24781.50;24777.20;24780.60
2018.11.28 07:31:00;24780.60;24786.50;24779.20;24786.50
2018.11.28 07:32:00;24785.50;24786.50;24783.20;24786.50
2018.11.28 07:33:00;24786.50;24788.50;24785.20;24787.60
2018.11.28 07:34:00;24787.60;24789.50;24787.20;24788.60
2018.11.28 07:35:00;24788.60;24789.50;24785.20;24788.50
2018.11.28 07:36:00;24789.50;24789.50;24787.20;24788.50
2018.11.28 07:37:00;24787.20;24790.50;24787.20;24789.60
2018.11.28 07:38:00;24789.60;24789.60;24787.20;24788.50
2018.11.28 07:39:00;24787.20;24789.50;24787.20;24787.60
2018.11.28 07:40:00;24785.20;24791.50;24785.20;24791.50
2018.11.28 07:41:00;24789.20;24791.50;24789.20;24790.60
2018.11.28 07:42:00;24790.60;24790.60;24787.20;24789.50
2018.11.28 07:43:00;24789.50;24790.50;24787.20;24789.50
2018.11.28 07:44:00;24789.50;24790.50;24787.20;24789.50
2018.11.28 07:45:00;24789.50;24790.50;24785.20;24787.50
2018.11.28 07:46:00;24787.50;24789.50;24787.20;24787.60
2018.11.28 07:47:00;24787.50;24788.50;24785.20;24788.50
2018.11.28 07:48:00;24787.20;24792.50;24787.20;24791.60
2018.11.28 07:49:00;24789.20;24791.50;24789.20;24791.50
2018.11.28 07:50:00;24789.20;24790.60;24787.20;24788.50
2018.11.28 07:51:00;24788.60;24793.50;24787.20;24793.50
2018.11.28 07:52:00;24794.50;24795.50;24793.20;24793.50
2018.11.28 07:53:00;24791.20;24793.50;24787.20;24787.60
2018.11.28 07:54:00;24788.50;24788.60;24783.20;24786.50
2018.11.28 07:55:00;24786.50;24787.50;24779.20;24784.50
2018.11.28 07:56:00;24784.50;24787.50;24783.20;24787.50
2018.11.28 07:57:00;24785.20;24789.50;24785.20;24789.50
2018.11.28 07:58:00;24789.50;24792.50;24789.20;24790.50
2018.11.28 07:59:00;24791.50;24794.50;24789.20;24792.50
2018.11.28 08:00:00;24791.20;24794.50;24789.20;24793.50
2018.11.28 08:01:00;24793.60;24798.50;24793.20;24798.50
2018.11.28 08:02:00;24798.50;24798.50;24795.20;24797.50
2018.11.28 08:03:00;24797.50;24798.60;24797.20;24798.60
2018.11.28 08:04:00;24798.60;24802.50;24797.20;24799.60
2018.11.28 08:05:00;24799.60;24800.50;24797.20;24799.60
2018.11.28 08:06:00;24797.20;24799.50;24797.20;24797.60
2018.11.28 08:07:00;24797.60;24799.50;24793.20;24799.50
2018.11.28 08:08:00;24797.20;24801.50;24797.20;24800.50
2018.11.28 08:09:00;24800.60;24802.50;24799.20;24802.50
2018.11.28 08:10:00;24802.50;24813.50;24801.20;24812.50
2018.11.28 08:11:00;24812.50;24813.50;24805.20;24810.50
2018.11.28 08:12:00;24809.20;24831.50;24807.20;24828.00
2018.11.28 08:13:00;24828.00;24829.00;24823.20;24826.00
2018.11.28 08:14:00;24826.00;24826.00;24821.20;24825.00
2018.11.28 08:15:00;24825.00;24826.00;24823.20;24824.00
2018.11.28 08:16:00;24825.00;24831.00;24823.20;24828.00
2018.11.28 08:17:00;24828.00;24832.10;24828.00;24832.10
2018.11.28 08:18:00;24829.20;24832.10;24827.20;24831.10
2018.11.28 08:19:00;24831.10;24832.00;24827.20;24830.00
2018.11.28 08:20:00;24830.00;24831.00;24827.20;24828.00
2018.11.28 08:21:00;24827.20;24828.00;24823.20;24827.20
2018.11.28 08:22:00;24828.00;24830.00;24825.20;24829.20
2018.11.28 08:23:00;24830.00;24837.00;24827.20;24837.00
2018.11.28 08:24:00;24837.00;24840.00;24835.20;24840.00
2018.11.28 08:25:00;24837.20;24840.00;24835.20;24838.00
2018.11.28 08:26:00;24835.20;24847.00;24835.20;24841.20
2018.11.28 08:27:00;24841.20;24844.00;24839.20;24842.00
2018.11.28 08:28:00;24842.00;24843.10;24839.20;24843.10
2018.11.28 08:29:00;24844.00;24846.00;24843.20;24845.20
2018.11.28 08:30:00;24845.20;24847.00;24843.20;24846.00
2018.11.28 08:31:00;24843.20;24850.00;24843.20;24849.00
2018.11.28 08:32:00;24849.00;24854.00;24847.20;24848.10
2018.11.28 08:33:00;24849.00;24849.00;24837.20;24840.00
2018.11.28 08:34:00;24837.20;24842.00;24837.20;24840.00
2018.11.28 08:35:00;24840.00;24842.00;24839.20;24839.20
2018.11.28 08:36:00;24839.20;24840.00;24835.20;24839.00
2018.11.28 08:37:00;24837.20;24839.00;24829.20;24831.00
2018.11.28 08:38:00;24829.20;24845.50;24825.20;24843.50
2018.11.28 08:39:00;24841.20;24845.50;24841.20;24843.50
2018.11.28 08:40:00;24841.20;24844.60;24841.20;24844.50
2018.11.28 08:41:00;24843.20;24848.50;24841.20;24842.60
2018.11.28 08:42:00;24842.60;24843.50;24839.20;24841.60
2018.11.28 08:43:00;24839.20;24843.50;24839.20;24840.50
2018.11.28 08:44:00;24839.20;24843.50;24837.20;24842.50
2018.11.28 08:45:00;24843.50;24849.50;24841.20;24848.50
2018.11.28 08:46:00;24848.50;24853.60;24847.20;24853.60
2018.11.28 08:47:00;24853.60;24853.60;24849.20;24852.50
2018.11.28 08:48:00;24851.20;24852.50;24847.20;24848.50
2018.11.28 08:49:00;24848.50;24850.50;24848.50;24850.50
2018.11.28 08:50:00;24849.20;24850.50;24845.20;24846.60
2018.11.28 08:51:00;24846.60;24846.60;24841.20;24843.60
2018.11.28 08:52:00;24843.60;24845.50;24841.20;24845.50
2018.11.28 08:53:00;24843.20;24846.50;24841.20;24846.50
2018.11.28 08:54:00;24846.60;24849.50;24845.20;24846.60
2018.11.28 08:55:00;24846.60;24849.60;24846.60;24849.50
2018.11.28 08:56:00;24847.20;24848.60;24845.20;24847.50
2018.11.28 08:57:00;24845.20;24846.60;24843.20;24844.60
2018.11.28 08:58:00;24845.50;24845.50;24843.20;24844.50
2018.11.28 08:59:00;24844.50;24844.50;24841.20;24842.60
2018.11.28 09:00:00;24842.60;24848.50;24841.20;24843.50
2018.11.28 09:01:00;24843.50;24847.50;24843.50;24846.60
2018.11.28 09:02:00;24846.60;24846.60;24841.20;24842.50
2018.11.28 09:03:00;24842.50;24845.50;24839.20;24845.50
2018.11.28 09:04:00;24845.50;24849.50;24843.20;24847.50
2018.11.28 09:05:00;24847.50;24847.60;24841.20;24843.50
2018.11.28 09:06:00;24843.50;24846.50;24843.20;24845.50
2018.11.28 09:07:00;24846.50;24847.50;24845.20;24846.50
2018.11.28 09:08:00;24845.20;24845.50;24843.20;24845.50
2018.11.28 09:09:00;24845.50;24846.50;24843.20;24845.50
2018.11.28 09:10:00;24845.50;24847.50;24843.20;24846.50
2018.11.28 09:11:00;24846.50;24846.50;24843.20;24845.60
2018.11.28 09:12:00;24846.50;24847.50;24841.20;24843.50
2018.11.28 09:13:00;24843.50;24844.50;24839.20;24839.50
2018.11.28 09:14:00;24839.50;24842.50;24837.20;24838.50
2018.11.28 09:15:00;24838.50;24841.50;24835.20;24836.60
2018.11.28 09:16:00;24836.60;24837.50;24833.20;24834.60
2018.11.28 09:17:00;24834.60;24838.50;24834.60;24837.60
2018.11.28 09:18:00;24837.60;24837.60;24831.20;24833.50
2018.11.28 09:19:00;24833.50;24835.50;24833.20;24834.60
2018.11.28 09:20:00;24834.60;24834.60;24833.20;24834.50
2018.11.28 09:21:00;24834.50;24835.50;24833.20;24834.60
2018.11.28 09:22:00;24835.50;24837.50;24833.20;24837.50
2018.11.28 09:23:00;24837.50;24841.50;24837.20;24841.50
2018.11.28 09:24:00;24841.50;24845.50;24839.20;24845.50
2018.11.28 09:25:00;24845.50;24845.50;24837.20;24838.50
2018.11.28 09:26:00;24838.50;24839.50;24833.20;24835.60
2018.11.28 09:27:00;24833.20;24836.50;24833.20;24835.50
2018.11.28 09:28:00;24835.50;24839.60;24835.50;24838.60
2018.11.28 09:29:00;24838.60;24838.60;24833.20;24834.60
2018.11.28 09:30:00;24833.20;24835.50;24827.20;24830.60
2018.11.28 09:31:00;24831.50;24833.50;24829.20;24832.50
2018.11.28 09:32:00;24832.50;24837.50;24831.20;24836.50
2018.11.28 09:33:00;24836.50;24836.50;24829.20;24830.50
2018.11.28 09:34:00;24830.50;24832.60;24827.20;24830.60
2018.11.28 09:35:00;24830.60;24831.50;24829.20;24831.50
2018.11.28 09:36:00;24832.50;24832.50;24829.20;24832.50
2018.11.28 09:37:00;24831.20;24835.50;24831.20;24835.50
2018.11.28 09:38:00;24833.20;24834.60;24829.20;24831.50
2018.11.28 09:39:00;24829.20;24835.60;24829.20;24835.60
2018.11.28 09:40:00;24835.60;24837.50;24833.20;24835.50
2018.11.28 09:41:00;24835.50;24837.50;24835.20;24835.50
2018.11.28 09:42:00;24835.50;24836.60;24833.20;24835.60
2018.11.28 09:43:00;24835.60;24837.60;24833.20;24834.60
2018.11.28 09:44:00;24835.50;24835.50;24817.20;24820.60
2018.11.28 09:45:00;24821.50;24822.50;24817.20;24818.50
2018.11.28 09:46:00;24817.20;24821.50;24815.20;24817.50
2018.11.28 09:47:00;24817.60;24820.50;24817.20;24818.50
2018.11.28 09:48:00;24819.50;24821.50;24817.20;24819.60
2018.11.28 09:49:00;24820.50;24821.50;24817.20;24821.50
2018.11.28 09:50:00;24819.20;24820.50;24815.20;24816.50
2018.11.28 09:51:00;24816.50;24817.50;24813.20;24816.50
2018.11.28 09:52:00;24816.50;24822.50;24816.50;24817.60
2018.11.28 09:53:00;24815.20;24817.50;24815.20;24817.50
2018.11.28 09:54:00;24815.20;24820.60;24815.20;24817.60
2018.11.28 09:55:00;24818.50;24818.50;24815.20;24818.50
2018.11.28 09:56:00;24818.50;24818.50;24809.20;24812.50
2018.11.28 09:57:00;24812.50;24820.50;24811.20;24817.50
2018.11.28 09:58:00;24815.20;24815.60;24803.20;24810.10
2018.11.28 09:59:00;24810.10;24811.00;24807.20;24809.20
2018.11.28 10:00:00;24807.20;24808.00;24793.20;24801.20
2018.11.28 10:01:00;24802.00;24806.00;24793.20;24806.00
2018.11.28 10:02:00;24803.20;24809.00;24801.20;24803.10
2018.11.28 10:03:00;24801.20;24809.10;24801.20;24808.00
2018.11.28 10:04:00;24808.00;24811.00;24799.20;24801.00
2018.11.28 10:05:00;24799.20;24810.10;24799.20;24809.00
2018.11.28 10:06:00;24807.20;24810.00;24801.20;24803.20
2018.11.28 10:07:00;24804.10;24807.00;24799.20;24805.00
2018.11.28 10:08:00;24805.00;24808.00;24799.20;24802.00
2018.11.28 10:09:00;24802.00;24807.00;24801.20;24806.00
2018.11.28 10:10:00;24803.20;24806.10;24795.20;24800.10
2018.11.28 10:11:00;24801.00;24805.00;24795.20;24798.10
2018.11.28 10:12:00;24798.10;24800.00;24793.20;24793.20
2018.11.28 10:13:00;24794.00;24798.00;24793.20;24794.10
2018.11.28 10:14:00;24795.00;24799.00;24791.20;24798.00
2018.11.28 10:15:00;24799.00;24799.10;24789.20;24790.00
2018.11.28 10:16:00;24791.00;24791.00;24783.20;24786.00
2018.11.28 10:17:00;24785.20;24788.00;24781.20;24782.10
2018.11.28 10:18:00;24782.10;24791.00;24781.20;24789.00
2018.11.28 10:19:00;24789.00;24789.00;24785.20;24789.00
2018.11.28 10:20:00;24790.00;24791.00;24785.20;24789.10
2018.11.28 10:21:00;24787.20;24790.00;24785.20;24788.00
2018.11.28 10:22:00;24785.20;24788.00;24783.20;24788.00
2018.11.28 10:23:00;24785.20;24789.00;24783.20;24789.00
2018.11.28 10:24:00;24789.10;24800.00;24789.10;24798.00
2018.11.28 10:25:00;24797.20;24798.00;24791.20;24797.00
2018.11.28 10:26:00;24795.20;24797.00;24791.20;24796.00
2018.11.28 10:27:00;24797.00;24806.00;24795.20;24803.20
2018.11.28 10:28:00;24801.20;24809.00;24801.20;24805.00
2018.11.28 10:29:00;24805.00;24809.00;24801.20;24807.10
2018.11.28 10:30:00;24807.10;24807.10;24801.20;24803.10
2018.11.28 10:31:00;24801.20;24803.00;24797.20;24802.00
2018.11.28 10:32:00;24802.00;24802.00;24795.20;24802.00
2018.11.28 10:33:00;24802.00;24803.00;24799.20;24802.10
2018.11.28 10:34:00;24801.20;24803.00;24799.20;24801.00
2018.11.28 10:35:00;24799.20;24802.00;24795.20;24799.10
2018.11.28 10:36:00;24800.00;24800.00;24787.20;24789.00
2018.11.28 10:37:00;24787.20;24796.00;24783.20;24795.00
2018.11.28 10:38:00;24795.00;24795.00;24789.20;24792.00
2018.11.28 10:39:00;24791.20;24793.00;24787.20;24793.00
2018.11.28 10:40:00;24791.20;24794.00;24787.20;24792.00
2018.11.28 10:41:00;24792.00;24793.00;24787.20;24790.10
2018.11.28 10:42:00;24791.00;24791.00;24785.20;24789.00
2018.11.28 10:43:00;24789.00;24789.00;24767.20;24769.10
2018.11.28 10:44:00;24767.20;24775.00;24767.20;24775.00
2018.11.28 10:45:00;24773.20;24775.00;24767.20;24767.20
2018.11.28 10:46:00;24769.00;24773.00;24763.20;24773.00
2018.11.28 10:47:00;24773.00;24784.00;24767.20;24782.00
2018.11.28 10:48:00;24782.00;24783.00;24777.20;24781.10
2018.11.28 10:49:00;24779.20;24788.00;24779.20;24782.00
2018.11.28 10:50:00;24782.00;24789.10;24779.20;24788.00
2018.11.28 10:51:00;24785.20;24789.00;24783.20;24788.00
2018.11.28 10:52:00;24785.20;24788.00;24783.20;24784.10
2018.11.28 10:53:00;24784.10;24792.00;24781.20;24788.00
2018.11.28 10:54:00;24789.00;24798.00;24787.20;24796.00
2018.11.28 10:55:00;24793.20;24796.00;24791.20;24795.20
2018.11.28 10:56:00;24793.20;24798.00;24791.20;24798.00
2018.11.28 10:57:00;24795.20;24806.00;24795.20;24801.20
2018.11.28 10:58:00;24803.00;24813.00;24801.20;24811.10
2018.11.28 10:59:00;24809.20;24814.10;24809.20;24811.20
2018.11.28 11:00:00;24811.20;24821.00;24811.20;24817.00
2018.11.28 11:01:00;24817.00;24819.00;24811.20;24816.00
2018.11.28 11:02:00;24817.00;24817.00;24813.20;24815.10
2018.11.28 11:03:00;24815.10;24816.00;24807.20;24816.00
2018.11.28 11:04:00;24816.00;24816.00;24809.20;24809.20
2018.11.28 11:05:00;24809.20;24810.10;24805.20;24808.00
2018.11.28 11:06:00;24807.20;24820.00;24807.20;24819.00
2018.11.28 11:07:00;24819.00;24820.00;24813.20;24818.00
2018.11.28 11:08:00;24818.00;24819.00;24813.20;24818.00
2018.11.28 11:09:00;24819.00;24819.00;24813.20;24817.10
2018.11.28 11:10:00;24817.10;24823.00;24816.10;24820.00
2018.11.28 11:11:00;24820.00;24820.00;24815.20;24817.20
2018.11.28 11:12:00;24817.20;24818.00;24813.20;24816.10
2018.11.28 11:13:00;24816.10;24816.10;24809.20;24812.10
2018.11.28 11:14:00;24811.20;24813.00;24807.20;24812.00
2018.11.28 11:15:00;24813.00;24814.00;24807.20;24809.20
2018.11.28 11:16:00;24807.20;24808.00;24801.20;24806.00
2018.11.28 11:17:00;24803.20;24818.00;24803.20;24817.00
2018.11.28 11:18:00;24815.20;24827.00;24811.20;24826.00
2018.11.28 11:19:00;24826.00;24826.00;24817.20;24819.10
2018.11.28 11:20:00;24819.10;24823.00;24817.20;24821.20
2018.11.28 11:21:00;24822.00;24824.00;24819.20;24819.20
2018.11.28 11:22:00;24819.20;24821.00;24811.20;24815.00
2018.11.28 11:23:00;24815.00;24817.00;24809.20;24813.00
2018.11.28 11:24:00;24811.20;24813.00;24803.20;24806.00
2018.11.28 11:25:00;24807.00;24807.00;24789.20;24791.20
2018.11.28 11:26:00;24791.20;24793.00;24787.20;24790.00
2018.11.28 11:27:00;24790.00;24793.00;24789.20;24790.00
2018.11.28 11:28:00;24789.20;24789.20;24781.20;24786.00
2018.11.28 11:29:00;24786.00;24787.10;24777.20;24781.00
2018.11.28 11:30:00;24779.20;24785.00;24777.20;24783.20
2018.11.28 11:31:00;24784.00;24784.00;24775.20;24779.00
2018.11.28 11:32:00;24779.00;24784.00;24777.20;24784.00
2018.11.28 11:33:00;24781.20;24788.10;24779.20;24788.10
2018.11.28 11:34:00;24789.00;24792.00;24785.20;24788.00
2018.11.28 11:35:00;24785.20;24794.00;24785.20;24789.10
2018.11.28 11:36:00;24789.10;24791.10;24787.20;24789.00
2018.11.28 11:37:00;24789.00;24794.00;24787.20;24792.00
2018.11.28 11:38:00;24789.20;24792.00;24787.20;24789.10
2018.11.28 11:39:00;24790.00;24794.00;24789.20;24792.00
2018.11.28 11:40:00;24791.20;24794.10;24789.20;24794.10
2018.11.28 11:41:00;24795.00;24795.00;24789.20;24794.00
2018.11.28 11:42:00;24795.00;24795.00;24787.20;24791.20
2018.11.28 11:43:00;24789.20;24795.00;24787.20;24794.00
2018.11.28 11:44:00;24794.00;24795.00;24791.20;24794.00
2018.11.28 11:45:00;24793.20;24795.00;24791.20;24794.00
2018.11.28 11:46:00;24794.00;24795.00;24793.00;24794.00
2018.11.28 11:47:00;24793.20;24796.10;24791.20;24796.10
2018.11.28 11:48:00;24793.20;24802.10;24793.20;24799.20
2018.11.28 11:49:00;24797.20;24799.00;24793.20;24799.00
2018.11.28 11:50:00;24799.00;24810.00;24799.00;24807.00
2018.11.28 11:51:00;24807.00;24814.00;24805.20;24811.20
2018.11.28 11:52:00;24812.00;24812.10;24805.20;24807.20
2018.11.28 11:53:00;24807.20;24809.00;24803.20;24807.20
2018.11.28 11:54:00;24808.00;24813.00;24807.20;24808.00
2018.11.28 11:55:00;24807.20;24810.00;24805.20;24808.10
2018.11.28 11:56:00;24808.10;24809.00;24797.20;24802.00
2018.11.28 11:57:00;24799.20;24802.10;24799.20;24802.00
2018.11.28 11:58:00;24803.00;24803.00;24795.20;24797.20
2018.11.28 11:59:00;24797.20;24799.00;24795.20;24796.00
2018.11.28 12:00:00;24795.20;24808.00;24795.20;24804.00
2018.11.28 12:01:00;24804.00;24805.00;24797.20;24798.10
2018.11.28 12:02:00;24798.10;24802.00;24795.20;24799.10
2018.11.28 12:03:00;24799.10;24799.10;24787.20;24788.00
2018.11.28 12:04:00;24788.00;24789.00;24781.20;24786.00
2018.11.28 12:05:00;24785.20;24788.00;24781.20;24785.00
2018.11.28 12:06:00;24785.00;24789.00;24783.20;24787.10
2018.11.28 12:07:00;24786.10;24791.00;24785.20;24790.00
2018.11.28 12:08:00;24790.00;24794.00;24787.20;24794.00
2018.11.28 12:09:00;24795.00;24796.00;24791.20;24795.00
2018.11.28 12:10:00;24793.20;24797.00;24793.20;24795.20
2018.11.28 12:11:00;24796.10;24803.00;24795.20;24802.10
2018.11.28 12:12:00;24802.10;24812.00;24795.20;24797.00
2018.11.28 12:13:00;24795.20;24797.10;24783.20;24788.00
2018.11.28 12:14:00;24787.20;24790.10;24781.20;24783.20
2018.11.28 12:15:00;24783.20;24788.10;24783.20;24786.00
2018.11.28 12:16:00;24786.00;24790.00;24785.20;24789.00
2018.11.28 12:17:00;24790.00;24795.00;24790.00;24793.10
2018.11.28 12:18:00;24791.20;24792.00;24785.20;24789.00
2018.11.28 12:19:00;24790.00;24797.00;24787.20;24794.00
2018.11.28 12:20:00;24793.20;24795.00;24783.20;24787.00
2018.11.28 12:21:00;24785.20;24789.00;24783.20;24787.00
2018.11.28 12:22:00;24788.00;24790.10;24775.20;24778.00
2018.11.28 12:23:00;24778.00;24782.00;24777.20;24779.20
2018.11.28 12:24:00;24779.20;24783.00;24777.20;24779.10
2018.11.28 12:25:00;24777.20;24780.00;24775.20;24777.20
2018.11.28 12:26:00;24779.00;24782.00;24775.20;24782.00
2018.11.28 12:27:00;24782.00;24788.00;24781.20;24784.00
2018.11.28 12:28:00;24785.00;24786.00;24781.20;24783.00
2018.11.28 12:29:00;24781.20;24783.00;24775.20;24781.20
2018.11.28 12:30:00;24782.00;24785.00;24777.20;24785.00
2018.11.28 12:31:00;24783.20;24796.00;24783.20;24796.00
2018.11.28 12:32:00;24796.00;24802.00;24793.20;24802.00
2018.11.28 12:33:00;24799.20;24810.00;24795.20;24806.10
2018.11.28 12:34:00;24807.00;24819.00;24807.00;24819.00
2018.11.28 12:35:00;24819.00;24819.00;24813.20;24815.20
2018.11.28 12:36:00;24815.20;24816.00;24813.20;24815.00
2018.11.28 12:37:00;24815.00;24817.00;24811.20;24816.00
2018.11.28 12:38:00;24816.00;24817.00;24811.20;24817.00
2018.11.28 12:39:00;24815.20;24817.00;24813.20;24817.00
2018.11.28 12:40:00;24815.20;24822.00;24815.20;24816.00
2018.11.28 12:41:00;24816.00;24822.00;24816.00;24819.10
2018.11.28 12:42:00;24819.10;24824.00;24817.20;24820.10
2018.11.28 12:43:00;24821.00;24825.00;24817.20;24819.10
2018.11.28 12:44:00;24819.10;24821.00;24815.20;24816.00
2018.11.28 12:45:00;24815.20;24824.00;24815.20;24823.20
2018.11.28 12:46:00;24821.20;24821.20;24817.20;24820.10
2018.11.28 12:47:00;24821.00;24825.00;24819.20;24822.00
2018.11.28 12:48:00;24822.00;24822.00;24819.20;24822.00
2018.11.28 12:49:00;24822.00;24823.00;24819.20;24822.10
2018.11.28 12:50:00;24819.20;24823.00;24819.20;24822.00
2018.11.28 12:51:00;24822.00;24823.00;24819.20;24822.10
2018.11.28 12:52:00;24822.10;24823.00;24819.20;24822.00
2018.11.28 12:53:00;24822.00;24824.00;24819.20;24822.10
2018.11.28 12:54:00;24821.20;24823.00;24819.20;24820.00
2018.11.28 12:55:00;24817.20;24825.00;24817.20;24825.00
2018.11.28 12:56:00;24823.20;24833.00;24823.20;24831.20
2018.11.28 12:57:00;24831.20;24833.00;24829.20;24831.10
2018.11.28 12:58:00;24831.10;24832.00;24823.20;24827.10
2018.11.28 12:59:00;24825.20;24828.00;24821.20;24823.00
2018.11.28 13:00:00;24821.20;24826.00;24821.20;24823.00
2018.11.28 13:01:00;24824.00;24826.00;24821.20;24824.00
2018.11.28 13:02:00;24825.00;24825.00;24821.20;24824.00
2018.11.28 13:03:00;24824.00;24831.00;24823.20;24831.00
2018.11.28 13:04:00;24829.20;24833.00;24827.20;24830.00
2018.11.28 13:05:00;24830.00;24831.00;24829.20;24830.00
2018.11.28 13:06:00;24829.20;24829.20;24821.20;24828.10
2018.11.28 13:07:00;24825.20;24831.00;24825.20;24830.00
2018.11.28 13:08:00;24831.00;24831.00;24825.20;24827.10
2018.11.28 13:09:00;24828.00;24829.00;24821.20;24828.10
2018.11.28 13:10:00;24829.00;24829.00;24823.20;24828.00
2018.11.28 13:11:00;24828.00;24834.00;24828.00;24831.10
2018.11.28 13:12:00;24832.00;24832.00;24825.20;24830.00
2018.11.28 13:13:00;24829.20;24829.20;24823.20;24824.00
2018.11.28 13:14:00;24821.20;24825.00;24821.20;24825.00
2018.11.28 13:15:00;24823.20;24824.00;24815.20;24817.00
2018.11.28 13:16:00;24817.10;24819.00;24815.20;24815.20
2018.11.28 13:17:00;24817.10;24818.00;24811.20;24814.10
2018.11.28 13:18:00;24815.00;24816.10;24805.20;24815.00
2018.11.28 13:19:00;24813.20;24816.00;24809.20;24810.00
2018.11.28 13:20:00;24807.20;24815.00;24807.20;24813.20
2018.11.28 13:21:00;24811.20;24813.00;24809.20;24812.00
2018.11.28 13:22:00;24811.20;24811.20;24807.20;24809.10
2018.11.28 13:23:00;24807.20;24810.00;24803.20;24807.20
2018.11.28 13:24:00;24807.20;24808.00;24805.20;24806.00
2018.11.28 13:25:00;24806.00;24807.00;24803.20;24806.00
2018.11.28 13:26:00;24806.00;24808.00;24803.20;24807.20
2018.11.28 13:27:00;24807.20;24807.20;24805.20;24807.10
2018.11.28 13:28:00;24807.10;24808.00;24799.20;24803.00
2018.11.28 13:29:00;24803.00;24807.00;24803.00;24805.10
2018.11.28 13:30:00;24803.20;24806.00;24801.20;24806.00
2018.11.28 13:31:00;24806.00;24808.00;24803.20;24807.20
2018.11.28 13:32:00;24808.00;24810.00;24805.20;24807.00
2018.11.28 13:33:00;24805.20;24807.00;24801.20;24807.00
2018.11.28 13:34:00;24807.00;24814.00;24805.20;24814.00
2018.11.28 13:35:00;24811.20;24816.00;24809.20;24813.20
2018.11.28 13:36:00;24811.20;24822.00;24811.20;24821.20
2018.11.28 13:37:00;24821.20;24822.00;24819.20;24820.00
2018.11.28 13:38:00;24821.00;24823.00;24817.20;24821.00
2018.11.28 13:39:00;24821.10;24821.10;24817.20;24818.10
2018.11.28 13:40:00;24818.10;24819.10;24817.10;24819.00
2018.11.28 13:41:00;24817.20;24820.10;24817.20;24820.10
2018.11.28 13:42:00;24821.00;24821.00;24817.20;24821.00
2018.11.28 13:43:00;24822.00;24831.00;24819.20;24831.00
2018.11.28 13:44:00;24831.00;24834.00;24827.20;24832.00
2018.11.28 13:45:00;24833.00;24833.00;24827.20;24829.10
2018.11.28 13:46:00;24827.20;24832.00;24823.20;24830.00
2018.11.28 13:47:00;24830.00;24836.00;24829.20;24833.10
2018.11.28 13:48:00;24833.10;24834.00;24831.20;24833.00
2018.11.28 13:49:00;24834.00;24834.00;24827.20;24828.00
2018.11.28 13:50:00;24828.00;24831.00;24825.20;24829.10
2018.11.28 13:51:00;24827.20;24828.10;24825.20;24828.10
2018.11.28 13:52:00;24827.20;24828.00;24825.20;24828.00
2018.11.28 13:53:00;24828.00;24829.00;24815.20;24822.10
2018.11.28 13:54:00;24822.10;24826.00;24821.20;24825.00
2018.11.28 13:55:00;24825.00;24828.00;24819.20;24820.00
2018.11.28 13:56:00;24821.00;24822.00;24813.20;24819.00
2018.11.28 13:57:00;24819.00;24822.00;24817.20;24821.00
2018.11.28 13:58:00;24821.00;24825.00;24821.00;24823.20
2018.11.28 13:59:00;24824.10;24837.00;24823.20;24835.00
2018.11.28 14:00:00;24835.00;24878.00;24835.00;24865.00
2018.11.28 14:01:00;24863.20;24867.20;24859.20;24862.10
2018.11.28 14:02:00;24862.10;24869.00;24847.20;24851.20
2018.11.28 14:03:00;24849.20;24854.20;24847.20;24854.20
2018.11.28 14:04:00;24853.20;24855.20;24851.20;24855.20
2018.11.28 14:05:00;24853.20;24855.20;24851.20;24853.20
2018.11.28 14:06:00;24851.20;24853.20;24849.20;24851.30
2018.11.28 14:07:00;24849.20;24850.20;24845.20;24848.20
2018.11.28 14:08:00;24848.20;24853.20;24848.20;24852.20
2018.11.28 14:09:00;24852.20;24852.20;24847.20;24851.20
2018.11.28 14:10:00;24852.20;24854.20;24849.20;24853.20
2018.11.28 14:11:00;24853.20;24855.20;24851.20;24854.20
2018.11.28 14:12:00;24853.20;24858.20;24853.20;24858.20
2018.11.28 14:13:00;24858.20;24858.20;24851.20;24852.20
2018.11.28 14:14:00;24851.20;24853.20;24849.20;24849.20
2018.11.28 14:15:00;24849.20;24851.20;24847.20;24850.30
2018.11.28 14:16:00;24849.20;24854.20;24847.20;24854.20
2018.11.28 14:17:00;24854.30;24854.30;24849.20;24853.20
2018.11.28 14:18:00;24853.20;24853.20;24847.20;24848.20
2018.11.28 14:19:00;24848.20;24849.30;24847.20;24849.30
2018.11.28 14:20:00;24850.20;24857.20;24847.20;24855.20
2018.11.28 14:21:00;24853.20;24863.30;24853.20;24857.20
2018.11.28 14:22:00;24858.20;24866.20;24857.20;24862.20
2018.11.28 14:23:00;24862.20;24863.20;24859.20;24860.20
2018.11.28 14:24:00;24861.20;24863.20;24859.20;24861.20
2018.11.28 14:25:00;24861.20;24863.30;24859.20;24863.20
2018.11.28 14:26:00;24861.20;24864.20;24859.20;24860.30
2018.11.28 14:27:00;24861.20;24864.20;24857.20;24862.20
2018.11.28 14:28:00;24862.30;24866.20;24861.20;24865.30
2018.11.28 14:29:00;24865.30;24865.30;24862.30;24865.20
2018.11.28 14:30:00;24863.20;24865.20;24859.20;24862.30
2018.11.28 14:31:00;24862.30;24864.20;24861.20;24863.30
2018.11.28 14:32:00;24861.20;24881.20;24861.20;24880.20
2018.11.28 14:33:00;24879.20;24881.20;24871.20;24872.20
2018.11.28 14:34:00;24871.20;24881.20;24871.20;24880.30
2018.11.28 14:35:00;24881.20;24884.30;24879.20;24881.30
2018.11.28 14:36:00;24882.20;24887.20;24879.20;24879.20
2018.11.28 14:37:00;24877.20;24895.20;24877.20;24895.20
2018.11.28 14:38:00;24893.20;24904.00;24887.20;24903.00
2018.11.28 14:39:00;24903.00;24904.00;24895.20;24898.00
2018.11.28 14:40:00;24897.20;24900.00;24893.20;24898.00
2018.11.28 14:41:00;24898.00;24900.00;24895.20;24898.00
2018.11.28 14:42:00;24898.00;24900.00;24895.20;24898.00
2018.11.28 14:43:00;24895.20;24899.00;24895.20;24896.00
2018.11.28 14:44:00;24896.00;24896.00;24891.20;24895.00
2018.11.28 14:45:00;24895.00;24897.00;24889.20;24891.00
2018.11.28 14:46:00;24889.20;24899.00;24887.20;24894.00
2018.11.28 14:47:00;24893.20;24898.00;24889.20;24893.00
2018.11.28 14:48:00;24891.20;24894.00;24887.20;24893.00
2018.11.28 14:49:00;24893.00;24898.00;24893.00;24896.10
2018.11.28 14:50:00;24896.10;24899.00;24891.20;24898.00
2018.11.28 14:51:00;24899.00;24905.00;24897.20;24899.00
2018.11.28 14:52:00;24899.00;24899.00;24889.20;24891.00
2018.11.28 14:53:00;24891.10;24893.00;24887.20;24890.00
2018.11.28 14:54:00;24890.00;24891.00;24887.20;24890.00
2018.11.28 14:55:00;24891.00;24896.00;24891.00;24895.20
2018.11.28 14:56:00;24895.20;24896.00;24889.20;24891.00
2018.11.28 14:57:00;24891.00;24892.00;24887.20;24890.00
2018.11.28 14:58:00;24887.20;24890.00;24885.20;24888.00
2018.11.28 14:59:00;24889.00;24895.00;24887.20;24893.20
2018.11.28 15:00:00;24894.00;24894.00;24885.20;24887.20
2018.11.28 15:01:00;24887.20;24893.00;24883.20;24891.00
2018.11.28 15:02:00;24891.00;24892.00;24887.20;24891.00
2018.11.28 15:03:00;24889.20;24893.10;24887.20;24893.10
2018.11.28 15:04:00;24894.00;24899.00;24893.20;24896.00
2018.11.28 15:05:00;24896.00;24901.00;24895.20;24901.00
2018.11.28 15:06:00;24901.00;24904.00;24893.20;24898.00
2018.11.28 15:07:00;24897.20;24904.00;24893.20;24902.10
2018.11.28 15:08:00;24903.00;24916.00;24903.00;24912.10
2018.11.28 15:09:00;24912.10;24915.00;24907.20;24911.00
2018.11.28 15:10:00;24909.20;24911.10;24905.20;24909.00
2018.11.28 15:11:00;24907.20;24909.00;24901.20;24903.00
2018.11.28 15:12:00;24901.20;24902.10;24893.20;24893.20
2018.11.28 15:13:00;24893.20;24896.00;24891.20;24894.10
2018.11.28 15:14:00;24894.10;24895.00;24891.20;24894.00
2018.11.28 15:15:00;24895.00;24897.00;24889.20;24895.00
2018.11.28 15:16:00;24893.20;24894.00;24889.20;24894.00
2018.11.28 15:17:00;24894.00;24898.00;24893.20;24895.20
2018.11.28 15:18:00;24893.20;24895.00;24891.20;24892.10
2018.11.28 15:19:00;24892.10;24897.00;24889.20;24895.20
2018.11.28 15:20:00;24896.00;24899.20;24895.20;24897.20
2018.11.28 15:21:00;24898.20;24900.20;24893.20;24899.20
2018.11.28 15:22:00;24900.20;24907.20;24899.20;24901.20
2018.11.28 15:23:00;24901.20;24905.20;24897.20;24905.20
2018.11.28 15:24:00;24905.20;24912.20;24905.20;24907.20
2018.11.28 15:25:00;24907.20;24910.20;24905.20;24908.20
2018.11.28 15:26:00;24907.20;24910.20;24907.20;24909.20
2018.11.28 15:27:00;24907.20;24908.20;24897.20;24899.20
2018.11.28 15:28:00;24898.20;24902.20;24897.20;24902.20
2018.11.28 15:29:00;24902.20;24905.20;24902.20;24904.30
2018.11.28 15:30:00;24903.20;24908.20;24897.20;24900.20
2018.11.28 15:31:00;24899.20;24904.20;24893.20;24895.20
2018.11.28 15:32:00;24895.20;24902.20;24895.20;24898.20
2018.11.28 15:33:00;24898.20;24907.20;24897.20;24906.30
2018.11.28 15:34:00;24905.20;24907.20;24901.20;24904.20
2018.11.28 15:35:00;24903.20;24903.30;24897.20;24899.20
2018.11.28 15:36:00;24897.20;24899.20;24891.20;24893.20
2018.11.28 15:37:00;24893.20;24899.20;24891.20;24892.20
2018.11.28 15:38:00;24891.20;24898.20;24891.20;24896.20
2018.11.28 15:39:00;24895.20;24900.20;24893.20;24894.30
2018.11.28 15:40:00;24895.20;24896.20;24891.20;24894.20
2018.11.28 15:41:00;24893.20;24896.20;24891.20;24895.20
2018.11.28 15:42:00;24896.20;24898.20;24895.20;24897.20
2018.11.28 15:43:00;24897.20;24902.20;24897.20;24899.20
2018.11.28 15:44:00;24899.20;24901.20;24897.20;24898.20
2018.11.28 15:45:00;24898.20;24903.20;24893.20;24893.30
2018.11.28 15:46:00;24893.30;24897.20;24891.20;24897.20
2018.11.28 15:47:00;24897.20;24899.20;24895.20;24897.20
2018.11.28 15:48:00;24897.20;24899.20;24895.20;24897.20
2018.11.28 15:49:00;24897.20;24900.20;24895.20;24897.20
2018.11.28 15:50:00;24898.20;24905.30;24897.20;24903.20
2018.11.28 15:51:00;24904.20;24908.20;24901.20;24907.20
2018.11.28 15:52:00;24907.20;24913.20;24905.20;24909.20
2018.11.28 15:53:00;24909.20;24911.20;24907.20;24909.20
2018.11.28 15:54:00;24910.20;24911.20;24903.20;24905.20
2018.11.28 15:55:00;24905.20;24908.20;24903.20;24906.20
2018.11.28 15:56:00;24905.20;24907.20;24901.20;24905.20
2018.11.28 15:57:00;24903.20;24908.20;24901.20;24907.30
2018.11.28 15:58:00;24907.30;24908.20;24901.20;24902.20
2018.11.28 15:59:00;24903.20;24903.20;24897.20;24898.30
2018.11.28 16:00:00;24898.30;24906.20;24893.20;24902.20
2018.11.28 16:01:00;24902.20;24908.20;24901.20;24904.20
2018.11.28 16:02:00;24903.20;24905.20;24897.20;24899.20
2018.11.28 16:03:00;24899.20;24902.20;24891.20;24895.20
2018.11.28 16:04:00;24895.20;24895.30;24891.20;24892.20
2018.11.28 16:05:00;24892.20;24895.20;24891.20;24892.20
2018.11.28 16:06:00;24891.20;24892.30;24887.20;24887.20
2018.11.28 16:07:00;24885.20;24889.20;24883.20;24886.20
2018.11.28 16:08:00;24886.20;24889.20;24885.20;24886.20
2018.11.28 16:09:00;24885.20;24889.20;24885.20;24888.30
2018.11.28 16:10:00;24887.20;24891.20;24885.20;24891.20
2018.11.28 16:11:00;24891.20;24893.20;24889.20;24891.20
2018.11.28 16:12:00;24889.20;24893.20;24889.20;24892.20
2018.11.28 16:13:00;24891.20;24893.20;24889.20;24890.30
2018.11.28 16:14:00;24890.30;24892.20;24885.20;24888.20
2018.11.28 16:15:00;24888.20;24888.30;24879.20;24880.30
2018.11.28 16:16:00;24881.20;24887.20;24877.20;24884.20
2018.11.28 16:17:00;24884.20;24886.20;24883.20;24885.20
2018.11.28 16:18:00;24883.20;24885.20;24875.20;24880.20
2018.11.28 16:19:00;24877.20;24881.20;24873.20;24876.20
2018.11.28 16:20:00;24876.20;24892.00;24875.20;24892.00
2018.11.28 16:21:00;24892.00;24898.00;24889.20;24894.00
2018.11.28 16:22:00;24894.00;24896.00;24889.20;24893.00
2018.11.28 16:23:00;24894.00;24896.00;24891.20;24893.20
2018.11.28 16:24:00;24894.00;24896.00;24889.20;24891.00
2018.11.28 16:25:00;24891.00;24896.00;24891.00;24895.20
2018.11.28 16:26:00;24895.20;24896.00;24891.20;24893.20
2018.11.28 16:27:00;24894.00;24900.00;24891.20;24899.20
2018.11.28 16:28:00;24897.20;24910.00;24895.20;24910.00
2018.11.28 16:29:00;24910.00;24912.00;24893.20;24897.20
2018.11.28 16:30:00;24897.20;24897.50;24871.20;24882.50
2018.11.28 16:31:00;24882.50;24892.50;24877.20;24885.50
2018.11.28 16:32:00;24883.20;24899.50;24879.20;24893.50
2018.11.28 16:33:00;24891.20;24910.50;24891.20;24902.50
2018.11.28 16:34:00;24901.20;24909.50;24897.20;24903.60
2018.11.28 16:35:00;24903.60;24910.50;24895.20;24896.50
2018.11.28 16:36:00;24895.20;24910.00;24895.20;24903.00
2018.11.28 16:37:00;24903.00;24939.00;24901.20;24932.50
2018.11.28 16:38:00;24932.50;24938.50;24927.20;24937.50
2018.11.28 16:39:00;24937.50;24941.50;24927.20;24934.50
2018.11.28 16:40:00;24934.50;24949.50;24933.20;24935.20
2018.11.28 16:41:00;24935.20;24939.50;24919.20;24926.50
2018.11.28 16:42:00;24926.50;24930.50;24919.20;24925.50
2018.11.28 16:43:00;24923.20;24933.20;24917.20;24917.50
2018.11.28 16:44:00;24917.60;24925.50;24915.20;24917.20
2018.11.28 16:45:00;24917.50;24928.50;24907.20;24913.60
2018.11.28 16:46:00;24913.60;24914.50;24889.20;24896.20
2018.11.28 16:47:00;24896.20;24915.50;24893.20;24913.50
2018.11.28 16:48:00;24914.50;24929.50;24913.20;24925.20
2018.11.28 16:49:00;24926.50;24931.50;24915.20;24917.50
2018.11.28 16:50:00;24915.20;24935.50;24915.20;24931.60
2018.11.28 16:51:00;24931.60;24933.50;24921.20;24923.30
2018.11.28 16:52:00;24923.30;24928.20;24917.20;24923.20
2018.11.28 16:53:00;24923.20;24929.20;24917.20;24925.20
2018.11.28 16:54:00;24926.20;24929.20;24899.20;24904.20
2018.11.28 16:55:00;24903.20;24912.30;24897.20;24899.20
2018.11.28 16:56:00;24899.20;24908.20;24893.20;24906.20
2018.11.28 16:57:00;24906.20;24907.20;24891.20;24901.30
2018.11.28 16:58:00;24899.20;24904.20;24897.20;24899.30
2018.11.28 16:59:00;24899.30;24906.20;24893.20;24900.20
2018.11.28 17:00:00;24900.20;24922.30;24895.20;24919.20
2018.11.28 17:01:00;24917.20;24926.20;24909.20;24911.30
2018.11.28 17:02:00;24909.20;24915.20;24897.20;24905.20
2018.11.28 17:03:00;24905.20;24910.30;24897.20;24901.30
2018.11.28 17:04:00;24903.20;24904.20;24893.20;24898.60
2018.11.28 17:05:00;24897.20;24902.50;24881.20;24881.20
2018.11.28 17:06:00;24881.50;24894.50;24881.20;24886.50
2018.11.28 17:07:00;24886.50;24886.50;24867.20;24869.20
2018.11.28 17:08:00;24869.20;24876.50;24863.20;24874.50
2018.11.28 17:09:00;24873.20;24886.50;24869.20;24884.50
2018.11.28 17:10:00;24883.20;24886.50;24863.20;24873.50
2018.11.28 17:11:00;24871.20;24873.50;24863.20;24872.60
2018.11.28 17:12:00;24871.20;24877.50;24869.20;24871.20
2018.11.28 17:13:00;24873.50;24873.50;24863.20;24867.50
2018.11.28 17:14:00;24868.50;24873.50;24865.20;24867.50
2018.11.28 17:15:00;24867.50;24871.50;24859.20;24864.50
2018.11.28 17:16:00;24863.20;24877.50;24863.20;24875.50
2018.11.28 17:17:00;24875.50;24876.50;24863.20;24871.50
2018.11.28 17:18:00;24872.50;24881.50;24869.20;24881.50
2018.11.28 17:19:00;24881.50;24889.60;24879.20;24884.60
2018.11.28 17:20:00;24885.50;24896.50;24881.20;24893.10
2018.11.28 17:21:00;24891.20;24896.00;24887.20;24891.00
2018.11.28 17:22:00;24892.00;24898.00;24891.20;24895.20
2018.11.28 17:23:00;24896.10;24898.00;24879.20;24883.20
2018.11.28 17:24:00;24884.00;24891.00;24879.20;24887.00
2018.11.28 17:25:00;24889.00;24889.00;24877.20;24879.20
2018.11.28 17:26:00;24879.20;24885.00;24875.20;24880.50
2018.11.28 17:27:00;24880.50;24880.50;24863.20;24865.50
2018.11.28 17:28:00;24865.50;24867.50;24853.20;24862.60
2018.11.28 17:29:00;24862.60;24866.50;24857.20;24858.50
2018.11.28 17:30:00;24857.20;24863.50;24843.20;24847.60
2018.11.28 17:31:00;24847.20;24853.50;24843.20;24847.20
2018.11.28 17:32:00;24850.50;24854.50;24847.20;24850.50
2018.11.28 17:33:00;24851.50;24854.50;24847.20;24850.50
2018.11.28 17:34:00;24849.20;24860.50;24845.20;24857.50
2018.11.28 17:35:00;24857.50;24866.50;24853.20;24863.20
2018.11.28 17:36:00;24864.50;24875.50;24863.20;24872.50
2018.11.28 17:37:00;24872.60;24878.50;24863.20;24870.50
2018.11.28 17:38:00;24870.50;24876.50;24865.20;24869.50
2018.11.28 17:39:00;24869.50;24870.50;24857.20;24864.50
2018.11.28 17:40:00;24863.20;24864.50;24853.20;24857.60
2018.11.28 17:41:00;24857.60;24869.50;24855.20;24863.50
2018.11.28 17:42:00;24863.50;24874.50;24859.20;24871.50
2018.11.28 17:43:00;24869.20;24874.50;24863.20;24869.50
2018.11.28 17:44:00;24870.50;24871.50;24861.20;24863.50
2018.11.28 17:45:00;24863.50;24867.60;24853.20;24860.50
2018.11.28 17:46:00;24860.50;24867.60;24860.50;24866.50
2018.11.28 17:47:00;24863.20;24880.50;24863.20;24877.50
2018.11.28 17:48:00;24877.60;24882.50;24869.20;24873.50
2018.11.28 17:49:00;24873.50;24887.50;24869.20;24880.50
2018.11.28 17:50:00;24880.50;24886.50;24877.20;24880.50
2018.11.28 17:51:00;24881.50;24887.50;24877.20;24884.60
2018.11.28 17:52:00;24885.50;24899.50;24885.20;24891.60
2018.11.28 17:53:00;24891.60;24901.50;24889.20;24899.50
2018.11.28 17:54:00;24897.20;24910.50;24895.20;24904.50
2018.11.28 17:55:00;24904.50;24908.50;24903.20;24903.20
2018.11.28 17:56:00;24903.50;24904.50;24899.20;24902.50
2018.11.28 17:57:00;24902.50;24906.50;24895.20;24899.60
2018.11.28 17:58:00;24899.60;24902.50;24895.20;24902.50
2018.11.28 17:59:00;24902.50;24903.50;24895.20;24896.50
2018.11.28 18:00:00;24896.50;24915.00;24893.20;24909.20
2018.11.28 18:01:00;24910.00;24914.50;24905.20;24909.50
2018.11.28 18:02:00;24909.50;24923.50;24907.20;24923.50
2018.11.28 18:03:00;24923.50;24925.50;24915.20;24917.20
2018.11.28 18:04:00;24915.20;24917.00;24909.20;24913.20
2018.11.28 18:05:00;24914.00;24918.00;24909.20;24909.20
2018.11.28 18:06:00;24910.00;24922.00;24905.20;24919.20
2018.11.28 18:07:00;24920.00;24925.00;24917.20;24925.00
2018.11.28 18:08:00;24923.20;24938.00;24923.20;24934.00
2018.11.28 18:09:00;24934.00;24949.50;24933.20;24940.50
2018.11.28 18:10:00;24940.50;24944.50;24937.20;24941.50
2018.11.28 18:11:00;24941.50;24945.50;24937.20;24943.50
2018.11.28 18:12:00;24943.50;24943.50;24935.20;24940.50
2018.11.28 18:13:00;24941.50;24941.50;24929.20;24940.00
2018.11.28 18:14:00;24940.00;24944.00;24935.20;24937.10
2018.11.28 18:15:00;24938.00;24942.00;24931.20;24936.10
2018.11.28 18:16:00;24937.00;24940.00;24921.20;24929.00
2018.11.28 18:17:00;24929.00;24930.00;24917.20;24921.00
2018.11.28 18:18:00;24921.00;24926.00;24915.20;24926.00
2018.11.28 18:19:00;24926.00;24930.10;24925.20;24929.00
2018.11.28 18:20:00;24927.20;24935.00;24927.20;24932.00
2018.11.28 18:21:00;24932.10;24934.00;24919.20;24924.00
2018.11.28 18:22:00;24923.20;24930.10;24923.20;24925.20
2018.11.28 18:23:00;24925.20;24926.10;24917.20;24920.00
2018.11.28 18:24:00;24917.20;24922.00;24913.20;24920.00
2018.11.28 18:25:00;24920.00;24927.00;24917.20;24926.00
2018.11.28 18:26:00;24926.00;24927.00;24917.20;24927.00
2018.11.28 18:27:00;24928.00;24931.00;24923.20;24931.00
2018.11.28 18:28:00;24931.00;24933.00;24925.20;24932.00
2018.11.28 18:29:00;24929.20;24939.00;24929.20;24937.00
2018.11.28 18:30:00;24935.20;24936.00;24923.20;24925.00
2018.11.28 18:31:00;24923.20;24933.20;24921.20;24931.20
2018.11.28 18:32:00;24932.00;24936.00;24929.20;24934.00
2018.11.28 18:33:00;24935.00;24938.00;24931.20;24934.00
2018.11.28 18:34:00;24934.00;24939.00;24931.20;24937.20
2018.11.28 18:35:00;24939.00;24942.00;24933.20;24935.20
2018.11.28 18:36:00;24936.00;24941.00;24933.20;24936.00
2018.11.28 18:37:00;24936.00;24939.00;24931.20;24933.00
2018.11.28 18:38:00;24934.00;24937.00;24927.20;24930.00
2018.11.28 18:39:00;24929.20;24933.10;24928.10;24932.10
2018.11.28 18:40:00;24932.10;24933.00;24917.20;24919.00
2018.11.28 18:41:00;24917.20;24919.00;24911.20;24916.00
2018.11.28 18:42:00;24916.00;24922.00;24915.20;24919.00
2018.11.28 18:43:00;24919.00;24922.00;24913.20;24917.20
2018.11.28 18:44:00;24919.10;24932.00;24915.20;24930.10
2018.11.28 18:45:00;24930.10;24934.00;24927.20;24931.00
2018.11.28 18:46:00;24929.20;24938.00;24927.20;24932.00
2018.11.28 18:47:00;24932.00;24934.00;24927.20;24934.00
2018.11.28 18:48:00;24933.20;24940.00;24927.20;24932.10
2018.11.28 18:49:00;24932.10;24935.00;24925.20;24934.00
2018.11.28 18:50:00;24935.00;24940.00;24929.20;24934.00
2018.11.28 18:51:00;24934.00;24935.00;24929.20;24933.20
2018.11.28 18:52:00;24933.20;24969.50;24931.20;24968.50
2018.11.28 18:53:00;24968.60;24970.50;24961.20;24963.60
2018.11.28 18:54:00;24963.60;24964.50;24953.20;24956.50
2018.11.28 18:55:00;24956.50;24958.50;24953.20;24958.50
2018.11.28 18:56:00;24957.20;24958.00;24945.20;24950.50
2018.11.28 18:57:00;24949.20;24950.50;24927.20;24934.00
2018.11.28 18:58:00;24931.20;24961.00;24931.20;24948.50
2018.11.28 18:59:00;24948.50;24962.50;24948.50;24960.50
2018.11.28 19:00:00;24960.50;25023.20;24959.20;25023.20
2018.11.28 19:01:00;25023.20;25049.50;25007.20;25048.50
2018.11.28 19:02:00;25048.50;25085.50;25033.20;25085.50
2018.11.28 19:03:00;25085.50;25104.50;25067.20;25097.20
2018.11.28 19:04:00;25095.20;25117.20;25089.20;25113.20
2018.11.28 19:05:00;25113.30;25160.20;25111.20;25141.20
2018.11.28 19:06:00;25139.20;25155.20;25119.20;25135.20
2018.11.28 19:07:00;25135.20;25153.20;25129.20;25147.20
2018.11.28 19:08:00;25148.20;25177.20;25147.20;25173.20
2018.11.28 19:09:00;25175.20;25201.20;25165.20;25187.20
2018.11.28 19:10:00;25187.20;25195.20;25161.20;25162.20
2018.11.28 19:11:00;25161.20;25170.20;25143.20;25150.20
2018.11.28 19:12:00;25149.20;25151.30;25137.20;25147.20
2018.11.28 19:13:00;25147.20;25183.20;25143.20;25178.20
2018.11.28 19:14:00;25178.20;25194.20;25173.20;25190.20
2018.11.28 19:15:00;25190.20;25212.20;25177.20;25179.20
2018.11.28 19:16:00;25180.20;25187.20;25155.20;25169.20
2018.11.28 19:17:00;25167.20;25174.20;25149.20;25171.20
2018.11.28 19:18:00;25169.20;25178.20;25159.20;25159.20
2018.11.28 19:19:00;25159.20;25177.20;25159.20;25175.30
2018.11.28 19:20:00;25173.20;25189.20;25173.20;25183.20
2018.11.28 19:21:00;25184.20;25199.20;25181.20;25193.20
2018.11.28 19:22:00;25193.20;25206.20;25179.20;25185.30
2018.11.28 19:23:00;25185.30;25191.20;25175.20;25177.20
2018.11.28 19:24:00;25178.20;25180.20;25169.20;25174.20
2018.11.28 19:25:00;25175.20;25179.20;25159.20;25169.20
2018.11.28 19:26:00;25171.20;25176.20;25161.20;25164.20
2018.11.28 19:27:00;25163.20;25183.20;25163.20;25173.20
2018.11.28 19:28:00;25171.20;25190.30;25171.20;25189.20
2018.11.28 19:29:00;25189.20;25211.20;25189.20;25192.20
2018.11.28 19:30:00;25191.20;25206.20;25171.20;25184.20
2018.11.28 19:31:00;25183.20;25197.20;25177.20;25197.20
2018.11.28 19:32:00;25197.20;25209.30;25187.20;25191.20
2018.11.28 19:33:00;25191.20;25198.30;25187.20;25189.20
2018.11.28 19:34:00;25191.20;25194.20;25179.20;25181.20
2018.11.28 19:35:00;25179.20;25193.20;25179.20;25181.20
2018.11.28 19:36:00;25181.20;25185.20;25171.20;25177.20
2018.11.28 19:37:00;25179.20;25190.30;25173.20;25183.30
2018.11.28 19:38:00;25183.30;25193.20;25177.20;25177.20
2018.11.28 19:39:00;25175.20;25209.20;25173.20;25207.30
2018.11.28 19:40:00;25205.20;25207.30;25183.20;25185.20
2018.11.28 19:41:00;25185.30;25192.20;25177.20;25181.30
2018.11.28 19:42:00;25179.20;25197.20;25177.20;25181.20
2018.11.28 19:43:00;25182.20;25198.20;25173.20;25192.40
2018.11.28 19:44:00;25193.30;25199.20;25189.20;25194.20
2018.11.28 19:45:00;25193.20;25218.00;25193.20;25214.00
2018.11.28 19:46:00;25211.20;25217.00;25195.20;25199.10
2018.11.28 19:47:00;25199.10;25223.00;25199.10;25218.00
2018.11.28 19:48:00;25218.00;25231.00;25191.20;25199.00
2018.11.28 19:49:00;25199.10;25222.00;25195.20;25206.10
2018.11.28 19:50:00;25207.00;25225.00;25205.20;25213.20
2018.11.28 19:51:00;25215.00;25222.00;25209.20;25215.20
2018.11.28 19:52:00;25216.00;25222.00;25211.20;25217.20
2018.11.28 19:53:00;25217.20;25234.20;25215.20;25216.20
2018.11.28 19:54:00;25216.20;25233.20;25213.20;25226.30
2018.11.28 19:55:00;25226.30;25235.30;25219.20;25224.20
2018.11.28 19:56:00;25223.20;25233.20;25221.20;25229.30
2018.11.28 19:57:00;25229.30;25233.20;25213.20;25218.30
2018.11.28 19:58:00;25219.20;25227.20;25205.20;25211.20
2018.11.28 19:59:00;25211.30;25222.20;25207.20;25211.20
2018.11.28 20:00:00;25209.20;25222.20;25189.20;25200.20
2018.11.28 20:01:00;25200.20;25207.20;25189.20;25199.20
2018.11.28 20:02:00;25197.20;25198.30;25185.20;25185.20
2018.11.28 20:03:00;25186.20;25188.20;25171.20;25174.20
2018.11.28 20:04:00;25175.20;25176.20;25159.20;25164.30
2018.11.28 20:05:00;25165.20;25175.20;25161.20;25167.20
2018.11.28 20:06:00;25167.20;25167.30;25163.20;25164.20
2018.11.28 20:07:00;25164.20;25173.20;25163.20;25167.30
2018.11.28 20:08:00;25168.20;25185.20;25165.20;25181.20
2018.11.28 20:09:00;25181.20;25189.20;25177.20;25180.20
2018.11.28 20:10:00;25180.20;25182.20;25173.20;25179.20
2018.11.28 20:11:00;25179.20;25184.20;25179.20;25181.20
2018.11.28 20:12:00;25179.20;25180.30;25173.20;25177.30
2018.11.28 20:13:00;25177.30;25203.20;25177.30;25203.20
2018.11.28 20:14:00;25204.20;25214.20;25203.20;25210.20
2018.11.28 20:15:00;25209.20;25217.20;25203.20;25205.30
2018.11.28 20:16:00;25206.20;25219.20;25205.20;25218.20
2018.11.28 20:17:00;25218.20;25225.20;25218.20;25224.30
2018.11.28 20:18:00;25223.20;25228.20;25217.20;25225.00
2018.11.28 20:19:00;25224.10;25226.00;25217.20;25224.00
2018.11.28 20:20:00;25224.00;25225.00;25217.20;25220.00
2018.11.28 20:21:00;25221.00;25221.00;25215.20;25219.10
2018.11.28 20:22:00;25220.00;25221.00;25203.20;25210.00
2018.11.28 20:23:00;25210.00;25215.00;25207.20;25214.20
2018.11.28 20:24:00;25213.20;25216.20;25211.20;25213.30
2018.11.28 20:25:00;25213.30;25230.20;25211.20;25229.20
2018.11.28 20:26:00;25230.20;25231.20;25213.20;25215.20
2018.11.28 20:27:00;25216.20;25217.20;25203.20;25206.20
2018.11.28 20:28:00;25205.20;25221.20;25205.20;25220.30
2018.11.28 20:29:00;25220.30;25234.20;25217.20;25225.20
2018.11.28 20:30:00;25225.20;25242.20;25219.20;25240.30
2018.11.28 20:31:00;25241.20;25244.20;25231.20;25233.30
2018.11.28 20:32:00;25234.20;25234.20;25219.20;25221.20
2018.11.28 20:33:00;25222.30;25233.20;25222.30;25225.20
2018.11.28 20:34:00;25225.20;25230.00;25221.20;25229.00
2018.11.28 20:35:00;25230.00;25238.00;25227.20;25236.00
2018.11.28 20:36:00;25236.00;25258.00;25233.20;25258.00
2018.11.28 20:37:00;25258.00;25268.00;25255.20;25261.20
2018.11.28 20:38:00;25262.00;25274.00;25262.00;25268.00
2018.11.28 20:39:00;25268.00;25274.00;25267.20;25270.00
2018.11.28 20:40:00;25271.00;25276.00;25263.20;25275.20
2018.11.28 20:41:00;25276.00;25276.00;25265.20;25271.10
2018.11.28 20:42:00;25272.00;25286.00;25269.20;25286.00
2018.11.28 20:43:00;25285.20;25290.00;25279.20;25286.00
2018.11.28 20:44:00;25286.00;25286.10;25277.20;25279.20
2018.11.28 20:45:00;25279.20;25288.00;25279.20;25284.10
2018.11.28 20:46:00;25285.00;25299.00;25279.20;25295.20
2018.11.28 20:47:00;25297.00;25302.00;25289.20;25295.10
2018.11.28 20:48:00;25295.10;25298.00;25289.20;25294.00
2018.11.28 20:49:00;25294.00;25294.10;25281.20;25285.00
2018.11.28 20:50:00;25285.00;25289.00;25273.20;25280.00
2018.11.28 20:51:00;25279.20;25286.00;25273.20;25279.00
2018.11.28 20:52:00;25279.00;25295.00;25279.00;25282.00
2018.11.28 20:53:00;25283.00;25286.00;25275.20;25284.10
2018.11.28 20:54:00;25285.00;25286.00;25277.20;25280.00
2018.11.28 20:55:00;25279.20;25301.00;25279.20;25300.00
2018.11.28 20:56:00;25300.00;25302.10;25285.20;25290.00
2018.11.28 20:57:00;25290.00;25292.00;25283.20;25285.10
2018.11.28 20:58:00;25283.20;25290.00;25279.20;25284.00
2018.11.28 20:59:00;25281.20;25288.00;25281.20;25287.10
2018.11.28 21:00:00;25287.10;25291.00;25277.20;25278.00
2018.11.28 21:01:00;25278.00;25284.00;25273.20;25281.00
2018.11.28 21:02:00;25281.00;25292.00;25277.20;25292.00
2018.11.28 21:03:00;25292.00;25297.10;25289.20;25295.00
2018.11.28 21:04:00;25296.00;25301.00;25293.20;25299.00
2018.11.28 21:05:00;25299.10;25304.00;25285.20;25287.20
2018.11.28 21:06:00;25287.20;25287.20;25269.20;25281.20
2018.11.28 21:07:00;25279.20;25286.00;25277.20;25279.20
2018.11.28 21:08:00;25281.10;25285.00;25277.20;25281.10
2018.11.28 21:09:00;25281.10;25291.00;25275.20;25277.20
2018.11.28 21:10:00;25275.20;25294.00;25275.20;25287.20
2018.11.28 21:11:00;25287.20;25288.00;25277.20;25280.00
2018.11.28 21:12:00;25277.20;25291.00;25277.20;25288.10
2018.11.28 21:13:00;25288.10;25294.00;25283.20;25289.00
2018.11.28 21:14:00;25287.20;25302.10;25287.20;25301.10
2018.11.28 21:15:00;25302.00;25302.00;25257.20;25258.00
2018.11.28 21:16:00;25258.00;25274.00;25251.20;25269.20
2018.11.28 21:17:00;25271.10;25291.20;25269.20;25290.00
2018.11.28 21:18:00;25287.20;25300.00;25287.20;25296.00
2018.11.28 21:19:00;25296.00;25299.00;25289.20;25291.00
2018.11.28 21:20:00;25291.00;25296.00;25277.20;25278.00
2018.11.28 21:21:00;25278.00;25280.00;25259.20;25263.20
2018.11.28 21:22:00;25264.00;25270.00;25257.20;25262.00
2018.11.28 21:23:00;25259.20;25268.10;25255.20;25258.10
2018.11.28 21:24:00;25258.10;25274.00;25253.20;25268.00
2018.11.28 21:25:00;25267.20;25275.00;25261.20;25275.00
2018.11.28 21:26:00;25275.10;25285.00;25269.20;25281.20
2018.11.28 21:27:00;25284.00;25286.00;25277.20;25278.10
2018.11.28 21:28:00;25275.20;25282.00;25275.20;25281.00
2018.11.28 21:29:00;25281.00;25281.00;25263.20;25269.00
2018.11.28 21:30:00;25269.00;25277.00;25267.20;25272.00
2018.11.28 21:31:00;25269.20;25280.00;25269.20;25274.50
2018.11.28 21:32:00;25274.50;25277.50;25267.20;25276.50
2018.11.28 21:33:00;25276.50;25279.50;25257.20;25258.50
2018.11.28 21:34:00;25259.50;25269.50;25255.20;25267.50
2018.11.28 21:35:00;25267.50;25273.50;25265.20;25270.50
2018.11.28 21:36:00;25270.50;25273.50;25265.20;25271.20
2018.11.28 21:37:00;25272.50;25283.50;25271.20;25274.50
2018.11.28 21:38:00;25275.50;25276.50;25269.20;25271.50
2018.11.28 21:39:00;25269.20;25271.50;25251.20;25257.50
2018.11.28 21:40:00;25257.50;25274.60;25257.50;25268.50
2018.11.28 21:41:00;25268.50;25276.50;25265.20;25269.50
2018.11.28 21:42:00;25267.20;25274.50;25263.20;25267.50
2018.11.28 21:43:00;25267.50;25274.50;25263.20;25273.50
2018.11.28 21:44:00;25274.50;25275.50;25269.20;25269.50
2018.11.28 21:45:00;25269.50;25279.50;25267.20;25275.50
2018.11.28 21:46:00;25273.20;25275.50;25269.20;25274.50
2018.11.28 21:47:00;25274.50;25278.50;25271.20;25274.50
2018.11.28 21:48:00;25274.50;25279.50;25265.20;25270.50
2018.11.28 21:49:00;25269.20;25275.50;25261.20;25274.50
2018.11.28 21:50:00;25275.50;25276.50;25267.20;25269.20
2018.11.28 21:51:00;25270.50;25272.50;25267.20;25271.50
2018.11.28 21:52:00;25271.50;25278.50;25269.20;25277.50
2018.11.28 21:53:00;25277.50;25277.50;25255.20;25256.50
2018.11.28 21:54:00;25256.50;25263.50;25251.20;25253.50
2018.11.28 21:55:00;25253.50;25257.50;25239.20;25244.60
2018.11.28 21:56:00;25245.20;25253.50;25243.20;25244.50
2018.11.28 21:57:00;25243.20;25247.00;25237.20;25245.00
2018.11.28 21:58:00;25245.00;25245.00;25227.20;25229.10
2018.11.28 21:59:00;25230.00;25240.00;25229.20;25236.00
2018.11.28 22:00:00;25236.00;25241.00;25223.20;25237.10
2018.11.28 22:01:00;25237.10;25239.00;25229.20;25231.00
2018.11.28 22:02:00;25231.00;25232.00;25209.20;25213.00
2018.11.28 22:03:00;25211.20;25235.00;25209.20;25234.00
2018.11.28 22:04:00;25234.10;25241.00;25233.20;25239.00
2018.11.28 22:05:00;25237.20;25241.00;25231.20;25231.20
2018.11.28 22:06:00;25231.20;25248.00;25231.20;25243.00
2018.11.28 22:07:00;25243.10;25244.00;25235.20;25239.10
2018.11.28 22:08:00;25239.10;25246.00;25231.20;25233.10
2018.11.28 22:09:00;25233.10;25235.00;25225.20;25232.00
2018.11.28 22:10:00;25231.20;25243.00;25229.20;25238.00
2018.11.28 22:11:00;25235.20;25239.00;25229.20;25234.00
2018.11.28 22:12:00;25231.20;25237.00;25227.20;25229.20
2018.11.28 22:13:00;25229.20;25241.00;25223.20;25241.00
2018.11.28 22:14:00;25242.00;25253.00;25237.20;25246.10
2018.11.28 22:15:00;25246.10;25251.00;25241.20;25244.00
2018.11.28 22:16:00;25244.00;25250.00;25239.20;25242.10
2018.11.28 22:17:00;25239.20;25242.00;25229.20;25233.00
2018.11.28 22:18:00;25234.00;25241.00;25231.20;25240.00
2018.11.28 22:19:00;25240.00;25243.00;25237.20;25240.00
2018.11.28 22:20:00;25239.20;25256.00;25237.20;25252.00
2018.11.28 22:21:00;25252.00;25264.00;25249.20;25259.10
2018.11.28 22:22:00;25257.20;25258.00;25249.20;25254.10
2018.11.28 22:23:00;25254.10;25265.00;25249.20;25259.20
2018.11.28 22:24:00;25261.00;25266.00;25257.20;25258.10
2018.11.28 22:25:00;25258.10;25268.00;25255.20;25266.10
2018.11.28 22:26:00;25267.00;25270.00;25255.20;25257.00
2018.11.28 22:27:00;25257.00;25258.00;25251.20;25253.00
2018.11.28 22:28:00;25253.20;25262.00;25251.20;25262.00
2018.11.28 22:29:00;25261.20;25282.00;25259.20;25276.00
2018.11.28 22:30:00;25275.20;25276.00;25261.20;25262.00
2018.11.28 22:31:00;25259.20;25263.10;25253.20;25259.00
2018.11.28 22:32:00;25259.00;25273.00;25259.00;25271.20
2018.11.28 22:33:00;25272.00;25283.00;25269.20;25279.00
2018.11.28 22:34:00;25277.20;25297.00;25277.20;25297.00
2018.11.28 22:35:00;25295.20;25303.00;25293.20;25300.10
2018.11.28 22:36:00;25300.10;25302.00;25295.20;25300.00
2018.11.28 22:37:00;25300.00;25306.00;25293.20;25298.00
2018.11.28 22:38:00;25295.20;25307.00;25295.20;25305.20
2018.11.28 22:39:00;25305.20;25305.20;25295.20;25302.00
2018.11.28 22:40:00;25302.00;25304.00;25293.20;25304.00
2018.11.28 22:41:00;25303.20;25312.10;25303.20;25310.10
2018.11.28 22:42:00;25310.10;25318.00;25309.20;25316.00
2018.11.28 22:43:00;25316.00;25323.00;25313.20;25318.10
2018.11.28 22:44:00;25317.20;25319.00;25305.20;25307.00
2018.11.28 22:45:00;25307.00;25333.00;25307.00;25331.10
2018.11.28 22:46:00;25329.20;25337.00;25327.20;25335.20
2018.11.28 22:47:00;25336.00;25337.00;25331.20;25335.00
2018.11.28 22:48:00;25335.00;25341.10;25331.20;25341.10
2018.11.28 22:49:00;25341.10;25348.00;25337.20;25347.00
2018.11.28 22:50:00;25345.20;25354.00;25345.20;25354.00
2018.11.28 22:51:00;25354.00;25354.00;25347.20;25353.00
2018.11.28 22:52:00;25351.20;25355.00;25343.20;25353.20
2018.11.28 22:53:00;25353.00;25357.00;25345.20;25348.00
2018.11.28 22:54:00;25348.00;25353.00;25341.20;25351.20
2018.11.28 22:55:00;25343.20;25365.00;25343.20;25365.00
2018.11.28 22:56:00;25365.00;25365.20;25355.20;25361.00
2018.11.28 22:57:00;25361.10;25363.10;25353.20;25353.20
2018.11.28 22:58:00;25353.20;25367.00;25347.20;25364.10
2018.11.28 22:59:00;25364.10;25367.00;25349.20;25363.20
2018.11.28 23:00:00;25364.00;25365.00;25341.20;25344.00
2018.11.28 23:01:00;25343.20;25343.20;25329.20;25331.20
2018.11.28 23:02:00;25331.20;25348.00;25329.20;25337.20
2018.11.28 23:03:00;25337.20;25340.00;25333.20;25339.00
2018.11.28 23:04:00;25339.00;25346.00;25337.20;25344.00
2018.11.28 23:05:00;25344.00;25346.00;25339.20;25343.00
2018.11.28 23:06:00;25341.20;25346.10;25339.20;25344.00
2018.11.28 23:07:00;25344.00;25344.00;25339.20;25340.00
2018.11.28 23:08:00;25340.00;25341.00;25337.20;25340.00
2018.11.28 23:09:00;25337.20;25340.00;25331.20;25337.00
2018.11.28 23:10:00;25335.20;25338.00;25331.20;25333.10
2018.11.28 23:11:00;25333.10;25334.00;25325.20;25330.00
2018.11.28 23:12:00;25327.20;25330.00;25323.20;25327.00
2018.11.28 23:13:00;25325.20;25332.00;25325.20;25331.00
2018.11.28 23:14:00;25329.20;25348.00;25329.20;25346.00
2018.11.28 23:30:00;25348.00;25348.00;25341.20;25347.10
2018.11.28 23:31:00;25348.00;25351.10;25347.20;25349.00
2018.11.28 23:32:00;25349.00;25349.00;25341.20;25344.10
2018.11.28 23:33:00;25345.00;25350.00;25345.00;25350.00
2018.11.28 23:34:00;25349.20;25352.00;25349.20;25352.00
2018.11.28 23:35:00;25352.00;25353.00;25351.20;25353.00
2018.11.28 23:36:00;25351.20;25352.00;25347.20;25351.00
2018.11.28 23:37:00;25349.20;25350.00;25347.20;25348.10
2018.11.28 23:38:00;25348.10;25348.10;25345.20;25348.00
2018.11.28 23:39:00;25348.00;25348.00;25345.20;25347.20
2018.11.28 23:40:00;25347.20;25347.20;25345.20;25347.00
2018.11.28 23:41:00;25345.20;25346.10;25345.10;25345.10
2018.11.28 23:42:00;25345.10;25346.00;25343.20;25345.00
2018.11.28 23:43:00;25345.10;25346.00;25341.20;25344.00
2018.11.28 23:44:00;25341.20;25346.00;25339.20;25342.10
2018.11.28 23:45:00;25343.00;25345.10;25341.00;25341.00
2018.11.28 23:46:00;25339.20;25342.00;25339.20;25340.00
2018.11.28 23:47:00;25340.00;25340.00;25339.20;25339.20
2018.11.28 23:48:00;25339.20;25340.00;25335.20;25338.00
2018.11.28 23:49:00;25335.20;25337.10;25329.20;25331.10
2018.11.28 23:50:00;25331.10;25332.10;25329.20;25329.20
2018.11.28 23:51:00;25329.20;25331.00;25327.20;25331.00
2018.11.28 23:52:00;25329.20;25332.00;25329.20;25331.10
2018.11.28 23:53:00;25331.10;25333.00;25331.10;25333.00
2018.11.28 23:54:00;25331.20;25333.00;25329.20;25333.00
2018.11.28 23:55:00;25334.10;25338.00;25331.20;25337.00
2018.11.28 23:56:00;25338.00;25338.00;25333.20;25337.10
2018.11.28 23:57:00;25335.20;25338.00;25335.20;25338.00
2018.11.28 23:58:00;25338.00;25338.00;25333.20;25337.00
