2018.11.28 05:45:34;18.574;18.675
2018.11.28 06:04:06;18.599;18.700
2018.11.28 06:04:56;18.624;18.725
2018.11.28 06:06:41;18.574;18.675
2018.11.28 06:21:48;18.524;18.625
2018.11.28 06:21:49;18.574;18.675
2018.11.28 06:22:22;18.524;18.625
2018.11.28 06:22:23;18.574;18.675
2018.11.28 06:22:28;18.524;18.625
2018.11.28 06:22:29;18.574;18.675
2018.11.28 06:22:57;18.549;18.650
2018.11.28 06:22:58;18.574;18.675
2018.11.28 06:23:07;18.524;18.625
2018.11.28 06:23:17;18.549;18.650
2018.11.28 06:23:18;18.524;18.625
2018.11.28 06:23:19;18.574;18.675
2018.11.28 06:23:20;18.549;18.650
2018.11.28 06:23:25;18.524;18.625
2018.11.28 06:24:33;18.549;18.650
2018.11.28 06:24:34;18.574;18.675
2018.11.28 06:25:26;18.524;18.625
2018.11.28 06:28:29;18.549;18.650
2018.11.28 06:29:02;18.524;18.625
2018.11.28 06:29:33;18.549;18.650
2018.11.28 06:29:34;18.574;18.675
2018.11.28 06:30:01;18.549;18.650
2018.11.28 06:30:03;18.574;18.675
2018.11.28 07:13:12;18.549;18.650
2018.11.28 07:13:13;18.574;18.675
2018.11.28 08:01:26;18.549;18.650
2018.11.28 08:01:32;18.524;18.625
2018.11.28 08:02:05;18.549;18.650
2018.11.28 08:02:17;18.574;18.675
2018.11.28 08:02:18;18.549;18.650
2018.11.28 08:03:39;18.574;18.675
2018.11.28 08:03:46;18.549;18.650
2018.11.28 08:04:44;18.524;18.625
2018.11.28 08:05:00;18.549;18.650
2018.11.28 08:06:00;18.574;18.675
2018.11.28 08:07:54;18.549;18.650
2018.11.28 08:07:55;18.574;18.675
2018.11.28 08:07:55;18.549;18.650
2018.11.28 08:08:04;18.574;18.675
2018.11.28 08:08:29;18.549;18.650
2018.11.28 08:08:30;18.574;18.675
2018.11.28 08:08:31;18.549;18.650
2018.11.28 08:08:46;18.574;18.675
2018.11.28 08:09:17;18.549;18.650
2018.11.28 08:09:21;18.574;18.675
2018.11.28 08:10:02;18.524;18.625
2018.11.28 08:10:04;18.549;18.650
2018.11.28 08:10:48;18.574;18.675
2018.11.28 08:10:54;18.524;18.625
2018.11.28 08:12:32;18.499;18.600
2018.11.28 08:12:34;18.524;18.625
2018.11.28 08:12:49;18.499;18.600
2018.11.28 08:12:50;18.474;18.575
2018.11.28 08:13:28;18.499;18.600
2018.11.28 08:13:51;18.524;18.625
2018.11.28 08:16:25;18.499;18.600
2018.11.28 08:16:31;18.474;18.575
2018.11.28 08:16:34;18.499;18.600
2018.11.28 08:16:43;18.524;18.625
2018.11.28 08:17:11;18.499;18.600
2018.11.28 08:17:56;18.524;18.625
2018.11.28 08:17:57;18.499;18.600
2018.11.28 08:18:07;18.524;18.625
2018.11.28 08:23:13;18.499;18.600
2018.11.28 08:23:15;18.474;18.575
2018.11.28 08:37:28;18.499;18.600
2018.11.28 08:37:34;18.474;18.575
2018.11.28 08:37:40;18.499;18.600
2018.11.28 08:37:49;18.524;18.625
2018.11.28 08:37:52;18.499;18.600
2018.11.28 08:37:57;18.524;18.625
2018.11.28 08:38:15;18.474;18.575
2018.11.28 08:38:16;18.499;18.600
2018.11.28 08:38:26;18.474;18.575
2018.11.28 08:38:28;18.499;18.600
2018.11.28 08:38:30;18.474;18.575
2018.11.28 08:41:25;18.424;18.525
2018.11.28 08:41:43;18.474;18.575
2018.11.28 08:46:33;18.424;18.525
2018.11.28 08:47:25;18.474;18.575
2018.11.28 08:47:31;18.449;18.550
2018.11.28 08:48:01;18.424;18.525
2018.11.28 08:48:21;18.474;18.575
2018.11.28 08:48:22;18.449;18.550
2018.11.28 08:48:23;18.474;18.575
2018.11.28 08:48:25;18.449;18.550
2018.11.28 08:48:31;18.474;18.575
2018.11.28 08:48:40;18.449;18.550
2018.11.28 08:48:41;18.424;18.525
2018.11.28 08:48:45;18.449;18.550
2018.11.28 08:48:46;18.474;18.575
2018.11.28 08:48:48;18.449;18.550
2018.11.28 08:48:51;18.474;18.575
2018.11.28 08:48:52;18.449;18.550
2018.11.28 08:48:54;18.474;18.575
2018.11.28 08:49:05;18.449;18.550
2018.11.28 08:49:09;18.474;18.575
2018.11.28 08:49:10;18.449;18.550
2018.11.28 08:49:28;18.474;18.575
2018.11.28 08:49:49;18.449;18.550
2018.11.28 08:50:05;18.474;18.575
2018.11.28 08:55:30;18.424;18.525
2018.11.28 08:55:58;18.449;18.550
2018.11.28 08:56:00;18.424;18.525
2018.11.28 08:56:51;18.449;18.550
2018.11.28 08:56:52;18.424;18.525
2018.11.28 08:57:38;18.474;18.575
2018.11.28 08:57:39;18.424;18.525
2018.11.28 08:57:40;18.449;18.550
2018.11.28 08:57:41;18.424;18.525
2018.11.28 08:57:49;18.449;18.550
2018.11.28 08:57:54;18.424;18.525
2018.11.28 08:58:07;18.449;18.550
2018.11.28 08:58:12;18.424;18.525
2018.11.28 08:58:16;18.449;18.550
2018.11.28 08:59:36;18.424;18.525
2018.11.28 08:59:37;18.449;18.550
2018.11.28 09:00:01;18.474;18.575
2018.11.28 09:00:01;18.449;18.550
2018.11.28 09:00:06;18.474;18.575
2018.11.28 09:00:07;18.449;18.550
2018.11.28 09:00:11;18.424;18.525
2018.11.28 09:00:21;18.474;18.575
2018.11.28 09:00:22;18.449;18.550
2018.11.28 09:00:25;18.424;18.525
2018.11.28 09:00:37;18.449;18.550
2018.11.28 09:00:38;18.424;18.525
2018.11.28 09:00:40;18.449;18.550
2018.11.28 09:00:44;18.424;18.525
2018.11.28 09:00:46;18.449;18.550
2018.11.28 09:00:49;18.474;18.575
2018.11.28 09:01:00;18.449;18.550
2018.11.28 09:01:01;18.474;18.575
2018.11.28 09:01:04;18.424;18.525
2018.11.28 09:01:09;18.449;18.550
2018.11.28 09:01:10;18.424;18.525
2018.11.28 09:01:11;18.474;18.575
2018.11.28 09:01:19;18.449;18.550
2018.11.28 09:01:47;18.424;18.525
2018.11.28 09:01:51;18.449;18.550
2018.11.28 09:02:38;18.474;18.575
2018.11.28 09:21:16;18.524;18.625
2018.11.28 09:21:28;18.499;18.600
2018.11.28 09:22:09;18.474;18.575
2018.11.28 09:22:10;18.499;18.600
2018.11.28 09:22:26;18.474;18.575
2018.11.28 09:22:28;18.499;18.600
2018.11.28 09:22:51;18.474;18.575
2018.11.28 09:26:11;18.524;18.625
2018.11.28 09:26:31;18.499;18.600
2018.11.28 09:26:33;18.474;18.575
2018.11.28 09:26:35;18.499;18.600
2018.11.28 09:27:10;18.524;18.625
2018.11.28 09:27:22;18.474;18.575
2018.11.28 09:27:52;18.499;18.600
2018.11.28 09:27:55;18.474;18.575
2018.11.28 09:28:23;18.499;18.600
2018.11.28 09:28:24;18.474;18.575
2018.11.28 09:29:00;18.499;18.600
2018.11.28 09:29:18;18.524;18.625
2018.11.28 09:32:23;18.499;18.600
2018.11.28 09:32:47;18.474;18.575
2018.11.28 09:33:01;18.499;18.600
2018.11.28 09:33:18;18.524;18.625
2018.11.28 09:33:19;18.499;18.600
2018.11.28 09:33:22;18.524;18.625
2018.11.28 09:37:58;18.499;18.600
2018.11.28 09:38:05;18.524;18.625
2018.11.28 09:40:00;18.499;18.600
2018.11.28 09:40:32;18.524;18.625
2018.11.28 09:40:34;18.499;18.600
2018.11.28 09:42:09;18.524;18.625
2018.11.28 09:42:10;18.499;18.600
2018.11.28 09:42:40;18.524;18.625
2018.11.28 09:42:58;18.474;18.575
2018.11.28 09:43:04;18.499;18.600
2018.11.28 09:43:13;18.474;18.575
2018.11.28 09:43:35;18.499;18.600
2018.11.28 09:43:39;18.524;18.625
2018.11.28 09:45:47;18.549;18.650
2018.11.28 09:45:48;18.524;18.625
2018.11.28 09:45:57;18.549;18.650
2018.11.28 09:46:23;18.574;18.675
2018.11.28 09:46:25;18.549;18.650
2018.11.28 09:46:29;18.524;18.625
2018.11.28 09:46:58;18.549;18.650
2018.11.28 09:47:14;18.524;18.625
2018.11.28 09:47:16;18.549;18.650
2018.11.28 09:47:46;18.524;18.625
2018.11.28 09:47:49;18.549;18.650
2018.11.28 09:48:02;18.524;18.625
2018.11.28 09:48:04;18.549;18.650
2018.11.28 09:48:10;18.524;18.625
2018.11.28 09:48:13;18.549;18.650
2018.11.28 09:48:20;18.524;18.625
2018.11.28 09:48:31;18.549;18.650
2018.11.28 09:49:01;18.524;18.625
2018.11.28 09:49:04;18.549;18.650
2018.11.28 09:49:26;18.524;18.625
2018.11.28 09:50:06;18.549;18.650
2018.11.28 09:50:11;18.574;18.675
2018.11.28 09:50:11;18.549;18.650
2018.11.28 09:50:54;18.574;18.675
2018.11.28 09:51:34;18.549;18.650
2018.11.28 09:52:04;18.524;18.625
2018.11.28 09:53:33;18.549;18.650
2018.11.28 09:53:34;18.524;18.625
2018.11.28 09:55:50;18.574;18.675
2018.11.28 09:55:52;18.549;18.650
2018.11.28 09:55:54;18.574;18.675
2018.11.28 09:55:58;18.524;18.625
2018.11.28 09:56:02;18.574;18.675
2018.11.28 10:00:24;18.624;18.725
2018.11.28 10:00:27;18.599;18.700
2018.11.28 10:00:30;18.574;18.675
2018.11.28 10:00:32;18.599;18.700
2018.11.28 10:00:35;18.574;18.675
2018.11.28 10:00:35;18.599;18.700
2018.11.28 10:00:38;18.574;18.675
2018.11.28 10:00:49;18.599;18.700
2018.11.28 10:00:54;18.574;18.675
2018.11.28 10:00:55;18.599;18.700
2018.11.28 10:00:57;18.574;18.675
2018.11.28 10:00:59;18.599;18.700
2018.11.28 10:01:05;18.624;18.725
2018.11.28 10:01:12;18.599;18.700
2018.11.28 10:01:13;18.574;18.675
2018.11.28 10:01:14;18.599;18.700
2018.11.28 10:01:20;18.624;18.725
2018.11.28 10:01:22;18.599;18.700
2018.11.28 10:01:30;18.624;18.725
2018.11.28 10:01:31;18.599;18.700
2018.11.28 10:01:31;18.624;18.725
2018.11.28 10:01:37;18.599;18.700
2018.11.28 10:01:43;18.574;18.675
2018.11.28 10:05:20;18.549;18.650
2018.11.28 10:05:28;18.574;18.675
2018.11.28 10:10:32;18.599;18.700
2018.11.28 10:10:33;18.574;18.675
2018.11.28 10:10:39;18.599;18.700
2018.11.28 10:10:49;18.574;18.675
2018.11.28 10:12:02;18.624;18.725
2018.11.28 10:12:08;18.574;18.675
2018.11.28 10:12:40;18.599;18.700
2018.11.28 10:13:05;18.574;18.675
2018.11.28 10:14:34;18.624;18.725
2018.11.28 10:14:35;18.599;18.700
2018.11.28 10:14:35;18.574;18.675
2018.11.28 10:15:11;18.624;18.725
2018.11.28 10:15:14;18.599;18.700
2018.11.28 10:15:22;18.624;18.725
2018.11.28 10:17:11;18.574;18.675
2018.11.28 10:17:15;18.624;18.725
2018.11.28 10:22:09;18.574;18.675
2018.11.28 10:23:04;18.624;18.725
2018.11.28 10:23:06;18.599;18.700
2018.11.28 10:23:07;18.624;18.725
2018.11.28 10:23:07;18.574;18.675
2018.11.28 10:28:27;18.524;18.625
2018.11.28 10:31:36;18.574;18.675
2018.11.28 10:32:00;18.524;18.625
2018.11.28 10:32:07;18.574;18.675
2018.11.28 10:32:52;18.524;18.625
2018.11.28 10:36:07;18.574;18.675
2018.11.28 10:43:03;18.624;18.725
2018.11.28 10:44:01;18.674;18.775
2018.11.28 10:44:02;18.649;18.750
2018.11.28 10:44:04;18.624;18.725
2018.11.28 10:44:24;18.674;18.775
2018.11.28 10:44:43;18.624;18.725
2018.11.28 10:45:04;18.649;18.750
2018.11.28 10:45:04;18.674;18.775
2018.11.28 10:45:19;18.649;18.750
2018.11.28 10:45:20;18.674;18.775
2018.11.28 10:45:34;18.649;18.750
2018.11.28 10:45:36;18.674;18.775
2018.11.28 10:45:43;18.649;18.750
2018.11.28 10:45:48;18.674;18.775
2018.11.28 10:45:50;18.649;18.750
2018.11.28 10:45:51;18.674;18.775
2018.11.28 10:45:52;18.649;18.750
2018.11.28 10:45:54;18.674;18.775
2018.11.28 10:46:31;18.624;18.725
2018.11.28 10:46:31;18.649;18.750
2018.11.28 10:46:35;18.674;18.775
2018.11.28 10:46:38;18.649;18.750
2018.11.28 10:47:01;18.624;18.725
2018.11.28 10:47:01;18.649;18.750
2018.11.28 10:47:04;18.674;18.775
2018.11.28 10:47:25;18.624;18.725
2018.11.28 10:49:14;18.599;18.700
2018.11.28 10:49:17;18.574;18.675
2018.11.28 10:49:18;18.599;18.700
2018.11.28 10:49:24;18.624;18.725
2018.11.28 10:50:41;18.599;18.700
2018.11.28 10:50:43;18.574;18.675
2018.11.28 10:50:54;18.599;18.700
2018.11.28 10:50:58;18.624;18.725
2018.11.28 10:51:08;18.599;18.700
2018.11.28 10:51:16;18.624;18.725
2018.11.28 10:51:30;18.599;18.700
2018.11.28 10:52:01;18.624;18.725
2018.11.28 10:52:06;18.599;18.700
2018.11.28 10:52:21;18.624;18.725
2018.11.28 10:52:22;18.599;18.700
2018.11.28 10:52:52;18.624;18.725
2018.11.28 10:53:14;18.599;18.700
2018.11.28 10:53:38;18.574;18.675
2018.11.28 10:53:47;18.599;18.700
2018.11.28 10:54:16;18.574;18.675
2018.11.28 10:55:07;18.599;18.700
2018.11.28 10:55:16;18.624;18.725
2018.11.28 10:55:20;18.599;18.700
2018.11.28 10:55:26;18.574;18.675
2018.11.28 10:55:27;18.599;18.700
2018.11.28 10:55:52;18.574;18.675
2018.11.28 10:56:36;18.599;18.700
2018.11.28 10:56:40;18.574;18.675
2018.11.28 10:56:43;18.624;18.725
2018.11.28 10:57:07;18.574;18.675
2018.11.28 10:58:20;18.524;18.625
2018.11.28 10:58:22;18.574;18.675
2018.11.28 10:58:22;18.524;18.625
2018.11.28 10:58:23;18.549;18.650
2018.11.28 10:58:25;18.524;18.625
2018.11.28 11:03:19;18.574;18.675
2018.11.28 11:03:31;18.524;18.625
2018.11.28 11:03:43;18.549;18.650
2018.11.28 11:03:46;18.524;18.625
2018.11.28 11:03:51;18.574;18.675
2018.11.28 11:04:15;18.599;18.700
2018.11.28 11:04:18;18.574;18.675
2018.11.28 11:05:04;18.599;18.700
2018.11.28 11:05:07;18.624;18.725
2018.11.28 11:05:10;18.599;18.700
2018.11.28 11:06:16;18.574;18.675
2018.11.28 11:06:17;18.624;18.725
2018.11.28 11:06:46;18.574;18.675
2018.11.28 11:09:00;18.599;18.700
2018.11.28 11:09:37;18.574;18.675
2018.11.28 11:09:43;18.599;18.700
2018.11.28 11:10:07;18.574;18.675
2018.11.28 11:11:16;18.624;18.725
2018.11.28 11:11:22;18.599;18.700
2018.11.28 11:11:25;18.574;18.675
2018.11.28 11:13:29;18.624;18.725
2018.11.28 11:14:59;18.599;18.700
2018.11.28 11:15:07;18.624;18.725
2018.11.28 11:15:19;18.599;18.700
2018.11.28 11:15:20;18.574;18.675
2018.11.28 11:15:46;18.624;18.725
2018.11.28 11:17:43;18.599;18.700
2018.11.28 11:17:49;18.574;18.675
2018.11.28 11:17:50;18.599;18.700
2018.11.28 11:17:51;18.574;18.675
2018.11.28 11:18:01;18.599;18.700
2018.11.28 11:18:35;18.574;18.675
2018.11.28 11:22:10;18.624;18.725
2018.11.28 11:22:13;18.599;18.700
2018.11.28 11:22:32;18.624;18.725
2018.11.28 11:23:03;18.574;18.675
2018.11.28 11:23:10;18.624;18.725
2018.11.28 11:25:00;18.649;18.750
2018.11.28 11:25:03;18.674;18.775
2018.11.28 11:28:11;18.699;18.800
2018.11.28 11:28:13;18.674;18.775
2018.11.28 11:28:15;18.699;18.800
2018.11.28 11:28:16;18.674;18.775
2018.11.28 11:28:21;18.699;18.800
2018.11.28 11:28:22;18.674;18.775
2018.11.28 11:28:41;18.699;18.800
2018.11.28 11:28:42;18.674;18.775
2018.11.28 11:28:47;18.699;18.800
2018.11.28 11:28:49;18.674;18.775
2018.11.28 11:28:52;18.699;18.800
2018.11.28 11:28:55;18.674;18.775
2018.11.28 11:28:57;18.699;18.800
2018.11.28 11:28:58;18.674;18.775
2018.11.28 11:29:05;18.699;18.800
2018.11.28 11:29:10;18.674;18.775
2018.11.28 11:29:33;18.699;18.800
2018.11.28 11:29:33;18.724;18.825
2018.11.28 11:32:54;18.699;18.800
2018.11.28 11:32:55;18.724;18.825
2018.11.28 11:33:34;18.674;18.775
2018.11.28 11:45:34;18.649;18.750
2018.11.28 11:45:46;18.624;18.725
2018.11.28 11:46:30;18.674;18.775
2018.11.28 11:46:48;18.649;18.750
2018.11.28 11:47:01;18.674;18.775
2018.11.28 11:47:54;18.649;18.750
2018.11.28 11:48:03;18.674;18.775
2018.11.28 11:48:10;18.649;18.750
2018.11.28 11:48:28;18.624;18.725
2018.11.28 11:49:26;18.649;18.750
2018.11.28 11:49:37;18.674;18.775
2018.11.28 11:49:37;18.649;18.750
2018.11.28 11:49:58;18.624;18.725
2018.11.28 11:50:28;18.574;18.675
2018.11.28 11:50:37;18.599;18.700
2018.11.28 11:50:38;18.624;18.725
2018.11.28 11:50:39;18.599;18.700
2018.11.28 11:50:45;18.624;18.725
2018.11.28 11:50:48;18.599;18.700
2018.11.28 11:50:52;18.574;18.675
2018.11.28 11:50:54;18.599;18.700
2018.11.28 11:50:55;18.574;18.675
2018.11.28 11:50:55;18.599;18.700
2018.11.28 11:50:56;18.624;18.725
2018.11.28 11:51:01;18.574;18.675
2018.11.28 11:51:02;18.599;18.700
2018.11.28 11:51:04;18.574;18.675
2018.11.28 11:51:05;18.599;18.700
2018.11.28 11:51:18;18.574;18.675
2018.11.28 11:51:28;18.599;18.700
2018.11.28 11:51:41;18.574;18.675
2018.11.28 11:52:04;18.599;18.700
2018.11.28 11:52:06;18.624;18.725
2018.11.28 11:52:07;18.599;18.700
2018.11.28 11:52:08;18.574;18.675
2018.11.28 11:52:15;18.599;18.700
2018.11.28 11:52:29;18.624;18.725
2018.11.28 11:54:01;18.599;18.700
2018.11.28 11:54:04;18.574;18.675
2018.11.28 11:54:36;18.599;18.700
2018.11.28 11:54:43;18.574;18.675
2018.11.28 11:54:46;18.599;18.700
2018.11.28 11:54:50;18.624;18.725
2018.11.28 11:55:04;18.599;18.700
2018.11.28 11:55:16;18.574;18.675
2018.11.28 11:56:11;18.624;18.725
2018.11.28 11:59:52;18.649;18.750
2018.11.28 11:59:59;18.674;18.775
2018.11.28 12:00:00;18.649;18.750
2018.11.28 12:00:01;18.624;18.725
2018.11.28 12:01:51;18.649;18.750
2018.11.28 12:02:21;18.624;18.725
2018.11.28 12:02:22;18.649;18.750
2018.11.28 12:02:23;18.624;18.725
2018.11.28 12:02:25;18.649;18.750
2018.11.28 12:02:26;18.624;18.725
2018.11.28 12:03:01;18.649;18.750
2018.11.28 12:03:22;18.624;18.725
2018.11.28 12:03:25;18.649;18.750
2018.11.28 12:03:46;18.674;18.775
2018.11.28 12:07:49;18.649;18.750
2018.11.28 12:08:01;18.674;18.775
2018.11.28 12:08:07;18.649;18.750
2018.11.28 12:08:24;18.674;18.775
2018.11.28 12:08:56;18.649;18.750
2018.11.28 12:09:06;18.624;18.725
2018.11.28 12:11:18;18.674;18.775
2018.11.28 12:12:02;18.624;18.725
2018.11.28 12:13:06;18.674;18.775
2018.11.28 12:13:46;18.649;18.750
2018.11.28 12:13:57;18.674;18.775
2018.11.28 12:14:09;18.649;18.750
2018.11.28 12:14:10;18.674;18.775
2018.11.28 12:14:11;18.649;18.750
2018.11.28 12:14:39;18.674;18.775
2018.11.28 12:15:22;18.649;18.750
2018.11.28 12:15:22;18.674;18.775
2018.11.28 12:15:25;18.649;18.750
2018.11.28 12:15:37;18.674;18.775
2018.11.28 12:15:55;18.649;18.750
2018.11.28 12:16:00;18.674;18.775
2018.11.28 12:16:16;18.649;18.750
2018.11.28 12:16:37;18.674;18.775
2018.11.28 12:16:43;18.649;18.750
2018.11.28 12:16:50;18.624;18.725
2018.11.28 12:16:52;18.649;18.750
2018.11.28 12:16:58;18.674;18.775
2018.11.28 12:17:02;18.649;18.750
2018.11.28 12:17:06;18.624;18.725
2018.11.28 12:18:04;18.649;18.750
2018.11.28 12:18:10;18.674;18.775
2018.11.28 12:19:08;18.624;18.725
2018.11.28 12:19:18;18.649;18.750
2018.11.28 12:19:23;18.624;18.725
2018.11.28 12:20:28;18.649;18.750
2018.11.28 12:20:42;18.674;18.775
2018.11.28 12:20:43;18.649;18.750
2018.11.28 12:20:57;18.674;18.775
2018.11.28 12:20:58;18.649;18.750
2018.11.28 12:21:35;18.624;18.725
2018.11.28 12:21:35;18.649;18.750
2018.11.28 12:21:49;18.624;18.725
2018.11.28 12:21:50;18.649;18.750
2018.11.28 12:21:56;18.674;18.775
2018.11.28 12:21:58;18.649;18.750
2018.11.28 12:22:02;18.624;18.725
2018.11.28 12:22:22;18.649;18.750
2018.11.28 12:22:35;18.674;18.775
2018.11.28 12:22:37;18.649;18.750
2018.11.28 12:22:40;18.674;18.775
2018.11.28 12:24:18;18.649;18.750
2018.11.28 12:24:30;18.674;18.775
2018.11.28 12:27:06;18.649;18.750
2018.11.28 12:27:11;18.624;18.725
2018.11.28 12:27:11;18.649;18.750
2018.11.28 12:27:15;18.674;18.775
2018.11.28 12:27:17;18.624;18.725
2018.11.28 12:27:20;18.649;18.750
2018.11.28 12:27:25;18.624;18.725
2018.11.28 12:27:45;18.649;18.750
2018.11.28 12:27:45;18.674;18.775
2018.11.28 12:31:13;18.624;18.725
2018.11.28 12:31:13;18.674;18.775
2018.11.28 12:31:47;18.649;18.750
2018.11.28 12:31:49;18.624;18.725
2018.11.28 12:33:55;18.574;18.675
2018.11.28 12:33:59;18.599;18.700
2018.11.28 12:34:00;18.624;18.725
2018.11.28 12:34:01;18.599;18.700
2018.11.28 12:34:06;18.574;18.675
2018.11.28 12:41:12;18.549;18.650
2018.11.28 12:41:14;18.574;18.675
2018.11.28 12:41:55;18.524;18.625
2018.11.28 12:42:32;18.549;18.650
2018.11.28 12:42:34;18.574;18.675
2018.11.28 12:42:39;18.549;18.650
2018.11.28 12:42:40;18.524;18.625
2018.11.28 12:42:41;18.574;18.675
2018.11.28 12:42:42;18.549;18.650
2018.11.28 12:43:07;18.574;18.675
2018.11.28 12:43:07;18.549;18.650
2018.11.28 12:43:07;18.524;18.625
2018.11.28 12:43:10;18.574;18.675
2018.11.28 12:43:16;18.524;18.625
2018.11.28 12:43:43;18.549;18.650
2018.11.28 12:44:24;18.574;18.675
2018.11.28 12:44:31;18.549;18.650
2018.11.28 12:45:02;18.524;18.625
2018.11.28 12:46:06;18.549;18.650
2018.11.28 12:46:30;18.524;18.625
2018.11.28 12:48:02;18.549;18.650
2018.11.28 12:48:05;18.524;18.625
2018.11.28 12:48:16;18.549;18.650
2018.11.28 12:48:18;18.574;18.675
2018.11.28 12:48:19;18.549;18.650
2018.11.28 12:49:33;18.524;18.625
2018.11.28 12:51:00;18.574;18.675
2018.11.28 12:51:24;18.549;18.650
2018.11.28 12:52:08;18.574;18.675
2018.11.28 12:52:18;18.549;18.650
2018.11.28 12:52:38;18.524;18.625
2018.11.28 12:53:27;18.549;18.650
2018.11.28 12:53:47;18.524;18.625
2018.11.28 12:54:00;18.549;18.650
2018.11.28 12:54:02;18.574;18.675
2018.11.28 12:54:25;18.549;18.650
2018.11.28 12:54:56;18.574;18.675
2018.11.28 12:55:10;18.549;18.650
2018.11.28 12:55:13;18.574;18.675
2018.11.28 12:55:13;18.549;18.650
2018.11.28 12:55:21;18.524;18.625
2018.11.28 12:55:49;18.549;18.650
2018.11.28 12:55:59;18.524;18.625
2018.11.28 12:59:59;18.574;18.675
2018.11.28 13:00:00;18.524;18.625
2018.11.28 13:01:25;18.574;18.675
2018.11.28 13:01:26;18.549;18.650
2018.11.28 13:01:36;18.574;18.675
2018.11.28 13:01:57;18.524;18.625
2018.11.28 13:02:13;18.549;18.650
2018.11.28 13:03:06;18.524;18.625
2018.11.28 13:03:07;18.549;18.650
2018.11.28 13:03:10;18.574;18.675
2018.11.28 13:03:13;18.549;18.650
2018.11.28 13:03:16;18.524;18.625
2018.11.28 13:06:01;18.574;18.675
2018.11.28 13:06:02;18.549;18.650
2018.11.28 13:06:03;18.574;18.675
2018.11.28 13:06:04;18.549;18.650
2018.11.28 13:06:05;18.524;18.625
2018.11.28 13:06:12;18.549;18.650
2018.11.28 13:06:13;18.574;18.675
2018.11.28 13:06:15;18.549;18.650
2018.11.28 13:06:25;18.574;18.675
2018.11.28 13:06:27;18.549;18.650
2018.11.28 13:06:30;18.574;18.675
2018.11.28 13:06:32;18.549;18.650
2018.11.28 13:06:36;18.524;18.625
2018.11.28 13:08:10;18.549;18.650
2018.11.28 13:08:16;18.524;18.625
2018.11.28 13:08:43;18.549;18.650
2018.11.28 13:08:46;18.524;18.625
2018.11.28 13:08:46;18.549;18.650
2018.11.28 13:09:11;18.574;18.675
2018.11.28 13:09:24;18.524;18.625
2018.11.28 13:09:25;18.574;18.675
2018.11.28 13:09:27;18.549;18.650
2018.11.28 13:09:28;18.524;18.625
2018.11.28 13:14:02;18.549;18.650
2018.11.28 13:14:04;18.524;18.625
2018.11.28 13:18:13;18.574;18.675
2018.11.28 13:18:24;18.524;18.625
2018.11.28 13:23:02;18.574;18.675
2018.11.28 13:34:35;18.524;18.625
2018.11.28 13:35:38;18.549;18.650
2018.11.28 13:35:39;18.524;18.625
2018.11.28 13:43:12;18.499;18.600
2018.11.28 13:43:13;18.524;18.625
2018.11.28 13:43:19;18.474;18.575
2018.11.28 13:43:22;18.499;18.600
2018.11.28 13:43:29;18.524;18.625
2018.11.28 13:43:58;18.474;18.575
2018.11.28 13:44:19;18.524;18.625
2018.11.28 13:45:00;18.499;18.600
2018.11.28 13:45:14;18.524;18.625
2018.11.28 13:53:20;18.574;18.675
2018.11.28 13:54:51;18.524;18.625
2018.11.28 13:54:58;18.549;18.650
2018.11.28 13:55:01;18.524;18.625
2018.11.28 13:55:16;18.549;18.650
2018.11.28 13:55:19;18.524;18.625
2018.11.28 13:55:28;18.549;18.650
2018.11.28 13:55:55;18.574;18.675
2018.11.28 13:57:05;18.524;18.625
2018.11.28 13:59:32;18.499;18.600
2018.11.28 13:59:34;18.474;18.575
2018.11.28 14:00:00;18.484;18.565
2018.11.28 14:00:24;18.459;18.540
2018.11.28 14:00:25;18.484;18.565
2018.11.28 14:00:28;18.434;18.515
2018.11.28 14:02:28;18.459;18.540
2018.11.28 14:02:42;18.484;18.565
2018.11.28 14:03:47;18.459;18.540
2018.11.28 14:04:01;18.484;18.565
2018.11.28 14:07:39;18.509;18.590
2018.11.28 14:07:40;18.484;18.565
2018.11.28 14:14:10;18.509;18.590
2018.11.28 14:14:29;18.484;18.565
2018.11.28 14:14:34;18.509;18.590
2018.11.28 14:14:39;18.484;18.565
2018.11.28 14:15:27;18.534;18.615
2018.11.28 14:15:34;18.509;18.590
2018.11.28 14:15:39;18.534;18.615
2018.11.28 14:15:41;18.509;18.590
2018.11.28 14:15:43;18.484;18.565
2018.11.28 14:16:00;18.509;18.590
2018.11.28 14:16:25;18.484;18.565
2018.11.28 14:18:58;18.509;18.590
2018.11.28 14:19:00;18.534;18.615
2018.11.28 14:19:20;18.509;18.590
2018.11.28 14:19:37;18.534;18.615
2018.11.28 14:20:12;18.509;18.590
2018.11.28 14:20:13;18.484;18.565
2018.11.28 14:20:13;18.509;18.590
2018.11.28 14:20:22;18.484;18.565
2018.11.28 14:27:04;18.534;18.615
2018.11.28 14:27:12;18.484;18.565
2018.11.28 14:27:13;18.509;18.590
2018.11.28 14:27:15;18.484;18.565
2018.11.28 14:27:20;18.509;18.590
2018.11.28 14:27:22;18.484;18.565
2018.11.28 14:27:34;18.509;18.590
2018.11.28 14:27:37;18.484;18.565
2018.11.28 14:28:00;18.509;18.590
2018.11.28 14:28:02;18.484;18.565
2018.11.28 14:30:34;18.534;18.615
2018.11.28 14:30:36;18.509;18.590
2018.11.28 14:32:02;18.534;18.615
2018.11.28 14:32:03;18.509;18.590
2018.11.28 14:32:06;18.484;18.565
2018.11.28 14:32:07;18.509;18.590
2018.11.28 14:32:14;18.484;18.565
2018.11.28 14:34:36;18.509;18.590
2018.11.28 14:34:40;18.484;18.565
2018.11.28 14:37:54;18.434;18.515
2018.11.28 14:38:21;18.459;18.540
2018.11.28 14:38:21;18.484;18.565
2018.11.28 14:38:22;18.459;18.540
2018.11.28 14:38:23;18.434;18.515
2018.11.28 14:38:24;18.459;18.540
2018.11.28 14:38:25;18.434;18.515
2018.11.28 14:40:34;18.459;18.540
2018.11.28 14:40:42;18.434;18.515
2018.11.28 14:40:42;18.459;18.540
2018.11.28 14:40:54;18.434;18.515
2018.11.28 14:40:56;18.459;18.540
2018.11.28 14:40:56;18.434;18.515
2018.11.28 14:58:16;18.484;18.565
2018.11.28 14:59:33;18.459;18.540
2018.11.28 14:59:34;18.434;18.515
2018.11.28 15:00:21;18.459;18.540
2018.11.28 15:00:22;18.484;18.565
2018.11.28 15:03:22;18.434;18.515
2018.11.28 15:10:28;18.384;18.465
2018.11.28 15:10:28;18.434;18.515
2018.11.28 15:31:55;18.459;18.540
2018.11.28 15:32:00;18.434;18.515
2018.11.28 15:32:04;18.484;18.565
2018.11.28 15:32:06;18.459;18.540
2018.11.28 15:32:08;18.434;18.515
2018.11.28 15:35:40;18.459;18.540
2018.11.28 15:35:41;18.434;18.515
2018.11.28 15:35:49;18.484;18.565
2018.11.28 15:37:39;18.434;18.515
2018.11.28 15:37:46;18.459;18.540
2018.11.28 15:37:48;18.484;18.565
2018.11.28 15:39:25;18.434;18.515
2018.11.28 15:39:43;18.484;18.565
2018.11.28 15:41:11;18.459;18.540
2018.11.28 15:41:15;18.484;18.565
2018.11.28 15:41:16;18.434;18.515
2018.11.28 15:41:17;18.484;18.565
2018.11.28 15:41:24;18.459;18.540
2018.11.28 15:41:38;18.434;18.515
2018.11.28 15:42:10;18.484;18.565
2018.11.28 15:42:51;18.434;18.515
2018.11.28 15:45:57;18.459;18.540
2018.11.28 15:46:01;18.434;18.515
2018.11.28 15:46:39;18.459;18.540
2018.11.28 15:46:42;18.484;18.565
2018.11.28 15:46:51;18.459;18.540
2018.11.28 15:46:52;18.434;18.515
2018.11.28 15:54:27;18.459;18.540
2018.11.28 15:54:28;18.434;18.515
2018.11.28 15:54:30;18.459;18.540
2018.11.28 15:54:31;18.484;18.565
2018.11.28 15:54:32;18.459;18.540
2018.11.28 15:54:36;18.434;18.515
2018.11.28 15:54:37;18.459;18.540
2018.11.28 15:54:39;18.484;18.565
2018.11.28 15:54:52;18.434;18.515
2018.11.28 15:54:53;18.459;18.540
2018.11.28 15:54:57;18.434;18.515
2018.11.28 15:54:57;18.459;18.540
2018.11.28 15:54:58;18.484;18.565
2018.11.28 15:55:08;18.434;18.515
2018.11.28 15:55:10;18.484;18.565
2018.11.28 15:55:37;18.434;18.515
2018.11.28 15:55:38;18.459;18.540
2018.11.28 15:55:40;18.434;18.515
2018.11.28 15:55:40;18.459;18.540
2018.11.28 15:55:42;18.434;18.515
2018.11.28 15:55:43;18.459;18.540
2018.11.28 15:56:00;18.484;18.565
2018.11.28 15:57:28;18.459;18.540
2018.11.28 15:57:30;18.434;18.515
2018.11.28 15:59:07;18.484;18.565
2018.11.28 16:00:31;18.434;18.515
2018.11.28 16:04:14;18.459;18.540
2018.11.28 16:04:19;18.484;18.565
2018.11.28 16:04:22;18.434;18.515
2018.11.28 16:04:25;18.484;18.565
2018.11.28 16:04:26;18.459;18.540
2018.11.28 16:04:30;18.484;18.565
2018.11.28 16:04:31;18.459;18.540
2018.11.28 16:04:34;18.484;18.565
2018.11.28 16:04:41;18.434;18.515
2018.11.28 16:05:01;18.484;18.565
2018.11.28 16:06:00;18.509;18.590
2018.11.28 16:06:01;18.484;18.565
2018.11.28 16:15:56;18.509;18.590
2018.11.28 16:15:58;18.534;18.615
2018.11.28 16:16:03;18.509;18.590
2018.11.28 16:16:04;18.534;18.615
2018.11.28 16:16:10;18.484;18.565
2018.11.28 16:20:48;18.434;18.515
2018.11.28 16:22:36;18.384;18.465
2018.11.28 16:24:57;18.434;18.515
2018.11.28 16:27:05;18.384;18.465
2018.11.28 16:27:07;18.409;18.490
2018.11.28 16:27:10;18.434;18.515
2018.11.28 16:27:11;18.409;18.490
2018.11.28 16:27:11;18.434;18.515
2018.11.28 16:27:12;18.384;18.465
2018.11.28 16:28:04;18.434;18.515
2018.11.28 16:28:04;18.409;18.490
2018.11.28 16:28:05;18.384;18.465
2018.11.28 16:30:00;18.334;18.415
2018.11.28 16:30:01;18.384;18.465
2018.11.28 16:31:24;18.434;18.515
2018.11.28 16:31:24;18.409;18.490
2018.11.28 16:31:24;18.434;18.515
2018.11.28 16:35:23;18.384;18.465
2018.11.28 16:35:33;18.434;18.515
2018.11.28 16:36:14;18.384;18.465
2018.11.28 16:36:14;18.434;18.515
2018.11.28 16:36:32;18.484;18.565
2018.11.28 16:36:34;18.434;18.515
2018.11.28 16:37:21;18.384;18.465
2018.11.28 16:37:22;18.434;18.515
2018.11.28 16:37:22;18.384;18.465
2018.11.28 16:37:23;18.434;18.515
2018.11.28 16:37:30;18.384;18.465
2018.11.28 16:37:36;18.434;18.515
2018.11.28 16:39:07;18.384;18.465
2018.11.28 16:39:12;18.409;18.490
2018.11.28 16:39:12;18.434;18.515
2018.11.28 16:39:21;18.384;18.465
2018.11.28 16:39:25;18.434;18.515
2018.11.28 16:39:26;18.384;18.465
2018.11.28 16:39:26;18.434;18.515
2018.11.28 16:39:27;18.384;18.465
2018.11.28 16:39:30;18.434;18.515
2018.11.28 16:39:31;18.384;18.465
2018.11.28 16:39:33;18.434;18.515
2018.11.28 16:39:39;18.409;18.490
2018.11.28 16:39:39;18.434;18.515
2018.11.28 16:39:59;18.409;18.490
2018.11.28 16:39:59;18.434;18.515
2018.11.28 16:40:00;18.384;18.465
2018.11.28 16:40:01;18.409;18.490
2018.11.28 16:40:02;18.434;18.515
2018.11.28 16:40:02;18.384;18.465
2018.11.28 16:40:42;18.434;18.515
2018.11.28 16:41:04;18.484;18.565
2018.11.28 16:41:05;18.434;18.515
2018.11.28 16:41:30;18.484;18.565
2018.11.28 16:41:31;18.434;18.515
2018.11.28 16:41:33;18.484;18.565
2018.11.28 16:41:36;18.434;18.515
2018.11.28 16:41:54;18.459;18.540
2018.11.28 16:41:54;18.484;18.565
2018.11.28 16:41:55;18.434;18.515
2018.11.28 16:42:01;18.484;18.565
2018.11.28 16:42:05;18.459;18.540
2018.11.28 16:42:05;18.484;18.565
2018.11.28 16:42:15;18.434;18.515
2018.11.28 16:42:47;18.484;18.565
2018.11.28 16:42:51;18.434;18.515
2018.11.28 16:42:55;18.484;18.565
2018.11.28 16:42:56;18.459;18.540
2018.11.28 16:42:57;18.434;18.515
2018.11.28 16:43:26;18.484;18.565
2018.11.28 16:43:29;18.434;18.515
2018.11.28 16:43:40;18.484;18.565
2018.11.28 16:44:05;18.534;18.615
2018.11.28 16:44:07;18.484;18.565
2018.11.28 16:44:14;18.509;18.590
2018.11.28 16:44:14;18.534;18.615
2018.11.28 16:44:18;18.484;18.565
2018.11.28 16:44:19;18.534;18.615
2018.11.28 16:44:25;18.484;18.565
2018.11.28 16:44:26;18.534;18.615
2018.11.28 16:44:27;18.484;18.565
2018.11.28 16:44:31;18.534;18.615
2018.11.28 16:44:31;18.484;18.565
2018.11.28 16:44:34;18.534;18.615
2018.11.28 16:44:41;18.484;18.565
2018.11.28 16:44:47;18.534;18.615
2018.11.28 16:44:47;18.484;18.565
2018.11.28 16:45:52;18.534;18.615
2018.11.28 16:45:56;18.484;18.565
2018.11.28 16:46:02;18.534;18.615
2018.11.28 16:46:03;18.484;18.565
2018.11.28 16:46:04;18.534;18.615
2018.11.28 16:46:05;18.484;18.565
2018.11.28 16:46:05;18.534;18.615
2018.11.28 16:47:21;18.584;18.665
2018.11.28 16:47:22;18.534;18.615
2018.11.28 16:48:03;18.484;18.565
2018.11.28 16:48:50;18.434;18.515
2018.11.28 16:48:51;18.484;18.565
2018.11.28 16:49:51;18.534;18.615
2018.11.28 16:49:51;18.484;18.565
2018.11.28 16:49:56;18.509;18.590
2018.11.28 16:49:57;18.534;18.615
2018.11.28 16:50:14;18.484;18.565
2018.11.28 16:51:27;18.534;18.615
2018.11.28 16:51:43;18.484;18.565
2018.11.28 16:51:48;18.534;18.615
2018.11.28 16:51:49;18.509;18.590
2018.11.28 16:51:49;18.534;18.615
2018.11.28 16:51:59;18.484;18.565
2018.11.28 16:51:59;18.534;18.615
2018.11.28 16:52:01;18.484;18.565
2018.11.28 16:52:04;18.509;18.590
2018.11.28 16:52:06;18.484;18.565
2018.11.28 16:52:11;18.534;18.615
2018.11.28 16:54:10;18.484;18.565
2018.11.28 16:54:10;18.534;18.615
2018.11.28 16:54:22;18.584;18.665
2018.11.28 16:54:23;18.534;18.615
2018.11.28 16:54:23;18.559;18.640
2018.11.28 16:54:24;18.584;18.665
2018.11.28 16:54:24;18.534;18.615
2018.11.28 16:54:29;18.584;18.665
2018.11.28 16:54:32;18.534;18.615
2018.11.28 16:54:32;18.584;18.665
2018.11.28 16:54:41;18.534;18.615
2018.11.28 16:54:44;18.584;18.665
2018.11.28 16:54:48;18.559;18.640
2018.11.28 16:54:49;18.584;18.665
2018.11.28 16:54:50;18.534;18.615
2018.11.28 16:54:51;18.584;18.665
2018.11.28 16:54:57;18.534;18.615
2018.11.28 16:54:58;18.584;18.665
2018.11.28 16:54:58;18.534;18.615
2018.11.28 16:55:00;18.584;18.665
2018.11.28 16:55:01;18.559;18.640
2018.11.28 16:55:02;18.534;18.615
2018.11.28 16:55:48;18.559;18.640
2018.11.28 16:55:49;18.584;18.665
2018.11.28 16:56:09;18.534;18.615
2018.11.28 16:56:09;18.584;18.665
2018.11.28 16:56:12;18.534;18.615
2018.11.28 16:56:17;18.584;18.665
2018.11.28 16:56:21;18.534;18.615
2018.11.28 16:56:38;18.584;18.665
2018.11.28 16:56:45;18.534;18.615
2018.11.28 16:56:45;18.559;18.640
2018.11.28 16:56:47;18.534;18.615
2018.11.28 16:57:03;18.559;18.640
2018.11.28 16:57:03;18.534;18.615
2018.11.28 16:57:11;18.584;18.665
2018.11.28 16:57:41;18.534;18.615
2018.11.28 16:58:11;18.584;18.665
2018.11.28 16:58:23;18.534;18.615
2018.11.28 16:58:24;18.584;18.665
2018.11.28 16:58:25;18.534;18.615
2018.11.28 16:59:24;18.484;18.565
2018.11.28 16:59:25;18.534;18.615
2018.11.28 17:00:53;18.484;18.565
2018.11.28 17:01:00;18.534;18.615
2018.11.28 17:01:00;18.484;18.565
2018.11.28 17:01:02;18.534;18.615
2018.11.28 17:01:06;18.484;18.565
2018.11.28 17:01:07;18.534;18.615
2018.11.28 17:01:09;18.509;18.590
2018.11.28 17:01:10;18.534;18.615
2018.11.28 17:01:11;18.484;18.565
2018.11.28 17:01:57;18.534;18.615
2018.11.28 17:01:57;18.509;18.590
2018.11.28 17:01:58;18.484;18.565
2018.11.28 17:02:17;18.534;18.615
2018.11.28 17:02:17;18.484;18.565
2018.11.28 17:02:18;18.509;18.590
2018.11.28 17:02:18;18.484;18.565
2018.11.28 17:02:19;18.509;18.590
2018.11.28 17:02:19;18.484;18.565
2018.11.28 17:02:20;18.509;18.590
2018.11.28 17:02:20;18.534;18.615
2018.11.28 17:02:25;18.484;18.565
2018.11.28 17:02:25;18.509;18.590
2018.11.28 17:02:26;18.484;18.565
2018.11.28 17:02:28;18.509;18.590
2018.11.28 17:02:28;18.484;18.565
2018.11.28 17:03:13;18.534;18.615
2018.11.28 17:03:15;18.509;18.590
2018.11.28 17:03:15;18.484;18.565
2018.11.28 17:03:19;18.534;18.615
2018.11.28 17:03:25;18.509;18.590
2018.11.28 17:03:26;18.534;18.615
2018.11.28 17:03:32;18.484;18.565
2018.11.28 17:03:33;18.509;18.590
2018.11.28 17:03:33;18.534;18.615
2018.11.28 17:03:35;18.484;18.565
2018.11.28 17:04:09;18.534;18.615
2018.11.28 17:05:04;18.484;18.565
2018.11.28 17:05:04;18.534;18.615
2018.11.28 17:06:44;18.509;18.590
2018.11.28 17:06:45;18.534;18.615
2018.11.28 17:06:45;18.509;18.590
2018.11.28 17:06:46;18.534;18.615
2018.11.28 17:06:47;18.509;18.590
2018.11.28 17:06:48;18.534;18.615
2018.11.28 17:07:13;18.584;18.665
2018.11.28 17:07:14;18.534;18.615
2018.11.28 17:07:16;18.584;18.665
2018.11.28 17:09:13;18.634;18.715
2018.11.28 17:09:14;18.609;18.690
2018.11.28 17:09:14;18.634;18.715
2018.11.28 17:09:17;18.584;18.665
2018.11.28 17:09:18;18.634;18.715
2018.11.28 17:09:28;18.584;18.665
2018.11.28 17:10:04;18.634;18.715
2018.11.28 17:10:23;18.609;18.690
2018.11.28 17:10:23;18.634;18.715
2018.11.28 17:10:23;18.584;18.665
2018.11.28 17:10:26;18.634;18.715
2018.11.28 17:10:27;18.584;18.665
2018.11.28 17:10:29;18.634;18.715
2018.11.28 17:11:17;18.684;18.765
2018.11.28 17:11:25;18.634;18.715
2018.11.28 17:11:37;18.684;18.765
2018.11.28 17:11:37;18.634;18.715
2018.11.28 17:11:41;18.684;18.765
2018.11.28 17:11:49;18.634;18.715
2018.11.28 17:11:53;18.684;18.765
2018.11.28 17:11:53;18.634;18.715
2018.11.28 17:11:55;18.659;18.740
2018.11.28 17:11:56;18.634;18.715
2018.11.28 17:11:57;18.684;18.765
2018.11.28 17:11:58;18.659;18.740
2018.11.28 17:11:58;18.634;18.715
2018.11.28 17:12:00;18.659;18.740
2018.11.28 17:12:00;18.684;18.765
2018.11.28 17:12:05;18.659;18.740
2018.11.28 17:12:05;18.684;18.765
2018.11.28 17:12:07;18.634;18.715
2018.11.28 17:13:01;18.684;18.765
2018.11.28 17:13:01;18.634;18.715
2018.11.28 17:13:04;18.684;18.765
2018.11.28 17:13:04;18.634;18.715
2018.11.28 17:13:08;18.659;18.740
2018.11.28 17:13:08;18.684;18.765
2018.11.28 17:13:35;18.634;18.715
2018.11.28 17:13:38;18.684;18.765
2018.11.28 17:13:53;18.634;18.715
2018.11.28 17:13:59;18.684;18.765
2018.11.28 17:13:59;18.634;18.715
2018.11.28 17:14:23;18.684;18.765
2018.11.28 17:14:29;18.659;18.740
2018.11.28 17:14:30;18.634;18.715
2018.11.28 17:14:53;18.659;18.740
2018.11.28 17:14:54;18.684;18.765
2018.11.28 17:17:08;18.734;18.815
2018.11.28 17:17:08;18.684;18.765
2018.11.28 17:17:14;18.734;18.815
2018.11.28 17:17:17;18.684;18.765
2018.11.28 17:18:54;18.734;18.815
2018.11.28 17:18:59;18.684;18.765
2018.11.28 17:19:07;18.734;18.815
2018.11.28 17:19:08;18.684;18.765
2018.11.28 17:19:08;18.709;18.790
2018.11.28 17:19:09;18.684;18.765
2018.11.28 17:19:11;18.709;18.790
2018.11.28 17:19:12;18.734;18.815
2018.11.28 17:19:13;18.709;18.790
2018.11.28 17:19:14;18.684;18.765
2018.11.28 17:19:41;18.734;18.815
2018.11.28 17:19:42;18.684;18.765
2018.11.28 17:20:39;18.634;18.715
2018.11.28 17:20:40;18.659;18.740
2018.11.28 17:20:41;18.684;18.765
2018.11.28 17:20:43;18.634;18.715
2018.11.28 17:20:43;18.684;18.765
2018.11.28 17:20:43;18.634;18.715
2018.11.28 17:20:52;18.684;18.765
2018.11.28 17:23:12;18.734;18.815
2018.11.28 17:23:13;18.684;18.765
2018.11.28 17:23:24;18.734;18.815
2018.11.28 17:23:27;18.684;18.765
2018.11.28 17:23:28;18.734;18.815
2018.11.28 17:23:29;18.684;18.765
2018.11.28 17:23:45;18.734;18.815
2018.11.28 17:24:31;18.684;18.765
2018.11.28 17:27:30;18.734;18.815
2018.11.28 17:27:31;18.684;18.765
2018.11.28 17:27:32;18.734;18.815
2018.11.28 17:27:33;18.684;18.765
2018.11.28 17:27:39;18.709;18.790
2018.11.28 17:27:40;18.734;18.815
2018.11.28 17:27:41;18.684;18.765
2018.11.28 17:27:43;18.709;18.790
2018.11.28 17:27:44;18.684;18.765
2018.11.28 17:27:45;18.734;18.815
2018.11.28 17:27:45;18.684;18.765
2018.11.28 17:27:46;18.734;18.815
2018.11.28 17:28:03;18.684;18.765
2018.11.28 17:28:10;18.709;18.790
2018.11.28 17:28:10;18.684;18.765
2018.11.28 17:28:11;18.734;18.815
2018.11.28 17:28:39;18.684;18.765
2018.11.28 17:28:51;18.734;18.815
2018.11.28 17:29:01;18.684;18.765
2018.11.28 17:29:49;18.734;18.815
2018.11.28 17:29:54;18.684;18.765
2018.11.28 17:29:55;18.734;18.815
2018.11.28 17:29:57;18.709;18.790
2018.11.28 17:29:57;18.734;18.815
2018.11.28 17:30:03;18.684;18.765
2018.11.28 17:30:04;18.734;18.815
2018.11.28 17:30:04;18.684;18.765
2018.11.28 17:30:05;18.734;18.815
2018.11.28 17:30:09;18.784;18.865
2018.11.28 17:30:09;18.759;18.840
2018.11.28 17:30:10;18.784;18.865
2018.11.28 17:30:10;18.734;18.815
2018.11.28 17:30:15;18.784;18.865
2018.11.28 17:30:16;18.734;18.815
2018.11.28 17:30:22;18.784;18.865
2018.11.28 17:30:22;18.734;18.815
2018.11.28 17:30:31;18.784;18.865
2018.11.28 17:31:26;18.834;18.915
2018.11.28 17:31:27;18.784;18.865
2018.11.28 17:31:28;18.834;18.915
2018.11.28 17:31:28;18.784;18.865
2018.11.28 17:31:39;18.834;18.915
2018.11.28 17:31:39;18.784;18.865
2018.11.28 17:31:48;18.809;18.890
2018.11.28 17:31:49;18.784;18.865
2018.11.28 17:31:51;18.809;18.890
2018.11.28 17:31:51;18.784;18.865
2018.11.28 17:31:54;18.809;18.890
2018.11.28 17:31:54;18.834;18.915
2018.11.28 17:31:55;18.784;18.865
2018.11.28 17:31:56;18.834;18.915
2018.11.28 17:33:18;18.784;18.865
2018.11.28 17:33:19;18.834;18.915
2018.11.28 17:34:50;18.784;18.865
2018.11.28 17:35:55;18.734;18.815
2018.11.28 17:35:55;18.784;18.865
2018.11.28 17:36:31;18.734;18.815
2018.11.28 17:36:31;18.784;18.865
2018.11.28 17:36:36;18.759;18.840
2018.11.28 17:36:37;18.784;18.865
2018.11.28 17:36:47;18.759;18.840
2018.11.28 17:36:47;18.784;18.865
2018.11.28 17:36:48;18.734;18.815
2018.11.28 17:37:14;18.784;18.865
2018.11.28 17:39:14;18.834;18.915
2018.11.28 17:39:14;18.809;18.890
2018.11.28 17:39:15;18.784;18.865
2018.11.28 17:39:38;18.809;18.890
2018.11.28 17:39:38;18.834;18.915
2018.11.28 17:39:38;18.784;18.865
2018.11.28 17:39:40;18.834;18.915
2018.11.28 17:39:45;18.784;18.865
2018.11.28 17:40:07;18.834;18.915
2018.11.28 17:40:08;18.784;18.865
2018.11.28 17:40:09;18.809;18.890
2018.11.28 17:40:10;18.784;18.865
2018.11.28 17:40:14;18.834;18.915
2018.11.28 17:40:25;18.809;18.890
2018.11.28 17:40:25;18.834;18.915
2018.11.28 17:40:49;18.784;18.865
2018.11.28 17:40:53;18.809;18.890
2018.11.28 17:40:53;18.834;18.915
2018.11.28 17:40:57;18.784;18.865
2018.11.28 17:41:00;18.809;18.890
2018.11.28 17:41:00;18.834;18.915
2018.11.28 17:41:01;18.784;18.865
2018.11.28 17:41:29;18.734;18.815
2018.11.28 17:41:30;18.784;18.865
2018.11.28 17:42:09;18.834;18.915
2018.11.28 17:42:13;18.784;18.865
2018.11.28 17:42:14;18.834;18.915
2018.11.28 17:42:15;18.809;18.890
2018.11.28 17:42:15;18.784;18.865
2018.11.28 17:42:16;18.809;18.890
2018.11.28 17:42:17;18.784;18.865
2018.11.28 17:42:32;18.809;18.890
2018.11.28 17:42:33;18.834;18.915
2018.11.28 17:42:33;18.784;18.865
2018.11.28 17:42:53;18.734;18.815
2018.11.28 17:42:54;18.784;18.865
2018.11.28 17:43:34;18.834;18.915
2018.11.28 17:43:39;18.784;18.865
2018.11.28 17:44:24;18.834;18.915
2018.11.28 17:44:25;18.784;18.865
2018.11.28 17:44:59;18.834;18.915
2018.11.28 17:45:03;18.784;18.865
2018.11.28 17:45:04;18.834;18.915
2018.11.28 17:45:04;18.809;18.890
2018.11.28 17:45:05;18.784;18.865
2018.11.28 17:45:06;18.834;18.915
2018.11.28 17:46:05;18.784;18.865
2018.11.28 17:46:22;18.834;18.915
2018.11.28 17:46:22;18.809;18.890
2018.11.28 17:46:23;18.784;18.865
2018.11.28 17:46:24;18.809;18.890
2018.11.28 17:46:25;18.784;18.865
2018.11.28 17:47:21;18.759;18.840
2018.11.28 17:47:22;18.784;18.865
2018.11.28 17:47:22;18.759;18.840
2018.11.28 17:47:24;18.784;18.865
2018.11.28 17:47:24;18.734;18.815
2018.11.28 17:47:27;18.784;18.865
2018.11.28 17:47:27;18.759;18.840
2018.11.28 17:47:28;18.734;18.815
2018.11.28 17:47:41;18.759;18.840
2018.11.28 17:47:42;18.784;18.865
2018.11.28 17:47:42;18.759;18.840
2018.11.28 17:47:43;18.784;18.865
2018.11.28 17:47:44;18.734;18.815
2018.11.28 17:47:48;18.759;18.840
2018.11.28 17:47:49;18.784;18.865
2018.11.28 17:47:49;18.734;18.815
2018.11.28 17:48:47;18.784;18.865
2018.11.28 17:49:33;18.759;18.840
2018.11.28 17:49:33;18.734;18.815
2018.11.28 17:49:36;18.784;18.865
2018.11.28 17:49:37;18.759;18.840
2018.11.28 17:49:39;18.784;18.865
2018.11.28 17:49:42;18.759;18.840
2018.11.28 17:49:43;18.784;18.865
2018.11.28 17:49:44;18.734;18.815
2018.11.28 17:52:03;18.684;18.765
2018.11.28 17:53:27;18.734;18.815
2018.11.28 17:53:56;18.684;18.765
2018.11.28 17:53:56;18.734;18.815
2018.11.28 17:54:11;18.684;18.765
2018.11.28 17:56:37;18.734;18.815
2018.11.28 17:56:40;18.684;18.765
2018.11.28 17:56:40;18.734;18.815
2018.11.28 17:56:43;18.684;18.765
2018.11.28 17:56:45;18.734;18.815
2018.11.28 17:56:51;18.709;18.790
2018.11.28 17:56:53;18.684;18.765
2018.11.28 17:56:57;18.734;18.815
2018.11.28 17:57:03;18.684;18.765
2018.11.28 17:57:03;18.734;18.815
2018.11.28 17:57:04;18.684;18.765
2018.11.28 17:57:04;18.709;18.790
2018.11.28 17:57:05;18.684;18.765
2018.11.28 17:57:06;18.709;18.790
2018.11.28 17:57:06;18.684;18.765
2018.11.28 17:57:07;18.734;18.815
2018.11.28 17:57:08;18.684;18.765
2018.11.28 17:57:10;18.734;18.815
2018.11.28 17:57:11;18.709;18.790
2018.11.28 17:57:12;18.684;18.765
2018.11.28 17:57:18;18.734;18.815
2018.11.28 17:57:20;18.684;18.765
2018.11.28 17:57:27;18.734;18.815
2018.11.28 17:59:17;18.684;18.765
2018.11.28 17:59:18;18.734;18.815
2018.11.28 17:59:31;18.709;18.790
2018.11.28 17:59:32;18.734;18.815
2018.11.28 17:59:32;18.709;18.790
2018.11.28 17:59:33;18.684;18.765
2018.11.28 17:59:34;18.709;18.790
2018.11.28 17:59:34;18.684;18.765
2018.11.28 17:59:36;18.734;18.815
2018.11.28 17:59:59;18.684;18.765
2018.11.28 18:00:00;18.734;18.815
2018.11.28 18:00:00;18.684;18.765
2018.11.28 18:00:01;18.734;18.815
2018.11.28 18:00:04;18.709;18.790
2018.11.28 18:00:05;18.684;18.765
2018.11.28 18:00:41;18.634;18.715
2018.11.28 18:00:43;18.684;18.765
2018.11.28 18:06:03;18.734;18.815
2018.11.28 18:06:08;18.709;18.790
2018.11.28 18:06:09;18.684;18.765
2018.11.28 18:06:09;18.734;18.815
2018.11.28 18:06:10;18.709;18.790
2018.11.28 18:06:10;18.734;18.815
2018.11.28 18:06:14;18.684;18.765
2018.11.28 18:06:39;18.659;18.740
2018.11.28 18:06:40;18.684;18.765
2018.11.28 18:06:45;18.659;18.740
2018.11.28 18:06:49;18.634;18.715
2018.11.28 18:07:38;18.684;18.765
2018.11.28 18:07:40;18.659;18.740
2018.11.28 18:07:40;18.634;18.715
2018.11.28 18:07:44;18.659;18.740
2018.11.28 18:07:46;18.634;18.715
2018.11.28 18:08:05;18.609;18.690
2018.11.28 18:08:06;18.634;18.715
2018.11.28 18:08:09;18.584;18.665
2018.11.28 18:10:39;18.634;18.715
2018.11.28 18:10:41;18.584;18.665
2018.11.28 18:10:46;18.634;18.715
2018.11.28 18:10:49;18.609;18.690
2018.11.28 18:10:50;18.634;18.715
2018.11.28 18:10:51;18.584;18.665
2018.11.28 18:10:57;18.609;18.690
2018.11.28 18:10:57;18.634;18.715
2018.11.28 18:10:59;18.609;18.690
2018.11.28 18:10:59;18.584;18.665
2018.11.28 18:12:10;18.609;18.690
2018.11.28 18:12:10;18.584;18.665
2018.11.28 18:12:13;18.609;18.690
2018.11.28 18:12:13;18.584;18.665
2018.11.28 18:12:16;18.634;18.715
2018.11.28 18:12:17;18.609;18.690
2018.11.28 18:12:18;18.584;18.665
2018.11.28 18:12:19;18.609;18.690
2018.11.28 18:12:21;18.634;18.715
2018.11.28 18:12:21;18.609;18.690
2018.11.28 18:12:22;18.584;18.665
2018.11.28 18:12:23;18.609;18.690
2018.11.28 18:12:23;18.634;18.715
2018.11.28 18:12:26;18.609;18.690
2018.11.28 18:12:27;18.584;18.665
2018.11.28 18:12:27;18.634;18.715
2018.11.28 18:12:30;18.584;18.665
2018.11.28 18:12:30;18.634;18.715
2018.11.28 18:12:32;18.584;18.665
2018.11.28 18:12:38;18.634;18.715
2018.11.28 18:12:39;18.584;18.665
2018.11.28 18:13:40;18.634;18.715
2018.11.28 18:13:48;18.584;18.665
2018.11.28 18:15:17;18.609;18.690
2018.11.28 18:15:18;18.634;18.715
2018.11.28 18:17:08;18.684;18.765
2018.11.28 18:19:06;18.634;18.715
2018.11.28 18:21:28;18.659;18.740
2018.11.28 18:21:28;18.684;18.765
2018.11.28 18:22:04;18.634;18.715
2018.11.28 18:22:37;18.684;18.765
2018.11.28 18:22:38;18.659;18.740
2018.11.28 18:22:40;18.684;18.765
2018.11.28 18:22:42;18.634;18.715
2018.11.28 18:22:55;18.684;18.765
2018.11.28 18:24:36;18.709;18.790
2018.11.28 18:24:36;18.684;18.765
2018.11.28 18:24:41;18.709;18.790
2018.11.28 18:24:42;18.684;18.765
2018.11.28 18:24:44;18.709;18.790
2018.11.28 18:24:45;18.734;18.815
2018.11.28 18:24:46;18.684;18.765
2018.11.28 18:28:38;18.634;18.715
2018.11.28 18:31:18;18.609;18.690
2018.11.28 18:31:19;18.634;18.715
2018.11.28 18:32:05;18.609;18.690
2018.11.28 18:32:06;18.634;18.715
2018.11.28 18:32:07;18.584;18.665
2018.11.28 18:32:10;18.634;18.715
2018.11.28 18:32:32;18.584;18.665
2018.11.28 18:32:37;18.634;18.715
2018.11.28 18:33:03;18.584;18.665
2018.11.28 18:33:09;18.634;18.715
2018.11.28 18:33:10;18.584;18.665
2018.11.28 18:33:11;18.609;18.690
2018.11.28 18:33:11;18.584;18.665
2018.11.28 18:33:14;18.609;18.690
2018.11.28 18:33:16;18.584;18.665
2018.11.28 18:33:20;18.634;18.715
2018.11.28 18:35:50;18.659;18.740
2018.11.28 18:35:50;18.634;18.715
2018.11.28 18:35:51;18.684;18.765
2018.11.28 18:35:52;18.634;18.715
2018.11.28 18:36:23;18.684;18.765
2018.11.28 18:36:42;18.634;18.715
2018.11.28 18:39:29;18.684;18.765
2018.11.28 18:39:30;18.634;18.715
2018.11.28 18:39:31;18.659;18.740
2018.11.28 18:39:32;18.634;18.715
2018.11.28 18:39:34;18.659;18.740
2018.11.28 18:39:35;18.634;18.715
2018.11.28 18:40:18;18.684;18.765
2018.11.28 18:41:05;18.734;18.815
2018.11.28 18:41:06;18.684;18.765
2018.11.28 18:41:07;18.734;18.815
2018.11.28 18:41:07;18.684;18.765
2018.11.28 18:43:34;18.734;18.815
2018.11.28 18:43:38;18.684;18.765
2018.11.28 18:44:01;18.734;18.815
2018.11.28 18:44:01;18.709;18.790
2018.11.28 18:44:05;18.734;18.815
2018.11.28 18:44:25;18.684;18.765
2018.11.28 18:45:33;18.734;18.815
2018.11.28 18:45:34;18.684;18.765
2018.11.28 18:45:44;18.734;18.815
2018.11.28 18:45:45;18.684;18.765
2018.11.28 18:46:55;18.734;18.815
2018.11.28 18:46:56;18.684;18.765
2018.11.28 18:47:16;18.734;18.815
2018.11.28 18:47:20;18.684;18.765
2018.11.28 18:47:38;18.734;18.815
2018.11.28 18:47:39;18.684;18.765
2018.11.28 18:52:23;18.634;18.715
2018.11.28 18:52:42;18.584;18.665
2018.11.28 18:52:47;18.634;18.715
2018.11.28 18:52:48;18.584;18.665
2018.11.28 18:52:55;18.609;18.690
2018.11.28 18:52:56;18.584;18.665
2018.11.28 18:52:58;18.634;18.715
2018.11.28 18:52:58;18.584;18.665
2018.11.28 18:53:00;18.634;18.715
2018.11.28 18:54:00;18.684;18.765
2018.11.28 18:54:08;18.634;18.715
2018.11.28 18:54:24;18.684;18.765
2018.11.28 18:54:36;18.634;18.715
2018.11.28 18:54:37;18.684;18.765
2018.11.28 18:54:42;18.634;18.715
2018.11.28 18:54:43;18.684;18.765
2018.11.28 18:55:02;18.634;18.715
2018.11.28 18:56:24;18.684;18.765
2018.11.28 18:57:21;18.734;18.815
2018.11.28 18:58:02;18.684;18.765
2018.11.28 18:58:36;18.634;18.715
2018.11.28 18:58:38;18.684;18.765
2018.11.28 18:58:40;18.659;18.740
2018.11.28 18:58:42;18.634;18.715
2018.11.28 18:58:45;18.684;18.765
2018.11.28 18:59:13;18.634;18.715
2018.11.28 18:59:36;18.684;18.765
2018.11.28 18:59:38;18.659;18.740
2018.11.28 18:59:40;18.684;18.765
2018.11.28 18:59:40;18.659;18.740
2018.11.28 18:59:41;18.634;18.715
2018.11.28 18:59:42;18.684;18.765
2018.11.28 18:59:43;18.659;18.740
2018.11.28 18:59:44;18.634;18.715
2018.11.28 18:59:48;18.684;18.765
2018.11.28 19:00:00;18.634;18.715
2018.11.28 19:00:08;18.584;18.665
2018.11.28 19:00:09;18.534;18.615
2018.11.28 19:00:11;18.584;18.665
2018.11.28 19:00:13;18.534;18.615
2018.11.28 19:00:13;18.584;18.665
2018.11.28 19:00:14;18.559;18.640
2018.11.28 19:00:14;18.584;18.665
2018.11.28 19:00:18;18.634;18.715
2018.11.28 19:00:18;18.584;18.665
2018.11.28 19:00:19;18.534;18.615
2018.11.28 19:00:21;18.584;18.665
2018.11.28 19:00:21;18.534;18.615
2018.11.28 19:00:23;18.584;18.665
2018.11.28 19:00:28;18.534;18.615
2018.11.28 19:00:46;18.484;18.565
2018.11.28 19:00:47;18.534;18.615
2018.11.28 19:00:48;18.484;18.565
2018.11.28 19:00:48;18.509;18.590
2018.11.28 19:00:48;18.484;18.565
2018.11.28 19:01:01;18.434;18.515
2018.11.28 19:01:03;18.484;18.565
2018.11.28 19:01:47;18.434;18.515
2018.11.28 19:01:55;18.484;18.565
2018.11.28 19:01:56;18.434;18.515
2018.11.28 19:02:20;18.384;18.465
2018.11.28 19:02:21;18.434;18.515
2018.11.28 19:02:24;18.384;18.465
2018.11.28 19:02:34;18.434;18.515
2018.11.28 19:02:35;18.384;18.465
2018.11.28 19:03:24;18.334;18.415
2018.11.28 19:03:24;18.384;18.465
2018.11.28 19:03:27;18.334;18.415
2018.11.28 19:03:31;18.384;18.465
2018.11.28 19:03:32;18.359;18.440
2018.11.28 19:03:33;18.384;18.465
2018.11.28 19:03:36;18.334;18.415
2018.11.28 19:04:04;18.284;18.365
2018.11.28 19:04:05;18.334;18.415
2018.11.28 19:04:07;18.284;18.365
2018.11.28 19:04:09;18.334;18.415
2018.11.28 19:04:12;18.284;18.365
2018.11.28 19:04:12;18.334;18.415
2018.11.28 19:04:13;18.284;18.365
2018.11.28 19:04:31;18.259;18.340
2018.11.28 19:04:31;18.284;18.365
2018.11.28 19:04:33;18.234;18.315
2018.11.28 19:04:34;18.284;18.365
2018.11.28 19:04:36;18.234;18.315
2018.11.28 19:04:41;18.284;18.365
2018.11.28 19:05:07;18.234;18.315
2018.11.28 19:05:30;18.184;18.265
2018.11.28 19:05:43;18.134;18.215
2018.11.28 19:05:44;18.184;18.265
2018.11.28 19:05:47;18.134;18.215
2018.11.28 19:05:48;18.184;18.265
2018.11.28 19:05:57;18.234;18.315
2018.11.28 19:06:01;18.184;18.265
2018.11.28 19:06:04;18.234;18.315
2018.11.28 19:06:33;18.284;18.365
2018.11.28 19:06:58;18.234;18.315
2018.11.28 19:07:09;18.284;18.365
2018.11.28 19:07:10;18.234;18.315
2018.11.28 19:07:11;18.284;18.365
2018.11.28 19:07:12;18.234;18.315
2018.11.28 19:07:13;18.284;18.365
2018.11.28 19:07:15;18.259;18.340
2018.11.28 19:07:15;18.234;18.315
2018.11.28 19:07:16;18.284;18.365
2018.11.28 19:07:19;18.234;18.315
2018.11.28 19:07:25;18.284;18.365
2018.11.28 19:07:40;18.234;18.315
2018.11.28 19:07:40;18.284;18.365
2018.11.28 19:07:42;18.259;18.340
2018.11.28 19:07:42;18.284;18.365
2018.11.28 19:07:43;18.234;18.315
2018.11.28 19:08:10;18.184;18.265
2018.11.28 19:08:11;18.234;18.315
2018.11.28 19:08:11;18.184;18.265
2018.11.28 19:08:15;18.209;18.290
2018.11.28 19:08:16;18.234;18.315
2018.11.28 19:08:16;18.184;18.265
2018.11.28 19:08:20;18.234;18.315
2018.11.28 19:08:47;18.184;18.265
2018.11.28 19:08:48;18.234;18.315
2018.11.28 19:08:49;18.184;18.265
2018.11.28 19:09:08;18.234;18.315
2018.11.28 19:09:09;18.184;18.265
2018.11.28 19:09:26;18.134;18.215
2018.11.28 19:10:25;18.159;18.240
2018.11.28 19:10:25;18.134;18.215
2018.11.28 19:10:26;18.159;18.240
2018.11.28 19:10:26;18.134;18.215
2018.11.28 19:10:31;18.184;18.265
2018.11.28 19:10:38;18.134;18.215
2018.11.28 19:10:39;18.184;18.265
2018.11.28 19:11:21;18.234;18.315
2018.11.28 19:11:37;18.284;18.365
2018.11.28 19:11:37;18.234;18.315
2018.11.28 19:12:09;18.284;18.365
2018.11.28 19:12:10;18.234;18.315
2018.11.28 19:12:12;18.284;18.365
2018.11.28 19:12:21;18.234;18.315
2018.11.28 19:12:28;18.259;18.340
2018.11.28 19:12:28;18.234;18.315
2018.11.28 19:12:37;18.259;18.340
2018.11.28 19:12:37;18.234;18.315
2018.11.28 19:12:39;18.259;18.340
2018.11.28 19:12:40;18.234;18.315
2018.11.28 19:12:45;18.259;18.340
2018.11.28 19:12:46;18.234;18.315
2018.11.28 19:12:49;18.284;18.365
2018.11.28 19:12:50;18.234;18.315
2018.11.28 19:12:51;18.284;18.365
2018.11.28 19:13:00;18.259;18.340
2018.11.28 19:13:01;18.284;18.365
2018.11.28 19:13:02;18.234;18.315
2018.11.28 19:13:02;18.284;18.365
2018.11.28 19:13:05;18.234;18.315
2018.11.28 19:13:05;18.284;18.365
2018.11.28 19:13:06;18.234;18.315
2018.11.28 19:13:23;18.184;18.265
2018.11.28 19:13:26;18.234;18.315
2018.11.28 19:13:27;18.184;18.265
2018.11.28 19:13:30;18.234;18.315
2018.11.28 19:13:30;18.184;18.265
2018.11.28 19:13:48;18.209;18.290
2018.11.28 19:13:49;18.184;18.265
2018.11.28 19:14:04;18.134;18.215
2018.11.28 19:14:04;18.184;18.265
2018.11.28 19:14:05;18.134;18.215
2018.11.28 19:14:06;18.184;18.265
2018.11.28 19:14:08;18.134;18.215
2018.11.28 19:14:09;18.184;18.265
2018.11.28 19:14:09;18.134;18.215
2018.11.28 19:14:10;18.184;18.265
2018.11.28 19:14:19;18.134;18.215
2018.11.28 19:14:20;18.184;18.265
2018.11.28 19:14:34;18.159;18.240
2018.11.28 19:14:35;18.134;18.215
2018.11.28 19:14:35;18.184;18.265
2018.11.28 19:14:37;18.134;18.215
2018.11.28 19:15:19;18.084;18.165
2018.11.28 19:15:20;18.109;18.190
2018.11.28 19:15:21;18.134;18.215
2018.11.28 19:15:27;18.084;18.165
2018.11.28 19:15:35;18.134;18.215
2018.11.28 19:16:01;18.184;18.265
2018.11.28 19:16:02;18.134;18.215
2018.11.28 19:16:17;18.184;18.265
2018.11.28 19:16:49;18.159;18.240
2018.11.28 19:16:49;18.184;18.265
2018.11.28 19:16:50;18.134;18.215
2018.11.28 19:17:26;18.184;18.265
2018.11.28 19:17:41;18.134;18.215
2018.11.28 19:17:41;18.184;18.265
2018.11.28 19:17:42;18.134;18.215
2018.11.28 19:17:45;18.184;18.265
2018.11.28 19:17:47;18.134;18.215
2018.11.28 19:17:54;18.184;18.265
2018.11.28 19:17:56;18.134;18.215
2018.11.28 19:17:57;18.184;18.265
2018.11.28 19:18:00;18.134;18.215
2018.11.28 19:18:17;18.184;18.265
2018.11.28 19:18:18;18.159;18.240
2018.11.28 19:18:19;18.134;18.215
2018.11.28 19:18:20;18.184;18.265
2018.11.28 19:18:25;18.134;18.215
2018.11.28 19:18:28;18.184;18.265
2018.11.28 19:20:12;18.134;18.215
2018.11.28 19:20:14;18.184;18.265
2018.11.28 19:20:33;18.134;18.215
2018.11.28 19:20:34;18.184;18.265
2018.11.28 19:20:35;18.159;18.240
2018.11.28 19:20:36;18.134;18.215
2018.11.28 19:20:38;18.184;18.265
2018.11.28 19:20:41;18.134;18.215
2018.11.28 19:20:41;18.184;18.265
2018.11.28 19:20:45;18.134;18.215
2018.11.28 19:20:56;18.184;18.265
2018.11.28 19:21:01;18.134;18.215
2018.11.28 19:21:06;18.184;18.265
2018.11.28 19:21:24;18.134;18.215
2018.11.28 19:21:25;18.184;18.265
2018.11.28 19:21:33;18.134;18.215
2018.11.28 19:21:35;18.184;18.265
2018.11.28 19:21:41;18.134;18.215
2018.11.28 19:22:47;18.184;18.265
2018.11.28 19:22:50;18.159;18.240
2018.11.28 19:22:50;18.184;18.265
2018.11.28 19:23:02;18.134;18.215
2018.11.28 19:23:21;18.184;18.265
2018.11.28 19:23:23;18.134;18.215
2018.11.28 19:23:30;18.184;18.265
2018.11.28 19:23:33;18.134;18.215
2018.11.28 19:23:34;18.184;18.265
2018.11.28 19:23:35;18.134;18.215
2018.11.28 19:23:35;18.184;18.265
2018.11.28 19:23:38;18.134;18.215
2018.11.28 19:23:39;18.184;18.265
2018.11.28 19:23:39;18.134;18.215
2018.11.28 19:23:44;18.184;18.265
2018.11.28 19:23:44;18.134;18.215
2018.11.28 19:24:10;18.184;18.265
2018.11.28 19:24:14;18.159;18.240
2018.11.28 19:24:16;18.134;18.215
2018.11.28 19:25:14;18.184;18.265
2018.11.28 19:25:44;18.134;18.215
2018.11.28 19:25:44;18.184;18.265
2018.11.28 19:25:46;18.134;18.215
2018.11.28 19:25:47;18.184;18.265
2018.11.28 19:25:48;18.134;18.215
2018.11.28 19:25:52;18.184;18.265
2018.11.28 19:25:53;18.134;18.215
2018.11.28 19:25:54;18.159;18.240
2018.11.28 19:25:55;18.184;18.265
2018.11.28 19:25:56;18.134;18.215
2018.11.28 19:25:56;18.159;18.240
2018.11.28 19:25:57;18.184;18.265
2018.11.28 19:25:58;18.134;18.215
2018.11.28 19:26:04;18.184;18.265
2018.11.28 19:26:06;18.134;18.215
2018.11.28 19:26:24;18.184;18.265
2018.11.28 19:26:29;18.134;18.215
2018.11.28 19:27:00;18.159;18.240
2018.11.28 19:27:01;18.184;18.265
2018.11.28 19:27:02;18.134;18.215
2018.11.28 19:27:16;18.084;18.165
2018.11.28 19:27:19;18.134;18.215
2018.11.28 19:27:57;18.084;18.165
2018.11.28 19:27:59;18.109;18.190
2018.11.28 19:28:00;18.084;18.165
2018.11.28 19:28:28;18.059;18.140
2018.11.28 19:28:29;18.034;18.115
2018.11.28 19:28:31;18.084;18.165
2018.11.28 19:28:32;18.034;18.115
2018.11.28 19:29:01;18.009;18.090
2018.11.28 19:29:01;18.034;18.115
2018.11.28 19:29:07;17.984;18.065
2018.11.28 19:29:44;18.034;18.115
2018.11.28 19:29:48;17.984;18.065
2018.11.28 19:29:59;18.009;18.090
2018.11.28 19:30:00;17.984;18.065
2018.11.28 19:30:31;18.034;18.115
2018.11.28 19:30:47;18.084;18.165
2018.11.28 19:30:54;18.034;18.115
2018.11.28 19:30:55;18.084;18.165
2018.11.28 19:30:57;18.059;18.140
2018.11.28 19:30:57;18.034;18.115
2018.11.28 19:30:59;18.084;18.165
2018.11.28 19:31:01;18.034;18.115
2018.11.28 19:31:02;18.084;18.165
2018.11.28 19:31:02;18.034;18.115
2018.11.28 19:31:06;18.059;18.140
2018.11.28 19:31:06;18.084;18.165
2018.11.28 19:31:07;18.059;18.140
2018.11.28 19:31:08;18.084;18.165
2018.11.28 19:31:12;18.034;18.115
2018.11.28 19:31:13;18.084;18.165
2018.11.28 19:31:25;18.034;18.115
2018.11.28 19:31:27;18.059;18.140
2018.11.28 19:31:28;18.084;18.165
2018.11.28 19:31:29;18.034;18.115
2018.11.28 19:31:31;18.084;18.165
2018.11.28 19:31:31;18.059;18.140
2018.11.28 19:31:32;18.084;18.165
2018.11.28 19:31:32;18.034;18.115
2018.11.28 19:32:04;17.984;18.065
2018.11.28 19:32:05;18.034;18.115
2018.11.28 19:32:06;17.984;18.065
2018.11.28 19:32:09;18.034;18.115
2018.11.28 19:32:10;17.984;18.065
2018.11.28 19:32:12;18.034;18.115
2018.11.28 19:32:18;17.984;18.065
2018.11.28 19:32:32;18.034;18.115
2018.11.28 19:32:32;17.984;18.065
2018.11.28 19:32:33;18.034;18.115
2018.11.28 19:32:34;18.009;18.090
2018.11.28 19:32:34;17.984;18.065
2018.11.28 19:32:38;18.034;18.115
2018.11.28 19:33:14;18.059;18.140
2018.11.28 19:33:15;18.034;18.115
2018.11.28 19:33:17;18.059;18.140
2018.11.28 19:33:17;18.034;18.115
2018.11.28 19:33:19;18.084;18.165
2018.11.28 19:33:20;18.034;18.115
2018.11.28 19:33:21;18.084;18.165
2018.11.28 19:33:31;18.034;18.115
2018.11.28 19:33:32;18.084;18.165
2018.11.28 19:33:33;18.034;18.115
2018.11.28 19:33:34;18.084;18.165
2018.11.28 19:33:36;18.059;18.140
2018.11.28 19:33:37;18.084;18.165
2018.11.28 19:33:38;18.059;18.140
2018.11.28 19:33:39;18.084;18.165
2018.11.28 19:33:40;18.034;18.115
2018.11.28 19:33:43;18.059;18.140
2018.11.28 19:33:44;18.084;18.165
2018.11.28 19:33:45;18.059;18.140
2018.11.28 19:33:46;18.084;18.165
2018.11.28 19:33:48;18.059;18.140
2018.11.28 19:33:48;18.034;18.115
2018.11.28 19:33:49;18.084;18.165
2018.11.28 19:33:50;18.059;18.140
2018.11.28 19:33:50;18.034;18.115
2018.11.28 19:33:55;18.059;18.140
2018.11.28 19:33:55;18.084;18.165
2018.11.28 19:33:57;18.059;18.140
2018.11.28 19:33:58;18.084;18.165
2018.11.28 19:34:02;18.034;18.115
2018.11.28 19:34:08;18.084;18.165
2018.11.28 19:35:15;18.134;18.215
2018.11.28 19:35:16;18.084;18.165
2018.11.28 19:35:36;18.134;18.215
2018.11.28 19:35:37;18.084;18.165
2018.11.28 19:35:49;18.134;18.215
2018.11.28 19:35:50;18.109;18.190
2018.11.28 19:35:50;18.084;18.165
2018.11.28 19:35:51;18.134;18.215
2018.11.28 19:35:53;18.084;18.165
2018.11.28 19:35:53;18.134;18.215
2018.11.28 19:36:15;18.184;18.265
2018.11.28 19:36:16;18.134;18.215
2018.11.28 19:37:14;18.084;18.165
2018.11.28 19:37:15;18.134;18.215
2018.11.28 19:37:15;18.084;18.165
2018.11.28 19:37:17;18.134;18.215
2018.11.28 19:37:24;18.109;18.190
2018.11.28 19:37:24;18.134;18.215
2018.11.28 19:39:00;18.184;18.265
2018.11.28 19:39:00;18.134;18.215
2018.11.28 19:39:01;18.159;18.240
2018.11.28 19:39:02;18.134;18.215
2018.11.28 19:39:02;18.159;18.240
2018.11.28 19:39:03;18.134;18.215
2018.11.28 19:39:16;18.084;18.165
2018.11.28 19:39:20;18.109;18.190
2018.11.28 19:39:20;18.084;18.165
2018.11.28 19:39:21;18.134;18.215
2018.11.28 19:39:22;18.084;18.165
2018.11.28 19:39:22;18.109;18.190
2018.11.28 19:39:23;18.084;18.165
2018.11.28 19:39:56;18.034;18.115
2018.11.28 19:39:57;18.084;18.165
2018.11.28 19:40:21;18.134;18.215
2018.11.28 19:40:22;18.109;18.190
2018.11.28 19:40:22;18.084;18.165
2018.11.28 19:40:24;18.109;18.190
2018.11.28 19:40:26;18.134;18.215
2018.11.28 19:41:24;18.184;18.265
2018.11.28 19:41:25;18.134;18.215
2018.11.28 19:41:38;18.159;18.240
2018.11.28 19:41:38;18.134;18.215
2018.11.28 19:41:54;18.159;18.240
2018.11.28 19:41:56;18.134;18.215
2018.11.28 19:42:07;18.084;18.165
2018.11.28 19:42:11;18.109;18.190
2018.11.28 19:42:12;18.134;18.215
2018.11.28 19:42:15;18.084;18.165
2018.11.28 19:42:16;18.109;18.190
2018.11.28 19:42:17;18.084;18.165
2018.11.28 19:42:23;18.109;18.190
2018.11.28 19:42:24;18.084;18.165
2018.11.28 19:42:54;18.134;18.215
2018.11.28 19:42:56;18.109;18.190
2018.11.28 19:42:57;18.134;18.215
2018.11.28 19:43:01;18.109;18.190
2018.11.28 19:43:01;18.084;18.165
2018.11.28 19:43:03;18.109;18.190
2018.11.28 19:43:03;18.084;18.165
2018.11.28 19:43:06;18.134;18.215
2018.11.28 19:43:07;18.084;18.165
2018.11.28 19:43:07;18.134;18.215
2018.11.28 19:43:08;18.084;18.165
2018.11.28 19:43:11;18.134;18.215
2018.11.28 19:43:19;18.084;18.165
2018.11.28 19:43:19;18.134;18.215
2018.11.28 19:43:26;18.109;18.190
2018.11.28 19:43:26;18.084;18.165
2018.11.28 19:45:08;18.034;18.115
2018.11.28 19:45:21;18.084;18.165
2018.11.28 19:45:22;18.059;18.140
2018.11.28 19:45:22;18.084;18.165
2018.11.28 19:45:23;18.059;18.140
2018.11.28 19:45:24;18.034;18.115
2018.11.28 19:45:25;18.084;18.165
2018.11.28 19:45:28;18.034;18.115
2018.11.28 19:45:29;18.059;18.140
2018.11.28 19:45:30;18.034;18.115
2018.11.28 19:45:34;18.084;18.165
2018.11.28 19:45:35;18.059;18.140
2018.11.28 19:45:36;18.084;18.165
2018.11.28 19:45:37;18.059;18.140
2018.11.28 19:45:38;18.034;18.115
2018.11.28 19:45:48;18.084;18.165
2018.11.28 19:45:49;18.059;18.140
2018.11.28 19:45:51;18.034;18.115
2018.11.28 19:45:52;18.084;18.165
2018.11.28 19:45:52;18.034;18.115
2018.11.28 19:45:55;18.084;18.165
2018.11.28 19:45:56;18.034;18.115
2018.11.28 19:46:02;18.059;18.140
2018.11.28 19:46:03;18.084;18.165
2018.11.28 19:46:10;18.034;18.115
2018.11.28 19:46:44;18.084;18.165
2018.11.28 19:47:09;18.034;18.115
2018.11.28 19:47:09;18.084;18.165
2018.11.28 19:47:11;18.034;18.115
2018.11.28 19:47:12;18.084;18.165
2018.11.28 19:47:16;18.059;18.140
2018.11.28 19:47:17;18.034;18.115
2018.11.28 19:47:19;18.084;18.165
2018.11.28 19:47:20;18.034;18.115
2018.11.28 19:48:36;18.084;18.165
2018.11.28 19:48:36;18.059;18.140
2018.11.28 19:48:37;18.034;18.115
2018.11.28 19:48:37;18.084;18.165
2018.11.28 19:48:38;18.034;18.115
2018.11.28 19:48:42;18.084;18.165
2018.11.28 19:48:42;18.059;18.140
2018.11.28 19:48:43;18.084;18.165
2018.11.28 19:49:15;18.059;18.140
2018.11.28 19:49:16;18.084;18.165
2018.11.28 19:49:29;18.034;18.115
2018.11.28 19:49:36;18.084;18.165
2018.11.28 19:50:32;18.034;18.115
2018.11.28 19:50:52;18.084;18.165
2018.11.28 19:51:37;18.034;18.115
2018.11.28 19:52:06;18.084;18.165
2018.11.28 19:52:07;18.059;18.140
2018.11.28 19:52:07;18.084;18.165
2018.11.28 19:52:12;18.034;18.115
2018.11.28 19:52:12;18.059;18.140
2018.11.28 19:52:13;18.084;18.165
2018.11.28 19:52:19;18.034;18.115
2018.11.28 19:52:25;18.084;18.165
2018.11.28 19:52:28;18.034;18.115
2018.11.28 19:52:32;18.084;18.165
2018.11.28 19:52:47;18.034;18.115
2018.11.28 19:52:54;18.084;18.165
2018.11.28 19:53:04;18.034;18.115
2018.11.28 19:53:05;18.084;18.165
2018.11.28 19:53:05;18.034;18.115
2018.11.28 19:53:50;18.084;18.165
2018.11.28 19:53:51;18.059;18.140
2018.11.28 19:53:52;18.084;18.165
2018.11.28 19:53:53;18.034;18.115
2018.11.28 19:53:56;18.084;18.165
2018.11.28 19:53:56;18.059;18.140
2018.11.28 19:53:57;18.034;18.115
2018.11.28 19:53:58;18.084;18.165
2018.11.28 19:54:07;18.034;18.115
2018.11.28 19:54:07;18.084;18.165
2018.11.28 19:54:08;18.059;18.140
2018.11.28 19:54:08;18.084;18.165
2018.11.28 19:54:14;18.059;18.140
2018.11.28 19:54:15;18.084;18.165
2018.11.28 19:54:16;18.034;18.115
2018.11.28 19:55:15;18.084;18.165
2018.11.28 19:55:17;18.034;18.115
2018.11.28 19:55:51;18.059;18.140
2018.11.28 19:55:52;18.084;18.165
2018.11.28 19:56:11;18.059;18.140
2018.11.28 19:56:11;18.034;18.115
2018.11.28 19:56:16;18.084;18.165
2018.11.28 19:56:24;18.034;18.115
2018.11.28 19:57:00;18.084;18.165
2018.11.28 19:57:08;18.034;18.115
2018.11.28 19:57:51;18.084;18.165
2018.11.28 19:58:00;18.034;18.115
2018.11.28 19:58:04;18.084;18.165
2018.11.28 19:58:06;18.034;18.115
2018.11.28 19:58:22;18.084;18.165
2018.11.28 19:58:24;18.034;18.115
2018.11.28 19:58:29;18.084;18.165
2018.11.28 19:58:30;18.034;18.115
2018.11.28 19:58:34;18.084;18.165
2018.11.28 19:58:55;18.134;18.215
2018.11.28 19:58:56;18.084;18.165
2018.11.28 19:59:38;18.134;18.215
2018.11.28 19:59:39;18.084;18.165
2018.11.28 20:00:20;18.134;18.215
2018.11.28 20:00:21;18.084;18.165
2018.11.28 20:00:25;18.109;18.190
2018.11.28 20:00:26;18.134;18.215
2018.11.28 20:00:42;18.184;18.265
2018.11.28 20:00:42;18.134;18.215
2018.11.28 20:01:24;18.084;18.165
2018.11.28 20:01:25;18.134;18.215
2018.11.28 20:01:49;18.184;18.265
2018.11.28 20:01:50;18.134;18.215
2018.11.28 20:02:53;18.184;18.265
2018.11.28 20:02:55;18.159;18.240
2018.11.28 20:02:56;18.134;18.215
2018.11.28 20:03:05;18.159;18.240
2018.11.28 20:03:05;18.184;18.265
2018.11.28 20:03:13;18.134;18.215
2018.11.28 20:03:17;18.184;18.265
2018.11.28 20:03:17;18.134;18.215
2018.11.28 20:03:18;18.184;18.265
2018.11.28 20:03:19;18.134;18.215
2018.11.28 20:03:20;18.184;18.265
2018.11.28 20:03:21;18.159;18.240
2018.11.28 20:03:24;18.184;18.265
2018.11.28 20:03:24;18.159;18.240
2018.11.28 20:03:25;18.134;18.215
2018.11.28 20:03:25;18.184;18.265
2018.11.28 20:03:28;18.159;18.240
2018.11.28 20:03:29;18.184;18.265
2018.11.28 20:03:31;18.134;18.215
2018.11.28 20:03:33;18.159;18.240
2018.11.28 20:03:33;18.134;18.215
2018.11.28 20:03:35;18.184;18.265
2018.11.28 20:03:36;18.159;18.240
2018.11.28 20:03:37;18.134;18.215
2018.11.28 20:03:37;18.184;18.265
2018.11.28 20:03:38;18.159;18.240
2018.11.28 20:03:38;18.134;18.215
2018.11.28 20:03:40;18.184;18.265
2018.11.28 20:03:50;18.159;18.240
2018.11.28 20:03:51;18.134;18.215
2018.11.28 20:03:55;18.184;18.265
2018.11.28 20:03:55;18.134;18.215
2018.11.28 20:03:56;18.159;18.240
2018.11.28 20:03:59;18.184;18.265
2018.11.28 20:04:03;18.134;18.215
2018.11.28 20:04:06;18.184;18.265
2018.11.28 20:04:07;18.134;18.215
2018.11.28 20:04:10;18.159;18.240
2018.11.28 20:04:11;18.184;18.265
2018.11.28 20:04:13;18.134;18.215
2018.11.28 20:04:15;18.159;18.240
2018.11.28 20:04:15;18.134;18.215
2018.11.28 20:04:27;18.184;18.265
2018.11.28 20:04:28;18.134;18.215
2018.11.28 20:04:30;18.159;18.240
2018.11.28 20:04:31;18.134;18.215
2018.11.28 20:04:31;18.184;18.265
2018.11.28 20:04:40;18.159;18.240
2018.11.28 20:04:41;18.134;18.215
2018.11.28 20:04:43;18.184;18.265
2018.11.28 20:04:45;18.159;18.240
2018.11.28 20:04:46;18.184;18.265
2018.11.28 20:07:01;18.209;18.290
2018.11.28 20:07:01;18.234;18.315
2018.11.28 20:07:08;18.184;18.265
2018.11.28 20:07:29;18.234;18.315
2018.11.28 20:07:30;18.184;18.265
2018.11.28 20:08:26;18.134;18.215
2018.11.28 20:08:27;18.184;18.265
2018.11.28 20:08:27;18.134;18.215
2018.11.28 20:08:43;18.184;18.265
2018.11.28 20:08:43;18.159;18.240
2018.11.28 20:08:44;18.134;18.215
2018.11.28 20:09:33;18.184;18.265
2018.11.28 20:12:01;18.234;18.315
2018.11.28 20:12:11;18.184;18.265
2018.11.28 20:12:38;18.234;18.315
2018.11.28 20:12:39;18.184;18.265
2018.11.28 20:12:58;18.209;18.290
2018.11.28 20:12:59;18.184;18.265
2018.11.28 20:13:33;18.134;18.215
2018.11.28 20:13:40;18.184;18.265
2018.11.28 20:13:42;18.134;18.215
2018.11.28 20:13:54;18.159;18.240
2018.11.28 20:13:55;18.134;18.215
2018.11.28 20:15:34;18.184;18.265
2018.11.28 20:15:35;18.134;18.215
2018.11.28 20:15:39;18.184;18.265
2018.11.28 20:16:12;18.134;18.215
2018.11.28 20:20:29;18.184;18.265
2018.11.28 20:20:30;18.134;18.215
2018.11.28 20:20:53;18.159;18.240
2018.11.28 20:20:53;18.184;18.265
2018.11.28 20:20:57;18.134;18.215
2018.11.28 20:21:10;18.184;18.265
2018.11.28 20:21:17;18.134;18.215
2018.11.28 20:21:18;18.184;18.265
2018.11.28 20:21:18;18.134;18.215
2018.11.28 20:22:49;18.184;18.265
2018.11.28 20:23:19;18.134;18.215
2018.11.28 20:23:23;18.184;18.265
2018.11.28 20:23:31;18.134;18.215
2018.11.28 20:23:59;18.084;18.165
2018.11.28 20:24:00;18.134;18.215
2018.11.28 20:24:21;18.084;18.165
2018.11.28 20:24:30;18.134;18.215
2018.11.28 20:24:32;18.084;18.165
2018.11.28 20:24:36;18.109;18.190
2018.11.28 20:24:37;18.134;18.215
2018.11.28 20:24:37;18.084;18.165
2018.11.28 20:24:38;18.134;18.215
2018.11.28 20:24:39;18.109;18.190
2018.11.28 20:24:41;18.134;18.215
2018.11.28 20:24:43;18.109;18.190
2018.11.28 20:24:44;18.084;18.165
2018.11.28 20:25:00;18.134;18.215
2018.11.28 20:25:07;18.109;18.190
2018.11.28 20:25:07;18.134;18.215
2018.11.28 20:25:08;18.109;18.190
2018.11.28 20:25:09;18.084;18.165
2018.11.28 20:25:11;18.109;18.190
2018.11.28 20:25:13;18.084;18.165
2018.11.28 20:25:20;18.134;18.215
2018.11.28 20:25:21;18.109;18.190
2018.11.28 20:25:22;18.084;18.165
2018.11.28 20:25:28;18.134;18.215
2018.11.28 20:25:29;18.084;18.165
2018.11.28 20:26:13;18.134;18.215
2018.11.28 20:26:13;18.109;18.190
2018.11.28 20:26:15;18.084;18.165
2018.11.28 20:26:18;18.109;18.190
2018.11.28 20:26:18;18.084;18.165
2018.11.28 20:26:24;18.134;18.215
2018.11.28 20:26:25;18.084;18.165
2018.11.28 20:26:35;18.134;18.215
2018.11.28 20:28:18;18.109;18.190
2018.11.28 20:28:19;18.134;18.215
2018.11.28 20:28:21;18.084;18.165
2018.11.28 20:28:21;18.109;18.190
2018.11.28 20:28:23;18.134;18.215
2018.11.28 20:28:27;18.084;18.165
2018.11.28 20:29:29;18.034;18.115
2018.11.28 20:29:29;18.084;18.165
2018.11.28 20:29:37;18.034;18.115
2018.11.28 20:29:37;18.084;18.165
2018.11.28 20:29:41;18.034;18.115
2018.11.28 20:29:42;18.084;18.165
2018.11.28 20:30:54;18.034;18.115
2018.11.28 20:30:54;18.084;18.165
2018.11.28 20:32:04;18.059;18.140
2018.11.28 20:32:05;18.084;18.165
2018.11.28 20:32:06;18.034;18.115
2018.11.28 20:32:16;18.084;18.165
2018.11.28 20:37:00;18.034;18.115
2018.11.28 20:40:31;18.084;18.165
2018.11.28 20:40:56;18.034;18.115
2018.11.28 20:40:57;18.084;18.165
2018.11.28 20:40:59;18.034;18.115
2018.11.28 20:41:11;18.084;18.165
2018.11.28 20:41:16;18.034;18.115
2018.11.28 20:41:17;18.084;18.165
2018.11.28 20:41:19;18.034;18.115
2018.11.28 20:41:23;18.084;18.165
2018.11.28 20:41:24;18.059;18.140
2018.11.28 20:41:24;18.084;18.165
2018.11.28 20:42:08;18.034;18.115
2018.11.28 20:42:10;18.059;18.140
2018.11.28 20:42:11;18.084;18.165
2018.11.28 20:42:18;18.034;18.115
2018.11.28 20:42:54;17.984;18.065
2018.11.28 20:42:56;18.034;18.115
2018.11.28 20:43:00;17.984;18.065
2018.11.28 20:43:01;18.034;18.115
2018.11.28 20:43:03;18.084;18.165
2018.11.28 20:43:17;18.134;18.215
2018.11.28 20:43:22;18.084;18.165
2018.11.28 20:43:30;18.034;18.115
2018.11.28 20:44:59;18.084;18.165
2018.11.28 20:45:00;18.034;18.115
2018.11.28 20:45:12;18.084;18.165
2018.11.28 20:45:18;18.059;18.140
2018.11.28 20:45:19;18.084;18.165
2018.11.28 20:45:21;18.034;18.115
2018.11.28 20:45:23;18.084;18.165
2018.11.28 20:45:32;18.034;18.115
2018.11.28 20:45:34;18.084;18.165
2018.11.28 20:45:35;18.034;18.115
2018.11.28 20:46:05;18.059;18.140
2018.11.28 20:46:07;18.084;18.165
2018.11.28 20:46:14;18.059;18.140
2018.11.28 20:46:14;18.034;18.115
2018.11.28 20:47:29;18.059;18.140
2018.11.28 20:47:29;18.034;18.115
2018.11.28 20:47:40;18.084;18.165
2018.11.28 20:49:30;18.134;18.215
2018.11.28 20:49:31;18.084;18.165
2018.11.28 20:49:55;18.134;18.215
2018.11.28 20:49:56;18.084;18.165
2018.11.28 20:49:57;18.134;18.215
2018.11.28 20:49:57;18.084;18.165
2018.11.28 20:50:32;18.134;18.215
2018.11.28 20:50:42;18.084;18.165
2018.11.28 20:52:41;18.059;18.140
2018.11.28 20:52:41;18.084;18.165
2018.11.28 20:53:08;18.134;18.215
2018.11.28 20:53:08;18.084;18.165
2018.11.28 20:54:37;18.034;18.115
2018.11.28 20:54:39;18.084;18.165
2018.11.28 20:55:04;18.059;18.140
2018.11.28 20:55:06;18.034;18.115
2018.11.28 20:55:56;17.984;18.065
2018.11.28 20:55:58;18.034;18.115
2018.11.28 20:56:02;18.009;18.090
2018.11.28 20:56:03;18.034;18.115
2018.11.28 21:01:02;18.059;18.140
2018.11.28 21:01:03;18.034;18.115
2018.11.28 21:02:55;17.984;18.065
2018.11.28 21:04:37;18.034;18.115
2018.11.28 21:04:38;18.009;18.090
2018.11.28 21:04:40;18.034;18.115
2018.11.28 21:04:41;17.984;18.065
2018.11.28 21:06:00;18.034;18.115
2018.11.28 21:08:39;18.084;18.165
2018.11.28 21:08:41;18.034;18.115
2018.11.28 21:09:01;18.084;18.165
2018.11.28 21:09:05;18.034;18.115
2018.11.28 21:09:59;18.059;18.140
2018.11.28 21:09:59;18.084;18.165
2018.11.28 21:10:00;18.034;18.115
2018.11.28 21:11:07;18.084;18.165
2018.11.28 21:11:10;18.034;18.115
2018.11.28 21:11:11;18.084;18.165
2018.11.28 21:11:13;18.034;18.115
2018.11.28 21:11:14;18.059;18.140
2018.11.28 21:11:16;18.034;18.115
2018.11.28 21:11:17;18.059;18.140
2018.11.28 21:11:18;18.084;18.165
2018.11.28 21:11:27;18.034;18.115
2018.11.28 21:11:27;18.084;18.165
2018.11.28 21:11:31;18.059;18.140
2018.11.28 21:11:31;18.034;18.115
2018.11.28 21:11:35;18.084;18.165
2018.11.28 21:12:32;18.034;18.115
2018.11.28 21:12:34;18.084;18.165
2018.11.28 21:13:04;18.034;18.115
2018.11.28 21:13:06;18.059;18.140
2018.11.28 21:13:07;18.034;18.115
2018.11.28 21:13:11;18.059;18.140
2018.11.28 21:13:12;18.034;18.115
2018.11.28 21:13:42;18.059;18.140
2018.11.28 21:13:43;18.084;18.165
2018.11.28 21:13:44;18.034;18.115
2018.11.28 21:15:08;18.084;18.165
2018.11.28 21:15:18;18.034;18.115
2018.11.28 21:15:51;18.084;18.165
2018.11.28 21:15:53;18.034;18.115
2018.11.28 21:15:56;18.084;18.165
2018.11.28 21:16:19;18.109;18.190
2018.11.28 21:16:20;18.084;18.165
2018.11.28 21:16:57;18.059;18.140
2018.11.28 21:16:57;18.034;18.115
2018.11.28 21:16:59;18.084;18.165
2018.11.28 21:17:12;18.034;18.115
2018.11.28 21:18:07;18.009;18.090
2018.11.28 21:18:08;17.984;18.065
2018.11.28 21:18:10;18.034;18.115
2018.11.28 21:18:10;17.984;18.065
2018.11.28 21:18:16;18.034;18.115
2018.11.28 21:18:53;17.984;18.065
2018.11.28 21:18:53;18.034;18.115
2018.11.28 21:19:29;17.984;18.065
2018.11.28 21:20:35;18.034;18.115
2018.11.28 21:24:36;17.984;18.065
2018.11.28 21:24:50;17.959;18.040
2018.11.28 21:24:51;17.984;18.065
2018.11.28 21:25:29;17.934;18.015
2018.11.28 21:29:31;17.984;18.065
2018.11.28 21:29:34;17.934;18.015
2018.11.28 21:29:55;17.984;18.065
2018.11.28 21:30:03;17.934;18.015
2018.11.28 21:30:15;17.984;18.065
2018.11.28 21:30:23;17.934;18.015
2018.11.28 21:30:25;17.984;18.065
2018.11.28 21:30:29;17.934;18.015
2018.11.28 21:30:31;17.959;18.040
2018.11.28 21:30:31;17.984;18.065
2018.11.28 21:31:01;17.934;18.015
2018.11.28 21:31:03;17.984;18.065
2018.11.28 21:31:05;17.934;18.015
2018.11.28 21:31:07;17.984;18.065
2018.11.28 21:31:09;17.934;18.015
2018.11.28 21:31:10;17.959;18.040
2018.11.28 21:31:10;17.984;18.065
2018.11.28 21:31:14;17.959;18.040
2018.11.28 21:31:15;17.984;18.065
2018.11.28 21:31:16;17.934;18.015
2018.11.28 21:31:17;17.959;18.040
2018.11.28 21:31:18;17.934;18.015
2018.11.28 21:31:21;17.984;18.065
2018.11.28 21:31:27;17.934;18.015
2018.11.28 21:31:28;17.959;18.040
2018.11.28 21:31:31;17.934;18.015
2018.11.28 21:31:34;17.959;18.040
2018.11.28 21:31:36;17.984;18.065
2018.11.28 21:33:03;17.959;18.040
2018.11.28 21:33:03;17.984;18.065
2018.11.28 21:33:11;18.009;18.090
2018.11.28 21:33:12;17.984;18.065
2018.11.28 21:34:11;18.009;18.090
2018.11.28 21:34:12;18.034;18.115
2018.11.28 21:34:47;17.984;18.065
2018.11.28 21:35:26;18.034;18.115
2018.11.28 21:37:13;17.984;18.065
2018.11.28 21:38:43;18.009;18.090
2018.11.28 21:38:43;17.984;18.065
2018.11.28 21:38:44;18.034;18.115
2018.11.28 21:38:44;17.984;18.065
2018.11.28 21:38:45;18.034;18.115
2018.11.28 21:38:48;17.984;18.065
2018.11.28 21:38:49;18.034;18.115
2018.11.28 21:38:50;17.984;18.065
2018.11.28 21:39:10;18.034;18.115
2018.11.28 21:40:05;17.984;18.065
2018.11.28 21:40:08;18.034;18.115
2018.11.28 21:40:19;17.984;18.065
2018.11.28 21:43:29;18.034;18.115
2018.11.28 21:43:30;17.984;18.065
2018.11.28 21:45:45;17.934;18.015
2018.11.28 21:45:46;17.984;18.065
2018.11.28 21:49:07;18.034;18.115
2018.11.28 21:49:19;17.984;18.065
2018.11.28 21:49:19;18.034;18.115
2018.11.28 21:49:23;17.984;18.065
2018.11.28 21:49:23;18.034;18.115
2018.11.28 21:49:38;17.984;18.065
2018.11.28 21:51:01;18.034;18.115
2018.11.28 21:51:02;17.984;18.065
2018.11.28 21:51:09;18.034;18.115
2018.11.28 21:51:14;17.984;18.065
2018.11.28 21:51:19;18.034;18.115
2018.11.28 21:51:21;18.009;18.090
2018.11.28 21:51:23;17.984;18.065
2018.11.28 21:51:26;18.009;18.090
2018.11.28 21:51:27;18.034;18.115
2018.11.28 21:51:36;17.984;18.065
2018.11.28 21:51:54;18.034;18.115
2018.11.28 21:51:55;17.984;18.065
2018.11.28 21:51:58;18.009;18.090
2018.11.28 21:51:59;18.034;18.115
2018.11.28 21:52:00;18.009;18.090
2018.11.28 21:52:01;17.984;18.065
2018.11.28 21:52:47;17.934;18.015
2018.11.28 21:52:48;17.984;18.065
2018.11.28 21:53:52;18.034;18.115
2018.11.28 21:53:54;17.984;18.065
2018.11.28 21:53:54;18.034;18.115
2018.11.28 21:54:20;18.009;18.090
2018.11.28 21:54:20;18.034;18.115
2018.11.28 21:54:24;17.984;18.065
2018.11.28 21:54:28;18.034;18.115
2018.11.28 21:54:32;17.984;18.065
2018.11.28 21:54:53;18.009;18.090
2018.11.28 21:54:54;18.034;18.115
2018.11.28 21:55:06;17.984;18.065
2018.11.28 21:55:11;18.034;18.115
2018.11.28 21:58:04;18.059;18.140
2018.11.28 21:58:05;18.034;18.115
2018.11.28 21:58:17;18.084;18.165
2018.11.28 21:58:18;18.034;18.115
2018.11.28 21:58:19;18.059;18.140
2018.11.28 21:58:20;18.084;18.165
2018.11.28 21:58:22;18.034;18.115
2018.11.28 21:58:22;18.084;18.165
2018.11.28 21:59:58;18.134;18.215
2018.11.28 22:00:29;18.159;18.240
2018.11.28 22:00:29;18.134;18.215
2018.11.28 22:00:44;18.084;18.165
2018.11.28 22:00:45;18.134;18.215
2018.11.28 22:00:46;18.109;18.190
2018.11.28 22:00:47;18.134;18.215
2018.11.28 22:00:48;18.084;18.165
2018.11.28 22:00:48;18.134;18.215
2018.11.28 22:03:39;18.084;18.165
2018.11.28 22:03:40;18.134;18.215
2018.11.28 22:03:52;18.084;18.165
2018.11.28 22:04:23;18.134;18.215
2018.11.28 22:05:19;18.109;18.190
2018.11.28 22:05:20;18.134;18.215
2018.11.28 22:05:24;18.109;18.190
2018.11.28 22:05:24;18.134;18.215
2018.11.28 22:05:43;18.084;18.165
2018.11.28 22:05:54;18.134;18.215
2018.11.28 22:06:02;18.084;18.165
2018.11.28 22:07:13;18.134;18.215
2018.11.28 22:07:17;18.084;18.165
2018.11.28 22:07:24;18.109;18.190
2018.11.28 22:07:25;18.134;18.215
2018.11.28 22:07:27;18.084;18.165
2018.11.28 22:08:37;18.134;18.215
2018.11.28 22:10:15;18.084;18.165
2018.11.28 22:10:15;18.134;18.215
2018.11.28 22:10:25;18.084;18.165
2018.11.28 22:11:01;18.134;18.215
2018.11.28 22:11:11;18.084;18.165
2018.11.28 22:11:13;18.109;18.190
2018.11.28 22:11:14;18.134;18.215
2018.11.28 22:11:30;18.084;18.165
2018.11.28 22:11:32;18.134;18.215
2018.11.28 22:11:51;18.084;18.165
2018.11.28 22:11:54;18.134;18.215
2018.11.28 22:11:55;18.084;18.165
2018.11.28 22:12:02;18.109;18.190
2018.11.28 22:12:03;18.134;18.215
2018.11.28 22:12:04;18.084;18.165
2018.11.28 22:12:07;18.134;18.215
2018.11.28 22:12:08;18.109;18.190
2018.11.28 22:12:09;18.134;18.215
2018.11.28 22:12:16;18.084;18.165
2018.11.28 22:12:18;18.134;18.215
2018.11.28 22:12:24;18.084;18.165
2018.11.28 22:12:40;18.134;18.215
2018.11.28 22:12:43;18.109;18.190
2018.11.28 22:12:44;18.134;18.215
2018.11.28 22:13:26;18.109;18.190
2018.11.28 22:13:27;18.134;18.215
2018.11.28 22:13:55;18.084;18.165
2018.11.28 22:13:56;18.134;18.215
2018.11.28 22:13:57;18.084;18.165
2018.11.28 22:14:41;18.059;18.140
2018.11.28 22:14:42;18.084;18.165
2018.11.28 22:14:44;18.034;18.115
2018.11.28 22:14:49;18.084;18.165
2018.11.28 22:17:33;18.134;18.215
2018.11.28 22:17:34;18.084;18.165
2018.11.28 22:17:40;18.109;18.190
2018.11.28 22:17:42;18.084;18.165
2018.11.28 22:17:52;18.134;18.215
2018.11.28 22:17:53;18.084;18.165
2018.11.28 22:17:54;18.134;18.215
2018.11.28 22:17:55;18.084;18.165
2018.11.28 22:17:56;18.134;18.215
2018.11.28 22:17:57;18.084;18.165
2018.11.28 22:20:39;18.059;18.140
2018.11.28 22:20:40;18.084;18.165
2018.11.28 22:20:41;18.034;18.115
2018.11.28 22:20:45;18.084;18.165
2018.11.28 22:20:47;18.034;18.115
2018.11.28 22:20:49;18.084;18.165
2018.11.28 22:20:50;18.034;18.115
2018.11.28 22:20:50;18.084;18.165
2018.11.28 22:21:06;18.034;18.115
2018.11.28 22:22:05;18.084;18.165
2018.11.28 22:22:06;18.034;18.115
2018.11.28 22:22:12;18.084;18.165
2018.11.28 22:22:14;18.034;18.115
2018.11.28 22:22:14;18.059;18.140
2018.11.28 22:22:15;18.084;18.165
2018.11.28 22:22:16;18.034;18.115
2018.11.28 22:22:17;18.084;18.165
2018.11.28 22:22:26;18.034;18.115
2018.11.28 22:22:29;18.084;18.165
2018.11.28 22:22:30;18.034;18.115
2018.11.28 22:22:31;18.059;18.140
2018.11.28 22:22:31;18.084;18.165
2018.11.28 22:22:32;18.034;18.115
2018.11.28 22:22:37;18.059;18.140
2018.11.28 22:22:37;18.084;18.165
2018.11.28 22:22:49;18.034;18.115
2018.11.28 22:22:50;18.084;18.165
2018.11.28 22:23:20;18.034;18.115
2018.11.28 22:23:21;18.084;18.165
2018.11.28 22:23:22;18.034;18.115
2018.11.28 22:23:22;18.084;18.165
2018.11.28 22:23:37;18.034;18.115
2018.11.28 22:23:39;18.084;18.165
2018.11.28 22:23:43;18.059;18.140
2018.11.28 22:23:44;18.084;18.165
2018.11.28 22:24:05;18.034;18.115
2018.11.28 22:24:08;18.084;18.165
2018.11.28 22:24:09;18.059;18.140
2018.11.28 22:24:10;18.034;18.115
2018.11.28 22:24:10;18.084;18.165
2018.11.28 22:24:14;18.034;18.115
2018.11.28 22:24:15;18.084;18.165
2018.11.28 22:24:17;18.059;18.140
2018.11.28 22:24:17;18.034;18.115
2018.11.28 22:24:18;18.084;18.165
2018.11.28 22:24:20;18.059;18.140
2018.11.28 22:24:20;18.084;18.165
2018.11.28 22:24:21;18.059;18.140
2018.11.28 22:24:22;18.084;18.165
2018.11.28 22:29:25;18.034;18.115
2018.11.28 22:32:39;17.984;18.065
2018.11.28 22:34:33;17.959;18.040
2018.11.28 22:34:33;17.984;18.065
2018.11.28 22:35:11;17.959;18.040
2018.11.28 22:35:12;17.984;18.065
2018.11.28 22:35:29;17.934;18.015
2018.11.28 22:35:30;17.984;18.065
2018.11.28 22:35:33;17.959;18.040
2018.11.28 22:35:33;17.984;18.065
2018.11.28 22:35:35;17.959;18.040
2018.11.28 22:35:37;17.984;18.065
2018.11.28 22:35:39;17.959;18.040
2018.11.28 22:35:40;17.984;18.065
2018.11.28 22:35:43;17.934;18.015
2018.11.28 22:35:43;17.959;18.040
2018.11.28 22:35:44;17.984;18.065
2018.11.28 22:35:47;17.959;18.040
2018.11.28 22:35:48;17.934;18.015
2018.11.28 22:36:33;17.959;18.040
2018.11.28 22:36:34;17.934;18.015
2018.11.28 22:36:40;17.984;18.065
2018.11.28 22:37:09;17.934;18.015
2018.11.28 22:39:20;17.984;18.065
2018.11.28 22:43:21;17.959;18.040
2018.11.28 22:43:21;17.984;18.065
2018.11.28 22:44:50;18.034;18.115
2018.11.28 22:44:51;18.009;18.090
2018.11.28 22:44:52;18.034;18.115
2018.11.28 22:45:00;17.984;18.065
2018.11.28 22:52:13;18.009;18.090
2018.11.28 22:52:16;18.034;18.115
2018.11.28 22:52:19;17.984;18.065
2018.11.28 22:52:20;18.009;18.090
2018.11.28 22:52:21;17.984;18.065
2018.11.28 22:52:59;18.034;18.115
2018.11.28 22:54:22;18.084;18.165
2018.11.28 22:54:31;18.034;18.115
2018.11.28 22:54:41;18.059;18.140
2018.11.28 22:54:42;18.084;18.165
2018.11.28 22:55:51;18.034;18.115
2018.11.28 22:56:07;18.084;18.165
2018.11.28 23:00:42;18.134;18.215
2018.11.28 23:01:48;18.159;18.240
2018.11.28 23:01:49;18.134;18.215
2018.11.28 23:06:34;18.084;18.165
2018.11.28 23:09:40;18.134;18.215
2018.11.28 23:13:02;18.184;18.265
2018.11.28 23:13:14;18.234;18.315
2018.11.28 23:13:51;18.259;18.340
2018.11.28 23:13:51;18.234;18.315
2018.11.28 23:13:52;18.284;18.365
2018.11.28 23:13:52;18.234;18.315
2018.11.28 23:13:56;18.284;18.365
2018.11.28 23:13:57;18.234;18.315
2018.11.28 23:14:08;18.184;18.265
2018.11.28 23:14:09;18.234;18.315
2018.11.28 23:14:10;18.184;18.265
2018.11.28 23:14:47;18.134;18.215
2018.11.28 23:14:53;18.184;18.265
