2018.11.29 01:00:00;18.124;18.225
2018.11.29 01:00:51;18.174;18.275
2018.11.29 01:04:35;18.199;18.300
2018.11.29 01:04:38;18.224;18.325
2018.11.29 01:11:45;18.174;18.275
2018.11.29 01:13:46;18.224;18.325
2018.11.29 01:13:54;18.174;18.275
2018.11.29 01:15:38;18.224;18.325
2018.11.29 01:16:26;18.199;18.300
2018.11.29 01:16:55;18.174;18.275
2018.11.29 01:17:26;18.199;18.300
2018.11.29 01:17:39;18.174;18.275
2018.11.29 01:17:53;18.199;18.300
2018.11.29 01:20:59;18.224;18.325
2018.11.29 01:21:12;18.174;18.275
2018.11.29 01:21:59;18.199;18.300
2018.11.29 01:22:02;18.224;18.325
2018.11.29 01:22:43;18.174;18.275
2018.11.29 01:22:44;18.224;18.325
2018.11.29 01:23:34;18.174;18.275
2018.11.29 01:32:02;18.224;18.325
2018.11.29 01:32:20;18.174;18.275
2018.11.29 01:32:37;18.199;18.300
2018.11.29 01:32:59;18.224;18.325
2018.11.29 01:35:59;18.199;18.300
2018.11.29 01:37:48;18.224;18.325
2018.11.29 01:39:05;18.174;18.275
2018.11.29 01:44:20;18.199;18.300
2018.11.29 01:44:24;18.224;18.325
2018.11.29 01:49:48;18.199;18.300
2018.11.29 01:50:52;18.174;18.275
2018.11.29 01:52:20;18.199;18.300
2018.11.29 01:53:03;18.174;18.275
2018.11.29 01:53:23;18.199;18.300
2018.11.29 01:53:43;18.224;18.325
2018.11.29 01:54:38;18.199;18.300
2018.11.29 01:56:50;18.224;18.325
2018.11.29 01:57:56;18.199;18.300
2018.11.29 01:58:45;18.224;18.325
2018.11.29 01:59:08;18.199;18.300
2018.11.29 02:00:09;18.224;18.325
2018.11.29 02:00:11;18.199;18.300
2018.11.29 02:00:15;18.174;18.275
2018.11.29 02:03:38;18.224;18.325
2018.11.29 02:04:56;18.199;18.300
2018.11.29 02:05:02;18.174;18.275
2018.11.29 02:05:08;18.199;18.300
2018.11.29 02:06:31;18.174;18.275
2018.11.29 02:06:51;18.199;18.300
2018.11.29 02:08:04;18.174;18.275
2018.11.29 02:11:00;18.224;18.325
2018.11.29 02:11:01;18.199;18.300
2018.11.29 02:11:04;18.224;18.325
2018.11.29 02:11:09;18.199;18.300
2018.11.29 02:11:10;18.224;18.325
2018.11.29 02:11:29;18.199;18.300
2018.11.29 02:11:32;18.174;18.275
2018.11.29 02:11:34;18.199;18.300
2018.11.29 02:11:47;18.224;18.325
2018.11.29 02:16:14;18.174;18.275
2018.11.29 02:16:17;18.199;18.300
2018.11.29 02:16:20;18.174;18.275
2018.11.29 02:16:39;18.199;18.300
2018.11.29 02:16:40;18.224;18.325
2018.11.29 02:16:41;18.174;18.275
2018.11.29 02:20:29;18.199;18.300
2018.11.29 02:20:38;18.174;18.275
2018.11.29 02:20:53;18.199;18.300
2018.11.29 02:20:59;18.174;18.275
2018.11.29 02:21:21;18.199;18.300
2018.11.29 02:21:26;18.174;18.275
2018.11.29 02:21:32;18.224;18.325
2018.11.29 02:22:05;18.199;18.300
2018.11.29 02:22:08;18.224;18.325
2018.11.29 02:22:09;18.199;18.300
2018.11.29 02:22:28;18.224;18.325
2018.11.29 02:24:39;18.174;18.275
2018.11.29 02:24:46;18.199;18.300
2018.11.29 02:24:47;18.174;18.275
2018.11.29 02:25:00;18.199;18.300
2018.11.29 02:25:00;18.174;18.275
2018.11.29 02:26:24;18.199;18.300
2018.11.29 02:28:00;18.224;18.325
2018.11.29 02:28:01;18.199;18.300
2018.11.29 02:28:21;18.224;18.325
2018.11.29 02:28:32;18.199;18.300
2018.11.29 02:29:03;18.174;18.275
2018.11.29 02:29:05;18.199;18.300
2018.11.29 02:29:43;18.174;18.275
2018.11.29 02:29:58;18.199;18.300
2018.11.29 02:30:06;18.224;18.325
2018.11.29 02:33:44;18.199;18.300
2018.11.29 02:33:47;18.224;18.325
2018.11.29 02:35:29;18.199;18.300
2018.11.29 02:36:13;18.174;18.275
2018.11.29 02:40:18;18.199;18.300
2018.11.29 02:40:20;18.174;18.275
2018.11.29 02:40:43;18.199;18.300
2018.11.29 02:41:03;18.174;18.275
2018.11.29 02:42:02;18.199;18.300
2018.11.29 02:42:16;18.174;18.275
2018.11.29 02:43:30;18.199;18.300
2018.11.29 02:43:32;18.174;18.275
2018.11.29 02:43:34;18.199;18.300
2018.11.29 02:44:01;18.174;18.275
2018.11.29 02:44:02;18.199;18.300
2018.11.29 02:44:40;18.174;18.275
2018.11.29 02:45:44;18.224;18.325
2018.11.29 03:01:16;18.199;18.300
2018.11.29 03:02:08;18.174;18.275
2018.11.29 03:02:33;18.224;18.325
2018.11.29 03:03:12;18.199;18.300
2018.11.29 03:03:26;18.224;18.325
2018.11.29 03:06:06;18.174;18.275
2018.11.29 03:06:30;18.199;18.300
2018.11.29 03:06:32;18.224;18.325
2018.11.29 03:14:36;18.174;18.275
2018.11.29 03:14:37;18.199;18.300
2018.11.29 03:15:00;18.224;18.325
2018.11.29 03:17:06;18.199;18.300
2018.11.29 03:17:26;18.224;18.325
2018.11.29 03:18:51;18.199;18.300
2018.11.29 03:19:15;18.174;18.275
2018.11.29 03:28:36;18.199;18.300
2018.11.29 03:28:38;18.224;18.325
2018.11.29 03:28:41;18.174;18.275
2018.11.29 03:28:56;18.224;18.325
2018.11.29 03:40:39;18.249;18.350
2018.11.29 03:40:40;18.224;18.325
2018.11.29 03:43:53;18.249;18.350
2018.11.29 03:43:55;18.224;18.325
2018.11.29 03:43:58;18.249;18.350
2018.11.29 03:43:59;18.224;18.325
2018.11.29 03:44:05;18.249;18.350
2018.11.29 03:44:05;18.274;18.375
2018.11.29 03:44:11;18.224;18.325
2018.11.29 03:44:12;18.274;18.375
2018.11.29 03:44:14;18.249;18.350
2018.11.29 03:44:21;18.224;18.325
2018.11.29 03:44:50;18.249;18.350
2018.11.29 03:44:58;18.274;18.375
2018.11.29 03:45:00;18.249;18.350
2018.11.29 03:45:05;18.274;18.375
2018.11.29 03:45:14;18.249;18.350
2018.11.29 03:45:36;18.224;18.325
2018.11.29 03:46:21;18.249;18.350
2018.11.29 03:46:34;18.274;18.375
2018.11.29 03:46:35;18.249;18.350
2018.11.29 03:47:14;18.224;18.325
2018.11.29 03:47:16;18.249;18.350
2018.11.29 03:47:23;18.224;18.325
2018.11.29 03:47:43;18.249;18.350
2018.11.29 03:47:44;18.224;18.325
2018.11.29 03:47:47;18.249;18.350
2018.11.29 03:48:13;18.224;18.325
2018.11.29 03:48:14;18.249;18.350
2018.11.29 03:48:22;18.224;18.325
2018.11.29 03:48:52;18.249;18.350
2018.11.29 03:49:44;18.224;18.325
2018.11.29 03:50:44;18.274;18.375
2018.11.29 03:50:54;18.249;18.350
2018.11.29 03:50:57;18.224;18.325
2018.11.29 03:51:00;18.249;18.350
2018.11.29 03:51:08;18.274;18.375
2018.11.29 03:51:41;18.249;18.350
2018.11.29 03:51:44;18.274;18.375
2018.11.29 03:52:00;18.249;18.350
2018.11.29 03:52:08;18.224;18.325
2018.11.29 03:52:10;18.274;18.375
2018.11.29 03:52:11;18.249;18.350
2018.11.29 03:52:18;18.224;18.325
2018.11.29 03:53:20;18.274;18.375
2018.11.29 03:53:23;18.224;18.325
2018.11.29 03:54:37;18.249;18.350
2018.11.29 03:54:40;18.274;18.375
2018.11.29 03:57:06;18.324;18.425
2018.11.29 03:57:08;18.274;18.375
2018.11.29 03:57:18;18.324;18.425
2018.11.29 03:57:20;18.299;18.400
2018.11.29 03:57:22;18.274;18.375
2018.11.29 03:57:26;18.324;18.425
2018.11.29 04:04:44;18.274;18.375
2018.11.29 04:05:21;18.324;18.425
2018.11.29 04:07:22;18.299;18.400
2018.11.29 04:07:31;18.324;18.425
2018.11.29 04:08:41;18.299;18.400
2018.11.29 04:08:44;18.274;18.375
2018.11.29 04:09:03;18.299;18.400
2018.11.29 04:09:05;18.274;18.375
2018.11.29 04:09:06;18.299;18.400
2018.11.29 04:09:07;18.274;18.375
2018.11.29 04:09:08;18.299;18.400
2018.11.29 04:09:20;18.324;18.425
2018.11.29 04:09:21;18.299;18.400
2018.11.29 04:09:24;18.324;18.425
2018.11.29 04:09:26;18.274;18.375
2018.11.29 04:09:39;18.299;18.400
2018.11.29 04:09:40;18.324;18.425
2018.11.29 04:09:54;18.299;18.400
2018.11.29 04:09:56;18.274;18.375
2018.11.29 04:09:57;18.324;18.425
2018.11.29 04:09:59;18.274;18.375
2018.11.29 04:10:05;18.324;18.425
2018.11.29 04:10:07;18.299;18.400
2018.11.29 04:10:11;18.324;18.425
2018.11.29 04:10:21;18.274;18.375
2018.11.29 04:10:46;18.324;18.425
2018.11.29 04:11:53;18.299;18.400
2018.11.29 04:12:04;18.324;18.425
2018.11.29 04:12:08;18.299;18.400
2018.11.29 04:12:09;18.324;18.425
2018.11.29 04:12:10;18.299;18.400
2018.11.29 04:12:20;18.274;18.375
2018.11.29 04:32:46;18.324;18.425
2018.11.29 04:33:10;18.274;18.375
2018.11.29 04:33:14;18.299;18.400
2018.11.29 04:33:17;18.324;18.425
2018.11.29 04:40:18;18.349;18.450
2018.11.29 04:40:19;18.324;18.425
2018.11.29 04:55:01;18.349;18.450
2018.11.29 04:55:08;18.374;18.475
2018.11.29 04:55:38;18.324;18.425
2018.11.29 05:00:16;18.374;18.475
2018.11.29 05:02:39;18.324;18.425
2018.11.29 05:03:08;18.374;18.475
2018.11.29 05:04:51;18.349;18.450
2018.11.29 05:04:53;18.324;18.425
2018.11.29 05:05:05;18.349;18.450
2018.11.29 05:05:07;18.324;18.425
2018.11.29 05:23:39;18.274;18.375
2018.11.29 05:25:46;18.299;18.400
2018.11.29 05:25:48;18.274;18.375
2018.11.29 05:40:40;18.324;18.425
2018.11.29 05:40:44;18.299;18.400
2018.11.29 05:41:01;18.274;18.375
2018.11.29 05:41:17;18.299;18.400
2018.11.29 05:41:19;18.274;18.375
2018.11.29 05:42:14;18.299;18.400
2018.11.29 05:42:45;18.324;18.425
2018.11.29 05:42:55;18.299;18.400
2018.11.29 05:43:08;18.324;18.425
2018.11.29 05:43:09;18.299;18.400
2018.11.29 05:43:43;18.274;18.375
2018.11.29 05:44:20;18.299;18.400
2018.11.29 05:44:25;18.324;18.425
2018.11.29 05:49:37;18.374;18.475
2018.11.29 05:49:50;18.324;18.425
2018.11.29 05:50:32;18.349;18.450
2018.11.29 05:51:32;18.324;18.425
