2018.11.28 23:59:00;1.28225;1.28232;1.28217;1.28226
2018.11.29 00:00:00;1.28217;1.28236;1.28217;1.28225
2018.11.29 00:01:00;1.28224;1.28238;1.28224;1.28238
2018.11.29 00:02:00;1.28238;1.28242;1.28238;1.28242
2018.11.29 00:03:00;1.28242;1.28244;1.28242;1.28242
2018.11.29 00:04:00;1.28242;1.28242;1.28242;1.28242
2018.11.29 00:05:00;1.28243;1.28250;1.28238;1.28240
2018.11.29 00:06:00;1.28242;1.28250;1.28240;1.28244
2018.11.29 00:07:00;1.28244;1.28251;1.28244;1.28251
2018.11.29 00:08:00;1.28251;1.28254;1.28251;1.28254
2018.11.29 00:09:00;1.28254;1.28254;1.28253;1.28253
2018.11.29 00:10:00;1.28253;1.28253;1.28245;1.28247
2018.11.29 00:11:00;1.28247;1.28257;1.28245;1.28257
2018.11.29 00:12:00;1.28258;1.28258;1.28245;1.28249
2018.11.29 00:13:00;1.28260;1.28295;1.28247;1.28281
2018.11.29 00:14:00;1.28280;1.28284;1.28275;1.28277
2018.11.29 00:15:00;1.28275;1.28276;1.28273;1.28273
2018.11.29 00:16:00;1.28272;1.28274;1.28263;1.28265
2018.11.29 00:17:00;1.28265;1.28269;1.28262;1.28265
2018.11.29 00:18:00;1.28265;1.28266;1.28264;1.28266
2018.11.29 00:19:00;1.28266;1.28271;1.28265;1.28270
2018.11.29 00:20:00;1.28271;1.28271;1.28253;1.28255
2018.11.29 00:21:00;1.28252;1.28256;1.28252;1.28253
2018.11.29 00:22:00;1.28254;1.28258;1.28254;1.28256
2018.11.29 00:23:00;1.28257;1.28257;1.28250;1.28250
2018.11.29 00:24:00;1.28253;1.28254;1.28251;1.28253
2018.11.29 00:25:00;1.28251;1.28253;1.28246;1.28248
2018.11.29 00:26:00;1.28248;1.28251;1.28248;1.28250
2018.11.29 00:27:00;1.28249;1.28251;1.28249;1.28251
2018.11.29 00:28:00;1.28250;1.28252;1.28247;1.28252
2018.11.29 00:29:00;1.28251;1.28251;1.28244;1.28244
2018.11.29 00:30:00;1.28245;1.28256;1.28243;1.28254
2018.11.29 00:31:00;1.28256;1.28260;1.28239;1.28259
2018.11.29 00:34:00;1.28254;1.28255;1.28234;1.28239
2018.11.29 00:35:00;1.28255;1.28266;1.28255;1.28265
2018.11.29 00:36:00;1.28269;1.28270;1.28266;1.28269
2018.11.29 00:37:00;1.28270;1.28270;1.28256;1.28269
2018.11.29 00:38:00;1.28271;1.28272;1.28253;1.28271
2018.11.29 00:39:00;1.28272;1.28274;1.28268;1.28269
2018.11.29 00:40:00;1.28268;1.28271;1.28255;1.28271
2018.11.29 00:41:00;1.28268;1.28271;1.28257;1.28261
2018.11.29 00:42:00;1.28264;1.28271;1.28245;1.28268
2018.11.29 00:43:00;1.28268;1.28272;1.28261;1.28268
2018.11.29 00:44:00;1.28269;1.28280;1.28220;1.28238
2018.11.29 00:45:00;1.28238;1.28255;1.28233;1.28244
2018.11.29 00:46:00;1.28244;1.28252;1.28235;1.28244
2018.11.29 00:47:00;1.28243;1.28252;1.28240;1.28241
2018.11.29 00:48:00;1.28241;1.28242;1.28236;1.28238
2018.11.29 00:49:00;1.28240;1.28244;1.28236;1.28242
2018.11.29 00:50:00;1.28242;1.28242;1.28237;1.28237
2018.11.29 00:51:00;1.28240;1.28250;1.28236;1.28238
2018.11.29 00:52:00;1.28238;1.28240;1.28229;1.28240
2018.11.29 00:53:00;1.28239;1.28241;1.28232;1.28234
2018.11.29 00:54:00;1.28239;1.28242;1.28231;1.28233
2018.11.29 00:55:00;1.28236;1.28242;1.28232;1.28241
2018.11.29 00:56:00;1.28242;1.28242;1.28235;1.28235
2018.11.29 00:57:00;1.28236;1.28236;1.28231;1.28231
2018.11.29 00:58:00;1.28231;1.28231;1.28231;1.28231
2018.11.29 00:59:00;1.28241;1.28242;1.28232;1.28239
2018.11.29 01:00:00;1.28236;1.28254;1.28233;1.28243
2018.11.29 01:01:00;1.28244;1.28290;1.28242;1.28271
2018.11.29 01:02:00;1.28270;1.28270;1.28261;1.28265
2018.11.29 01:03:00;1.28265;1.28268;1.28265;1.28265
2018.11.29 01:04:00;1.28265;1.28286;1.28262;1.28269
2018.11.29 01:05:00;1.28267;1.28267;1.28257;1.28262
2018.11.29 01:06:00;1.28261;1.28261;1.28242;1.28242
2018.11.29 01:07:00;1.28248;1.28248;1.28242;1.28243
2018.11.29 01:08:00;1.28243;1.28258;1.28243;1.28258
2018.11.29 01:09:00;1.28264;1.28271;1.28256;1.28269
2018.11.29 01:10:00;1.28268;1.28288;1.28259;1.28288
2018.11.29 01:11:00;1.28291;1.28293;1.28286;1.28287
2018.11.29 01:12:00;1.28291;1.28298;1.28285;1.28289
2018.11.29 01:13:00;1.28294;1.28294;1.28287;1.28292
2018.11.29 01:14:00;1.28287;1.28295;1.28287;1.28291
2018.11.29 01:15:00;1.28286;1.28292;1.28284;1.28285
2018.11.29 01:16:00;1.28285;1.28295;1.28282;1.28285
2018.11.29 01:17:00;1.28285;1.28290;1.28271;1.28271
2018.11.29 01:18:00;1.28266;1.28274;1.28264;1.28269
2018.11.29 01:19:00;1.28270;1.28274;1.28263;1.28269
2018.11.29 01:20:00;1.28270;1.28272;1.28242;1.28261
2018.11.29 01:21:00;1.28260;1.28262;1.28251;1.28255
2018.11.29 01:22:00;1.28251;1.28260;1.28251;1.28260
2018.11.29 01:23:00;1.28259;1.28263;1.28254;1.28254
2018.11.29 01:24:00;1.28258;1.28258;1.28246;1.28246
2018.11.29 01:25:00;1.28251;1.28252;1.28244;1.28251
2018.11.29 01:26:00;1.28250;1.28251;1.28249;1.28250
2018.11.29 01:27:00;1.28247;1.28251;1.28247;1.28251
2018.11.29 01:28:00;1.28249;1.28259;1.28249;1.28259
2018.11.29 01:29:00;1.28256;1.28258;1.28249;1.28254
2018.11.29 01:30:00;1.28255;1.28257;1.28241;1.28244
2018.11.29 01:31:00;1.28243;1.28247;1.28241;1.28242
2018.11.29 01:32:00;1.28245;1.28246;1.28232;1.28232
2018.11.29 01:33:00;1.28232;1.28235;1.28223;1.28224
2018.11.29 01:34:00;1.28223;1.28230;1.28222;1.28224
2018.11.29 01:35:00;1.28226;1.28233;1.28226;1.28227
2018.11.29 01:36:00;1.28226;1.28289;1.28226;1.28287
2018.11.29 01:37:00;1.28287;1.28333;1.28287;1.28312
2018.11.29 01:38:00;1.28311;1.28311;1.28254;1.28257
2018.11.29 01:39:00;1.28255;1.28259;1.28255;1.28257
2018.11.29 01:40:00;1.28256;1.28302;1.28256;1.28296
2018.11.29 01:41:00;1.28295;1.28298;1.28290;1.28294
2018.11.29 01:42:00;1.28292;1.28293;1.28271;1.28276
2018.11.29 01:43:00;1.28277;1.28281;1.28273;1.28277
2018.11.29 01:44:00;1.28279;1.28281;1.28262;1.28268
2018.11.29 01:45:00;1.28267;1.28272;1.28254;1.28254
2018.11.29 01:46:00;1.28255;1.28258;1.28253;1.28256
2018.11.29 01:47:00;1.28255;1.28255;1.28245;1.28245
2018.11.29 01:48:00;1.28246;1.28254;1.28245;1.28247
2018.11.29 01:49:00;1.28246;1.28248;1.28244;1.28245
2018.11.29 01:50:00;1.28246;1.28249;1.28213;1.28229
2018.11.29 01:51:00;1.28226;1.28229;1.28226;1.28227
2018.11.29 01:52:00;1.28229;1.28237;1.28229;1.28232
2018.11.29 01:53:00;1.28231;1.28238;1.28226;1.28226
2018.11.29 01:54:00;1.28224;1.28233;1.28223;1.28225
2018.11.29 01:55:00;1.28229;1.28234;1.28223;1.28229
2018.11.29 01:56:00;1.28228;1.28232;1.28228;1.28231
2018.11.29 01:57:00;1.28231;1.28232;1.28225;1.28226
2018.11.29 01:58:00;1.28227;1.28229;1.28223;1.28226
2018.11.29 01:59:00;1.28227;1.28228;1.28210;1.28216
2018.11.29 02:00:00;1.28216;1.28230;1.28205;1.28205
2018.11.29 02:01:00;1.28207;1.28217;1.28207;1.28213
2018.11.29 02:02:00;1.28212;1.28224;1.28210;1.28224
2018.11.29 02:03:00;1.28223;1.28236;1.28218;1.28236
2018.11.29 02:04:00;1.28237;1.28245;1.28234;1.28236
2018.11.29 02:05:00;1.28237;1.28242;1.28234;1.28238
2018.11.29 02:06:00;1.28237;1.28263;1.28233;1.28255
2018.11.29 02:07:00;1.28250;1.28250;1.28233;1.28233
2018.11.29 02:08:00;1.28234;1.28242;1.28234;1.28238
2018.11.29 02:09:00;1.28240;1.28240;1.28232;1.28235
2018.11.29 02:10:00;1.28236;1.28251;1.28233;1.28246
2018.11.29 02:11:00;1.28247;1.28267;1.28246;1.28263
2018.11.29 02:12:00;1.28262;1.28264;1.28262;1.28264
2018.11.29 02:13:00;1.28263;1.28264;1.28254;1.28256
2018.11.29 02:14:00;1.28258;1.28276;1.28221;1.28223
2018.11.29 02:15:00;1.28222;1.28230;1.28222;1.28225
2018.11.29 02:16:00;1.28225;1.28225;1.28215;1.28216
2018.11.29 02:17:00;1.28214;1.28219;1.28213;1.28214
2018.11.29 02:18:00;1.28214;1.28217;1.28206;1.28207
2018.11.29 02:19:00;1.28206;1.28213;1.28201;1.28211
2018.10.19 23:46:00;1.30712;1.30713;1.30692;1.30698
2018.10.19 23:47:00;1.30698;1.30700;1.30687;1.30695
2018.11.29 02:21:00;1.28220;1.28220;1.28205;1.28209
2018.11.29 02:22:00;1.28209;1.28209;1.28195;1.28195
2018.11.29 02:23:00;1.28194;1.28199;1.28185;1.28199
2018.11.29 02:24:00;1.28198;1.28198;1.28174;1.28191
2018.11.29 02:25:00;1.28190;1.28192;1.28180;1.28182
2018.11.29 02:26:00;1.28183;1.28186;1.28180;1.28186
2018.11.29 02:27:00;1.28185;1.28185;1.28183;1.28184
2018.11.29 02:28:00;1.28185;1.28187;1.28184;1.28185
2018.11.29 02:29:00;1.28185;1.28188;1.28184;1.28188
2018.11.29 02:30:00;1.28187;1.28224;1.28187;1.28220
2018.11.29 02:31:00;1.28219;1.28241;1.28214;1.28215
2018.11.29 02:32:00;1.28214;1.28216;1.28202;1.28214
2018.11.29 02:33:00;1.28214;1.28223;1.28212;1.28221
2018.11.29 02:34:00;1.28219;1.28229;1.28219;1.28223
2018.11.29 02:35:00;1.28223;1.28225;1.28223;1.28225
2018.11.29 02:36:00;1.28224;1.28228;1.28223;1.28225
2018.11.29 02:37:00;1.28226;1.28228;1.28224;1.28225
2018.11.29 02:38:00;1.28226;1.28234;1.28225;1.28226
2018.11.29 02:39:00;1.28225;1.28235;1.28215;1.28234
2018.11.29 02:40:00;1.28233;1.28237;1.28220;1.28232
2018.11.29 02:41:00;1.28233;1.28233;1.28226;1.28227
2018.11.29 02:42:00;1.28229;1.28233;1.28222;1.28223
2018.11.29 02:43:00;1.28225;1.28227;1.28220;1.28221
2018.11.29 02:44:00;1.28222;1.28226;1.28221;1.28221
2018.11.29 02:45:00;1.28216;1.28219;1.28215;1.28215
2018.11.29 02:46:00;1.28214;1.28214;1.28211;1.28211
2018.11.29 02:47:00;1.28211;1.28216;1.28209;1.28213
2018.11.29 02:52:00;1.28208;1.28216;1.28206;1.28213
2018.11.29 02:53:00;1.28211;1.28213;1.28203;1.28206
2018.11.29 02:54:00;1.28209;1.28220;1.28207;1.28218
2018.11.29 02:55:00;1.28228;1.28241;1.28214;1.28217
2018.11.29 02:56:00;1.28218;1.28235;1.28215;1.28215
2018.11.29 02:57:00;1.28216;1.28227;1.28215;1.28226
2018.11.29 02:58:00;1.28226;1.28229;1.28225;1.28225
2018.11.29 02:59:00;1.28225;1.28234;1.28224;1.28234
2018.11.29 03:00:00;1.28234;1.28241;1.28226;1.28235
2018.11.29 03:01:00;1.28234;1.28235;1.28225;1.28226
2018.11.29 03:02:00;1.28229;1.28230;1.28224;1.28225
2018.11.29 03:03:00;1.28226;1.28234;1.28225;1.28226
2018.11.29 03:04:00;1.28227;1.28234;1.28214;1.28224
2018.11.29 03:05:00;1.28225;1.28236;1.28225;1.28227
2018.11.29 03:06:00;1.28226;1.28237;1.28225;1.28228
2018.11.29 03:07:00;1.28227;1.28229;1.28222;1.28224
2018.11.29 03:08:00;1.28225;1.28226;1.28224;1.28225
2018.11.29 03:09:00;1.28223;1.28238;1.28218;1.28237
2018.11.29 03:10:00;1.28236;1.28243;1.28236;1.28242
2018.11.29 03:11:00;1.28241;1.28249;1.28241;1.28247
2018.11.29 03:12:00;1.28246;1.28248;1.28245;1.28245
2018.11.29 03:13:00;1.28246;1.28247;1.28235;1.28240
2018.11.29 03:14:00;1.28238;1.28247;1.28234;1.28244
2018.11.29 03:15:00;1.28242;1.28250;1.28235;1.28249
2018.11.29 03:16:00;1.28248;1.28249;1.28240;1.28243
2018.11.29 03:17:00;1.28242;1.28246;1.28239;1.28241
2018.11.29 03:18:00;1.28240;1.28242;1.28236;1.28236
2018.11.29 03:19:00;1.28237;1.28239;1.28236;1.28237
2018.11.29 03:20:00;1.28237;1.28239;1.28234;1.28237
2018.11.29 03:21:00;1.28237;1.28242;1.28233;1.28233
2018.11.29 03:22:00;1.28234;1.28244;1.28233;1.28241
2018.11.29 03:23:00;1.28240;1.28246;1.28237;1.28239
2018.11.29 03:24:00;1.28240;1.28240;1.28231;1.28231
2018.11.29 03:25:00;1.28230;1.28236;1.28230;1.28236
2018.11.29 03:26:00;1.28236;1.28237;1.28234;1.28237
2018.11.29 03:27:00;1.28236;1.28237;1.28233;1.28234
2018.11.29 03:28:00;1.28233;1.28238;1.28233;1.28237
2018.11.29 03:29:00;1.28236;1.28248;1.28236;1.28247
2018.11.29 03:31:00;1.28258;1.28259;1.28255;1.28256
2018.11.29 03:32:00;1.28256;1.28256;1.28254;1.28255
2018.11.29 03:33:00;1.28256;1.28263;1.28256;1.28260
2018.11.29 03:34:00;1.28253;1.28258;1.28253;1.28258
2018.11.29 03:35:00;1.28256;1.28261;1.28255;1.28258
2018.11.29 03:36:00;1.28259;1.28259;1.28258;1.28258
2018.11.29 03:37:00;1.28257;1.28258;1.28256;1.28256
2018.11.29 03:38:00;1.28257;1.28262;1.28257;1.28258
2018.11.29 03:39:00;1.28257;1.28257;1.28254;1.28255
2018.11.29 03:40:00;1.28256;1.28256;1.28250;1.28250
2018.11.29 03:41:00;1.28249;1.28253;1.28245;1.28247
2018.11.29 03:42:00;1.28246;1.28264;1.28243;1.28244
2018.11.29 03:43:00;1.28242;1.28245;1.28235;1.28244
2018.11.29 03:44:00;1.28245;1.28248;1.28245;1.28246
2018.11.29 03:45:00;1.28247;1.28251;1.28244;1.28248
2018.11.29 03:46:00;1.28249;1.28257;1.28247;1.28256
2018.11.29 03:47:00;1.28257;1.28266;1.28255;1.28265
2018.11.29 03:48:00;1.28264;1.28270;1.28263;1.28265
2018.11.29 03:49:00;1.28266;1.28275;1.28264;1.28264
2018.11.29 03:50:00;1.28263;1.28282;1.28263;1.28268
2018.11.29 03:51:00;1.28269;1.28276;1.28256;1.28275
2018.11.29 03:52:00;1.28274;1.28287;1.28268;1.28274
2018.11.29 03:53:00;1.28274;1.28295;1.28274;1.28277
2018.11.29 03:54:00;1.28276;1.28279;1.28268;1.28277
2018.11.29 03:55:00;1.28276;1.28285;1.28276;1.28283
2018.11.29 03:56:00;1.28286;1.28292;1.28275;1.28285
2018.11.29 03:57:00;1.28284;1.28284;1.28260;1.28260
2018.11.29 03:58:00;1.28260;1.28264;1.28255;1.28263
2018.11.29 03:59:00;1.28266;1.28277;1.28263;1.28276
2018.11.29 04:00:00;1.28278;1.28290;1.28258;1.28269
2018.11.29 04:01:00;1.28268;1.28268;1.28256;1.28267
2018.11.29 04:02:00;1.28267;1.28278;1.28267;1.28275
2018.11.29 04:03:00;1.28276;1.28307;1.28266;1.28290
2018.11.29 04:04:00;1.28288;1.28307;1.28284;1.28302
2018.11.29 04:06:00;1.28289;1.28295;1.28276;1.28294
2018.11.29 04:07:00;1.28295;1.28306;1.28293;1.28297
2018.11.29 04:08:00;1.28296;1.28306;1.28295;1.28305
2018.11.29 04:09:00;1.28305;1.28318;1.28303;1.28314
2018.11.29 04:10:00;1.28314;1.28327;1.28310;1.28313
2018.11.29 04:11:00;1.28319;1.28319;1.28296;1.28307
2018.11.29 04:12:00;1.28306;1.28341;1.28304;1.28325
2018.11.29 04:13:00;1.28326;1.28327;1.28325;1.28325
2018.11.29 04:14:00;1.28326;1.28327;1.28323;1.28323
2018.11.29 04:15:00;1.28324;1.28340;1.28303;1.28324
2018.11.29 04:16:00;1.28325;1.28330;1.28291;1.28316
2018.11.29 04:17:00;1.28315;1.28322;1.28297;1.28300
2018.11.29 04:18:00;1.28298;1.28316;1.28284;1.28284
2018.11.29 04:19:00;1.28285;1.28286;1.28274;1.28276
2018.11.29 04:20:00;1.28275;1.28294;1.28274;1.28288
2018.11.29 04:21:00;1.28289;1.28294;1.28285;1.28286
2018.11.29 04:22:00;1.28285;1.28311;1.28285;1.28309
2018.11.29 04:23:00;1.28310;1.28311;1.28307;1.28311
2018.11.29 04:24:00;1.28309;1.28317;1.28308;1.28314
2018.11.29 04:25:00;1.28315;1.28316;1.28309;1.28314
2018.11.29 04:26:00;1.28313;1.28314;1.28305;1.28309
2018.11.29 04:27:00;1.28308;1.28308;1.28295;1.28304
2018.11.29 04:28:00;1.28302;1.28310;1.28286;1.28309
2018.11.29 04:29:00;1.28311;1.28317;1.28307;1.28307
2018.11.29 04:30:00;1.28309;1.28316;1.28306;1.28307
2018.11.29 04:31:00;1.28307;1.28311;1.28306;1.28307
2018.11.29 04:32:00;1.28307;1.28311;1.28307;1.28310
2018.11.29 04:33:00;1.28310;1.28316;1.28296;1.28313
2018.11.29 04:34:00;1.28313;1.28317;1.28311;1.28316
2018.11.29 04:35:00;1.28316;1.28318;1.28314;1.28315
2018.11.29 04:36:00;1.28317;1.28328;1.28308;1.28308
2018.11.29 04:37:00;1.28307;1.28313;1.28307;1.28310
2018.11.29 04:38:00;1.28309;1.28319;1.28297;1.28319
2018.11.29 04:39:00;1.28318;1.28329;1.28318;1.28327
2018.11.29 04:40:00;1.28327;1.28328;1.28321;1.28327
2018.11.29 04:41:00;1.28328;1.28336;1.28324;1.28327
2018.11.29 04:42:00;1.28329;1.28329;1.28326;1.28327
2018.11.29 04:43:00;1.28327;1.28348;1.28316;1.28327
2018.11.29 04:44:00;1.28329;1.28358;1.28323;1.28347
2018.11.29 04:45:00;1.28336;1.28338;1.28327;1.28332
2018.11.29 04:46:00;1.28333;1.28335;1.28319;1.28324
2018.11.29 04:47:00;1.28325;1.28328;1.28323;1.28327
2018.11.29 04:48:00;1.28326;1.28330;1.28324;1.28326
2018.11.29 04:49:00;1.28324;1.28335;1.28323;1.28329
2018.11.29 04:50:00;1.28327;1.28327;1.28322;1.28322
2018.11.29 04:51:00;1.28323;1.28326;1.28313;1.28315
2018.11.29 04:52:00;1.28315;1.28317;1.28314;1.28314
2018.11.29 04:53:00;1.28315;1.28319;1.28314;1.28316
2018.11.29 04:54:00;1.28317;1.28326;1.28315;1.28325
2018.11.29 04:55:00;1.28324;1.28325;1.28312;1.28313
2018.11.29 04:56:00;1.28314;1.28316;1.28313;1.28316
2018.11.29 04:57:00;1.28315;1.28317;1.28297;1.28299
2018.11.29 04:58:00;1.28298;1.28303;1.28289;1.28295
2018.11.29 04:59:00;1.28296;1.28299;1.28284;1.28299
2018.11.29 05:00:00;1.28297;1.28305;1.28294;1.28299
2018.11.29 05:01:00;1.28300;1.28305;1.28296;1.28300
2018.11.29 05:02:00;1.28300;1.28313;1.28300;1.28307
2018.11.29 05:03:00;1.28306;1.28306;1.28296;1.28305
2018.11.29 05:04:00;1.28304;1.28306;1.28304;1.28305
2018.11.29 05:05:00;1.28313;1.28336;1.28306;1.28335
2018.11.29 05:06:00;1.28335;1.28340;1.28325;1.28330
2018.11.29 05:07:00;1.28331;1.28333;1.28324;1.28324
2018.11.29 05:08:00;1.28324;1.28324;1.28314;1.28320
2018.11.29 05:09:00;1.28319;1.28325;1.28313;1.28314
2018.11.29 05:10:00;1.28315;1.28316;1.28312;1.28315
2018.11.29 05:12:00;1.28323;1.28326;1.28314;1.28316
2018.11.29 05:13:00;1.28317;1.28318;1.28306;1.28318
2018.11.29 05:14:00;1.28317;1.28318;1.28314;1.28316
2018.11.29 05:15:00;1.28317;1.28317;1.28307;1.28310
2018.11.29 05:16:00;1.28311;1.28320;1.28307;1.28314
2018.11.29 05:17:00;1.28315;1.28320;1.28313;1.28316
2018.11.29 05:18:00;1.28315;1.28328;1.28315;1.28326
2018.11.29 05:19:00;1.28326;1.28331;1.28325;1.28330
2018.11.29 05:20:00;1.28330;1.28339;1.28328;1.28336
2018.11.29 05:21:00;1.28335;1.28335;1.28325;1.28326
2018.11.29 05:22:00;1.28325;1.28330;1.28316;1.28330
2018.11.29 05:23:00;1.28333;1.28335;1.28326;1.28333
2018.11.29 05:24:00;1.28334;1.28337;1.28331;1.28337
2018.11.29 05:25:00;1.28341;1.28342;1.28331;1.28332
2018.11.29 05:26:00;1.28333;1.28335;1.28327;1.28328
2018.11.29 05:27:00;1.28326;1.28328;1.28324;1.28326
2018.11.29 05:28:00;1.28327;1.28336;1.28325;1.28335
2018.11.29 05:29:00;1.28334;1.28337;1.28327;1.28337
2018.11.29 05:30:00;1.28336;1.28339;1.28333;1.28334
2018.11.29 05:31:00;1.28334;1.28336;1.28327;1.28335
2018.11.29 05:32:00;1.28334;1.28338;1.28334;1.28335
2018.11.29 05:33:00;1.28337;1.28341;1.28335;1.28337
2018.11.29 05:34:00;1.28338;1.28348;1.28335;1.28335
2018.11.29 05:35:00;1.28336;1.28351;1.28335;1.28347
2018.11.29 05:36:00;1.28345;1.28356;1.28345;1.28347
2018.11.29 05:37:00;1.28346;1.28348;1.28345;1.28346
2018.11.29 05:38:00;1.28345;1.28345;1.28334;1.28336
2018.11.29 05:39:00;1.28335;1.28336;1.28335;1.28335
2018.11.29 05:40:00;1.28336;1.28340;1.28333;1.28336
2018.11.29 05:41:00;1.28337;1.28349;1.28335;1.28345
2018.11.29 05:42:00;1.28341;1.28341;1.28329;1.28334
2018.11.29 05:43:00;1.28336;1.28339;1.28336;1.28337
2018.11.29 05:44:00;1.28336;1.28339;1.28330;1.28330
2018.11.29 05:45:00;1.28329;1.28329;1.28318;1.28324
2018.11.29 05:46:00;1.28327;1.28327;1.28319;1.28320
2018.11.29 05:47:00;1.28319;1.28320;1.28316;1.28319
2018.11.29 05:48:00;1.28318;1.28319;1.28315;1.28316
2018.11.29 05:49:00;1.28317;1.28317;1.28310;1.28313
2018.11.29 05:50:00;1.28313;1.28315;1.28307;1.28309
2018.11.29 05:51:00;1.28308;1.28317;1.28305;1.28317
2018.11.29 05:52:00;1.28318;1.28327;1.28317;1.28327
2018.11.29 05:53:00;1.28331;1.28336;1.28327;1.28329
2018.11.29 05:54:00;1.28322;1.28322;1.28313;1.28315
2018.11.29 05:55:00;1.28315;1.28316;1.28307;1.28308
