{
  "low_freq_scalp_v1": {
    "tech_ind": {},
    "symbols": {
      "AUDNZD": {
        "lots": 0.01,
        "top_lv": 2,
        "bot_lv": 2,
        "bar_time_frame": 1,
        "atr_time_frame": 1,
        "atr_period": 5,
        "atr_step_ratio": 0.3,
        "atr_tp_ratio": 3,
        "time_step": "2min",
        "start_date": "2018.12.14",
        "end_date": "2018.12.19"
      }
    }
  }
}