2018.11.28 23:14:00;18.184;18.234;18.134;18.184
2018.11.29 01:00:00;18.124;18.174;18.124;18.174
2018.11.29 01:04:00;18.199;18.224;18.199;18.224
2018.11.29 01:11:00;18.174;18.174;18.174;18.174
2018.11.29 01:13:00;18.224;18.224;18.174;18.174
2018.11.29 01:15:00;18.224;18.224;18.224;18.224
2018.11.29 01:16:00;18.199;18.199;18.174;18.174
2018.11.29 01:17:00;18.199;18.199;18.174;18.199
2018.11.29 01:20:00;18.224;18.224;18.224;18.224
2018.11.29 01:21:00;18.174;18.199;18.174;18.199
2018.11.29 01:22:00;18.224;18.224;18.174;18.224
2018.11.29 01:23:00;18.174;18.174;18.174;18.174
2018.11.29 01:32:00;18.224;18.224;18.174;18.224
2018.11.29 01:35:00;18.199;18.199;18.199;18.199
2018.11.29 01:37:00;18.224;18.224;18.224;18.224
2018.11.29 01:39:00;18.174;18.174;18.174;18.174
2018.11.29 01:44:00;18.199;18.224;18.199;18.224
2018.11.29 01:49:00;18.199;18.199;18.199;18.199
2018.11.29 01:50:00;18.174;18.174;18.174;18.174
2018.11.29 01:52:00;18.199;18.199;18.199;18.199
2018.11.29 01:53:00;18.174;18.224;18.174;18.224
2018.11.29 01:54:00;18.199;18.199;18.199;18.199
2018.11.29 01:56:00;18.224;18.224;18.224;18.224
2018.11.29 01:57:00;18.199;18.199;18.199;18.199
2018.11.29 01:58:00;18.224;18.224;18.224;18.224
2018.11.29 01:59:00;18.199;18.199;18.199;18.199
2018.11.29 02:00:00;18.224;18.224;18.174;18.174
2018.11.29 02:03:00;18.224;18.224;18.224;18.224
2018.11.29 02:04:00;18.199;18.199;18.199;18.199
2018.11.29 02:05:00;18.174;18.199;18.174;18.199
2018.11.29 02:06:00;18.174;18.199;18.174;18.199
2018.11.29 02:08:00;18.174;18.174;18.174;18.174
2018.11.29 02:11:00;18.224;18.224;18.174;18.224
2018.11.29 02:16:00;18.174;18.224;18.174;18.174
2018.11.29 02:20:00;18.199;18.199;18.174;18.174
2018.11.29 02:21:00;18.199;18.224;18.174;18.224
2018.11.29 02:22:00;18.199;18.224;18.199;18.224
2018.11.29 02:23:00;18.199;18.224;18.174;18.174
2018.11.29 02:24:00;18.199;18.199;18.174;18.199
2018.11.29 02:25:00;18.174;18.174;18.174;18.174
2018.11.29 02:26:00;18.224;18.224;18.199;18.199
2018.11.29 02:28:00;18.224;18.224;18.199;18.199
2018.11.29 02:29:00;18.174;18.199;18.174;18.199
2018.11.29 02:30:00;18.224;18.224;18.224;18.224
2018.11.29 02:33:00;18.199;18.224;18.199;18.224
2018.11.29 02:35:00;18.199;18.199;18.199;18.199
2018.11.29 02:36:00;18.174;18.174;18.174;18.174
2018.11.29 02:40:00;18.199;18.199;18.174;18.199
2018.11.29 02:41:00;18.174;18.174;18.174;18.174
2018.11.29 02:42:00;18.199;18.199;18.174;18.174
2018.11.29 02:43:00;18.199;18.199;18.174;18.199
2018.11.29 02:44:00;18.174;18.199;18.174;18.174
2018.11.28 05:45:00;18.574;18.574;18.574;18.574
2018.11.29 02:45:00;18.224;18.224;18.224;18.224
2018.11.29 03:01:00;18.174;18.199;18.174;18.199
2018.11.29 03:02:00;18.174;18.224;18.174;18.224
2018.11.29 03:03:00;18.199;18.224;18.199;18.224
2018.11.29 03:06:00;18.174;18.224;18.174;18.224
2018.11.29 03:14:00;18.174;18.199;18.174;18.199
2018.11.29 03:15:00;18.224;18.224;18.224;18.224
2018.11.29 03:17:00;18.199;18.224;18.199;18.224
2018.11.29 03:18:00;18.199;18.199;18.199;18.199
2018.11.29 03:19:00;18.174;18.174;18.174;18.174
2018.11.29 03:28:00;18.199;18.224;18.174;18.224
2018.11.29 03:40:00;18.249;18.249;18.224;18.224
2018.11.29 03:43:00;18.249;18.249;18.224;18.224
2018.11.29 03:44:00;18.249;18.274;18.224;18.274
2018.11.29 03:45:00;18.249;18.274;18.224;18.224
2018.11.29 03:46:00;18.249;18.274;18.249;18.249
2018.11.29 03:47:00;18.224;18.249;18.224;18.249
2018.11.29 03:48:00;18.224;18.249;18.224;18.249
2018.11.29 03:49:00;18.224;18.224;18.224;18.224
2018.11.29 03:50:00;18.274;18.274;18.224;18.224
2018.11.29 03:51:00;18.249;18.274;18.249;18.274
2018.11.29 03:52:00;18.249;18.274;18.224;18.224
2018.11.29 03:53:00;18.274;18.274;18.224;18.224
2018.11.29 03:54:00;18.249;18.274;18.249;18.274
2018.11.29 03:57:00;18.324;18.324;18.274;18.324
2018.11.29 04:04:00;18.274;18.274;18.274;18.274
2018.11.29 04:05:00;18.324;18.324;18.274;18.324
2018.11.29 04:07:00;18.299;18.324;18.299;18.324
2018.11.29 04:08:00;18.299;18.299;18.274;18.274
2018.11.29 04:09:00;18.299;18.324;18.274;18.274
2018.11.29 04:10:00;18.324;18.324;18.274;18.324
2018.11.29 04:11:00;18.299;18.299;18.299;18.299
2018.11.29 04:12:00;18.324;18.324;18.274;18.274
2018.11.29 04:32:00;18.324;18.324;18.324;18.324
2018.11.29 04:33:00;18.274;18.324;18.274;18.324
2018.11.29 04:40:00;18.349;18.349;18.324;18.324
2018.11.29 04:55:00;18.349;18.374;18.324;18.324
2018.11.29 05:00:00;18.374;18.374;18.374;18.374
2018.11.29 05:02:00;18.324;18.324;18.324;18.324
2018.11.29 05:03:00;18.374;18.374;18.374;18.374
2018.11.29 05:04:00;18.349;18.349;18.324;18.324
2018.11.29 05:05:00;18.349;18.349;18.324;18.324
2018.11.29 05:23:00;18.274;18.274;18.274;18.274
2018.11.29 05:25:00;18.299;18.299;18.274;18.274
2018.11.29 05:40:00;18.324;18.324;18.299;18.299
2018.11.29 05:41:00;18.274;18.299;18.274;18.274
2018.11.29 05:42:00;18.299;18.324;18.299;18.299
2018.11.29 05:43:00;18.324;18.324;18.274;18.274
2018.11.29 05:44:00;18.299;18.324;18.299;18.324
2018.11.29 05:49:00;18.374;18.374;18.324;18.324
2018.11.29 05:50:00;18.349;18.349;18.349;18.349
