{
	"AUDUSD": {
		"50SMA": {
			"indicator": "ma", 
			"period": 50,
			"shift": 0,
			"ma_method": "simple", 
			"apply_to": "open" 
		},
		"200SMA": {
			"indicator": "ma",
			"period": 200,
			"shift": 0,
			"ma_method": "simple", 
			"apply_to": "close" 
		},
		"ATR": {
			"indicator": "atr",
			"period": 6
		},
		"CUSTOM_BOLLINGERBAND": {
			"indicator": "bollingerband",
			"period": 20,
			"shift": 0,
			"deviations": 2,
			"apply_to": "close"
		}
	},
	"XAUUSD": {
		"50SMA": {
			"indicator": "ma",
			"period": 24,
			"shift": 0,
			"ma_method": "simple", 
			"apply_to": "open" 
		},
		"ATR": {
			"indicator": "atr",
			"period": 6
		}		
	},
	"EURUSD": {
		"50SMA": {
			"indicator": "ma",
			"period": 24,
			"shift": 0,
			"ma_method": "simple", 
			"apply_to": "open" 
		},
		"ATR": {
			"indicator": "atr",
			"period": 6
		}		
	}
}