2018.11.28 05:04:00;0.99915;0.99917;0.99914;0.99914
2018.11.28 05:05:00;0.99915;0.99915;0.99911;0.99912
2018.11.28 05:44:00;0.99911;0.99916;0.99910;0.99916
2018.11.28 05:45:00;0.99916;0.99921;0.99916;0.99917
2018.11.28 05:58:00;0.99923;0.99923;0.99920;0.99923
2018.11.28 05:59:00;0.99924;0.99927;0.99922;0.99925
2018.11.28 06:00:00;0.99926;0.99926;0.99916;0.99923
2018.11.28 06:01:00;0.99924;0.99935;0.99924;0.99933
2018.11.28 06:02:00;0.99933;0.99933;0.99927;0.99932
2018.11.28 06:03:00;0.99932;0.99932;0.99930;0.99931
2018.11.28 06:04:00;0.99929;0.99931;0.99924;0.99926
2018.11.28 06:05:00;0.99926;0.99927;0.99923;0.99927
2018.11.28 06:06:00;0.99928;0.99929;0.99924;0.99925
2018.11.28 06:07:00;0.99927;0.99929;0.99925;0.99928
2018.11.28 06:08:00;0.99929;0.99929;0.99927;0.99927
2018.11.28 06:10:00;0.99928;0.99929;0.99928;0.99929
2018.11.28 06:11:00;0.99927;0.99929;0.99925;0.99925
2018.11.28 06:12:00;0.99928;0.99929;0.99923;0.99924
2018.11.28 06:13:00;0.99925;0.99928;0.99925;0.99927
2018.11.28 06:14:00;0.99928;0.99928;0.99925;0.99927
2018.11.28 06:15:00;0.99926;0.99928;0.99926;0.99926
2018.11.28 06:16:00;0.99927;0.99929;0.99925;0.99926
2018.11.28 06:17:00;0.99927;0.99928;0.99924;0.99928
2018.11.28 06:18:00;0.99929;0.99929;0.99928;0.99928
2018.11.28 06:19:00;0.99926;0.99929;0.99926;0.99929
2018.11.28 06:20:00;0.99927;0.99937;0.99927;0.99936
2018.11.28 06:21:00;0.99934;0.99936;0.99928;0.99931
2018.11.28 06:22:00;0.99932;0.99934;0.99929;0.99931
2018.11.28 06:23:00;0.99930;0.99931;0.99926;0.99927
2018.11.28 06:24:00;0.99926;0.99927;0.99925;0.99926
2018.11.28 06:25:00;0.99926;0.99927;0.99925;0.99927
2018.11.28 06:26:00;0.99927;0.99932;0.99926;0.99932
2018.11.28 06:27:00;0.99930;0.99931;0.99929;0.99929
2018.11.28 06:28:00;0.99929;0.99932;0.99928;0.99929
2018.11.28 06:29:00;0.99930;0.99930;0.99924;0.99926
2018.11.28 06:30:00;0.99928;0.99929;0.99928;0.99929
2018.11.28 06:31:00;0.99928;0.99932;0.99927;0.99929
2018.11.28 06:32:00;0.99930;0.99930;0.99929;0.99929
2018.11.28 06:33:00;0.99930;0.99930;0.99929;0.99929
2018.11.28 06:34:00;0.99930;0.99930;0.99928;0.99930
2018.11.28 06:35:00;0.99929;0.99930;0.99929;0.99929
2018.11.28 06:36:00;0.99927;0.99930;0.99927;0.99929
2018.11.28 06:37:00;0.99929;0.99930;0.99925;0.99928
2018.11.28 06:38:00;0.99927;0.99929;0.99927;0.99929
2018.11.28 06:39:00;0.99928;0.99931;0.99928;0.99931
2018.11.28 06:40:00;0.99931;0.99932;0.99929;0.99932
2018.11.28 06:41:00;0.99931;0.99936;0.99931;0.99935
2018.11.28 06:42:00;0.99935;0.99935;0.99931;0.99933
2018.11.28 06:43:00;0.99932;0.99933;0.99931;0.99933
2018.11.28 06:44:00;0.99932;0.99935;0.99932;0.99934
2018.11.28 06:45:00;0.99934;0.99934;0.99932;0.99933
2018.11.28 06:46:00;0.99933;0.99935;0.99933;0.99935
2018.11.28 06:47:00;0.99934;0.99938;0.99934;0.99936
2018.11.28 06:48:00;0.99937;0.99937;0.99934;0.99937
2018.11.28 06:49:00;0.99939;0.99939;0.99935;0.99937
2018.11.28 06:50:00;0.99936;0.99936;0.99932;0.99932
2018.11.28 06:51:00;0.99934;0.99938;0.99932;0.99938
2018.11.28 06:52:00;0.99937;0.99937;0.99935;0.99937
2018.11.28 06:53:00;0.99937;0.99941;0.99935;0.99936
2018.11.28 06:54:00;0.99938;0.99938;0.99931;0.99931
2018.11.28 06:55:00;0.99933;0.99934;0.99932;0.99934
2018.11.28 06:56:00;0.99933;0.99934;0.99933;0.99934
2018.11.28 06:57:00;0.99933;0.99940;0.99933;0.99939
2018.11.28 06:58:00;0.99940;0.99940;0.99934;0.99936
2018.11.28 06:59:00;0.99934;0.99942;0.99931;0.99935
2018.11.28 07:00:00;0.99936;0.99937;0.99932;0.99933
2018.11.28 07:01:00;0.99933;0.99934;0.99933;0.99933
2018.11.28 07:02:00;0.99934;0.99934;0.99933;0.99934
2018.11.28 07:03:00;0.99935;0.99935;0.99932;0.99932
2018.11.28 07:04:00;0.99933;0.99934;0.99933;0.99934
2018.11.28 07:05:00;0.99935;0.99935;0.99934;0.99934
2018.11.28 07:06:00;0.99935;0.99935;0.99935;0.99935
2018.11.28 07:07:00;0.99934;0.99936;0.99931;0.99933
2018.11.28 07:08:00;0.99934;0.99935;0.99932;0.99934
2018.11.28 07:09:00;0.99934;0.99934;0.99933;0.99934
2018.11.28 07:10:00;0.99934;0.99935;0.99927;0.99927
2018.11.28 07:11:00;0.99928;0.99928;0.99928;0.99928
2018.11.28 07:12:00;0.99927;0.99928;0.99924;0.99924
2018.11.28 07:13:00;0.99925;0.99925;0.99919;0.99920
2018.11.28 07:14:00;0.99921;0.99921;0.99919;0.99919
2018.11.28 07:15:00;0.99918;0.99923;0.99918;0.99920
2018.11.28 07:16:00;0.99921;0.99921;0.99920;0.99921
2018.11.28 07:17:00;0.99921;0.99923;0.99918;0.99921
2018.11.28 07:18:00;0.99921;0.99926;0.99920;0.99922
2018.11.28 07:19:00;0.99921;0.99924;0.99916;0.99924
2018.11.28 07:20:00;0.99924;0.99926;0.99919;0.99925
2018.11.28 07:21:00;0.99924;0.99926;0.99921;0.99921
2018.11.28 07:22:00;0.99921;0.99922;0.99920;0.99920
2018.11.28 07:23:00;0.99920;0.99924;0.99920;0.99920
2018.11.28 07:24:00;0.99921;0.99921;0.99920;0.99920
2018.11.28 07:25:00;0.99921;0.99922;0.99917;0.99918
2018.11.28 07:26:00;0.99914;0.99914;0.99904;0.99904
2018.11.28 07:27:00;0.99904;0.99907;0.99904;0.99905
2018.11.28 07:28:00;0.99904;0.99907;0.99904;0.99904
2018.11.28 07:29:00;0.99906;0.99907;0.99905;0.99906
2018.11.28 07:30:00;0.99905;0.99908;0.99903;0.99907
2018.11.28 07:31:00;0.99905;0.99907;0.99904;0.99904
2018.11.28 07:32:00;0.99903;0.99906;0.99903;0.99905
2018.11.28 07:33:00;0.99906;0.99913;0.99905;0.99906
2018.11.28 07:34:00;0.99907;0.99907;0.99904;0.99905
2018.11.28 07:35:00;0.99904;0.99904;0.99902;0.99903
2018.11.28 07:36:00;0.99902;0.99907;0.99902;0.99903
2018.11.28 07:37:00;0.99904;0.99906;0.99904;0.99904
2018.11.28 07:38:00;0.99904;0.99904;0.99904;0.99904
2018.11.28 07:39:00;0.99903;0.99903;0.99903;0.99903
2018.11.28 07:40:00;0.99903;0.99906;0.99903;0.99905
2018.11.28 07:41:00;0.99903;0.99905;0.99903;0.99905
2018.11.28 07:42:00;0.99906;0.99914;0.99905;0.99914
2018.11.28 07:43:00;0.99913;0.99915;0.99912;0.99915
2018.11.28 07:44:00;0.99914;0.99915;0.99912;0.99913
2018.11.28 07:45:00;0.99912;0.99913;0.99908;0.99909
2018.11.28 07:46:00;0.99909;0.99912;0.99907;0.99908
2018.11.28 07:47:00;0.99908;0.99911;0.99908;0.99910
2018.11.28 07:48:00;0.99910;0.99912;0.99907;0.99908
2018.11.28 07:49:00;0.99908;0.99909;0.99908;0.99909
2018.11.28 07:50:00;0.99910;0.99914;0.99908;0.99914
2018.11.28 07:51:00;0.99913;0.99918;0.99913;0.99916
2018.11.28 07:52:00;0.99917;0.99932;0.99917;0.99932
2018.11.28 07:53:00;0.99933;0.99933;0.99930;0.99930
2018.11.28 07:54:00;0.99931;0.99935;0.99920;0.99921
2018.11.28 07:55:00;0.99922;0.99931;0.99922;0.99931
2018.11.28 07:56:00;0.99930;0.99933;0.99923;0.99923
2018.11.28 07:57:00;0.99922;0.99922;0.99918;0.99921
2018.11.28 07:58:00;0.99922;0.99925;0.99921;0.99924
2018.11.28 07:59:00;0.99922;0.99924;0.99917;0.99923
2018.11.28 08:00:00;0.99922;0.99925;0.99919;0.99924
2018.11.28 08:01:00;0.99924;0.99928;0.99914;0.99926
2018.11.28 08:02:00;0.99927;0.99934;0.99922;0.99922
2018.11.28 08:03:00;0.99923;0.99926;0.99922;0.99923
2018.11.28 08:04:00;0.99923;0.99926;0.99909;0.99909
2018.11.28 08:05:00;0.99909;0.99909;0.99887;0.99896
2018.11.28 08:06:00;0.99897;0.99899;0.99893;0.99896
2018.11.28 08:07:00;0.99896;0.99896;0.99884;0.99884
2018.11.28 08:08:00;0.99884;0.99892;0.99882;0.99892
2018.11.28 08:09:00;0.99893;0.99894;0.99887;0.99892
2018.11.28 08:10:00;0.99893;0.99897;0.99888;0.99895
2018.11.28 08:11:00;0.99896;0.99896;0.99889;0.99895
2018.11.28 08:12:00;0.99894;0.99903;0.99894;0.99900
2018.11.28 08:13:00;0.99899;0.99903;0.99898;0.99902
2018.11.28 08:14:00;0.99900;0.99901;0.99897;0.99898
2018.11.28 08:15:00;0.99899;0.99904;0.99898;0.99900
2018.11.28 08:16:00;0.99899;0.99902;0.99899;0.99901
2018.11.28 08:17:00;0.99900;0.99906;0.99890;0.99901
2018.11.28 08:18:00;0.99903;0.99918;0.99903;0.99918
2018.11.28 08:19:00;0.99918;0.99918;0.99912;0.99914
2018.11.28 08:20:00;0.99913;0.99914;0.99905;0.99907
2018.11.28 08:21:00;0.99908;0.99918;0.99908;0.99917
2018.11.28 08:22:00;0.99917;0.99917;0.99908;0.99914
2018.11.28 08:23:00;0.99914;0.99917;0.99914;0.99916
2018.11.28 08:24:00;0.99916;0.99916;0.99899;0.99904
2018.11.28 08:25:00;0.99904;0.99904;0.99896;0.99897
2018.11.28 08:26:00;0.99897;0.99900;0.99896;0.99897
2018.11.28 08:27:00;0.99897;0.99897;0.99878;0.99882
2018.11.28 08:28:00;0.99882;0.99883;0.99882;0.99882
2018.11.28 08:29:00;0.99882;0.99892;0.99882;0.99891
2018.11.28 08:30:00;0.99892;0.99897;0.99884;0.99884
2018.11.28 08:31:00;0.99885;0.99892;0.99882;0.99892
2018.11.28 08:32:00;0.99892;0.99892;0.99887;0.99888
2018.11.28 08:33:00;0.99888;0.99889;0.99884;0.99887
2018.11.28 08:34:00;0.99887;0.99890;0.99884;0.99884
2018.11.28 08:35:00;0.99883;0.99885;0.99880;0.99883
2018.11.28 08:36:00;0.99882;0.99887;0.99877;0.99887
2018.11.28 08:37:00;0.99888;0.99895;0.99887;0.99887
2018.11.28 08:38:00;0.99886;0.99886;0.99875;0.99875
2018.11.28 08:39:00;0.99874;0.99877;0.99874;0.99876
2018.11.28 08:40:00;0.99876;0.99878;0.99875;0.99876
2018.11.28 08:41:00;0.99878;0.99881;0.99878;0.99881
2018.11.28 08:42:00;0.99882;0.99889;0.99882;0.99887
2018.11.28 08:43:00;0.99886;0.99887;0.99876;0.99877
2018.11.28 08:44:00;0.99876;0.99877;0.99868;0.99877
2018.11.28 08:45:00;0.99877;0.99878;0.99875;0.99875
2018.11.28 08:46:00;0.99876;0.99880;0.99875;0.99878
2018.11.28 08:47:00;0.99879;0.99880;0.99879;0.99879
2018.11.28 08:48:00;0.99879;0.99879;0.99878;0.99878
2018.11.28 08:49:00;0.99878;0.99878;0.99878;0.99878
2018.11.28 08:50:00;0.99879;0.99879;0.99878;0.99878
2018.11.28 08:51:00;0.99879;0.99879;0.99878;0.99878
2018.11.28 08:52:00;0.99879;0.99879;0.99874;0.99875
2018.11.28 08:53:00;0.99874;0.99874;0.99868;0.99869
2018.11.28 08:54:00;0.99872;0.99879;0.99872;0.99878
2018.11.28 08:55:00;0.99877;0.99879;0.99876;0.99878
2018.11.28 08:56:00;0.99878;0.99880;0.99878;0.99878
2018.11.28 08:57:00;0.99879;0.99883;0.99879;0.99879
2018.11.28 08:58:00;0.99879;0.99879;0.99867;0.99868
2018.11.28 08:59:00;0.99868;0.99869;0.99867;0.99868
2018.11.28 09:00:00;0.99867;0.99875;0.99867;0.99874
2018.11.28 09:01:00;0.99875;0.99875;0.99872;0.99873
2018.11.28 09:02:00;0.99872;0.99881;0.99872;0.99881
2018.11.28 09:03:00;0.99881;0.99906;0.99881;0.99902
2018.11.28 09:04:00;0.99901;0.99906;0.99899;0.99903
2018.11.28 09:05:00;0.99904;0.99929;0.99904;0.99925
2018.11.28 09:06:00;0.99925;0.99927;0.99915;0.99923
2018.11.28 09:07:00;0.99923;0.99924;0.99904;0.99906
2018.11.28 09:08:00;0.99906;0.99914;0.99904;0.99913
2018.11.28 09:09:00;0.99913;0.99921;0.99910;0.99916
2018.11.28 09:10:00;0.99917;0.99918;0.99914;0.99914
2018.11.28 09:11:00;0.99913;0.99916;0.99903;0.99906
2018.11.28 09:12:00;0.99905;0.99935;0.99905;0.99928
2018.11.28 09:13:00;0.99927;0.99943;0.99927;0.99941
2018.11.28 09:14:00;0.99942;0.99948;0.99936;0.99936
2018.11.28 09:15:00;0.99937;0.99944;0.99936;0.99943
2018.11.28 09:16:00;0.99943;0.99946;0.99939;0.99941
2018.11.28 09:17:00;0.99941;0.99944;0.99934;0.99937
2018.11.28 09:18:00;0.99938;0.99945;0.99936;0.99945
2018.11.28 09:19:00;0.99944;0.99957;0.99942;0.99956
2018.11.28 09:20:00;0.99956;0.99973;0.99955;0.99964
2018.11.28 09:21:00;0.99965;0.99965;0.99959;0.99960
2018.11.28 09:22:00;0.99961;0.99961;0.99954;0.99955
2018.11.28 09:23:00;0.99954;0.99955;0.99947;0.99947
2018.11.28 09:24:00;0.99947;0.99949;0.99945;0.99948
2018.11.28 09:25:00;0.99948;0.99949;0.99942;0.99947
2018.11.28 09:26:00;0.99946;0.99947;0.99935;0.99935
2018.11.28 09:27:00;0.99935;0.99935;0.99929;0.99931
2018.11.28 09:28:00;0.99931;0.99937;0.99931;0.99937
2018.11.28 09:29:00;0.99938;0.99960;0.99938;0.99960
2018.11.28 09:30:00;0.99959;0.99974;0.99959;0.99963
2018.11.28 09:31:00;0.99963;0.99963;0.99953;0.99954
2018.11.28 09:32:00;0.99954;0.99963;0.99949;0.99963
2018.11.28 09:33:00;0.99963;0.99974;0.99962;0.99974
2018.11.28 09:34:00;0.99973;0.99984;0.99969;0.99978
2018.11.28 09:35:00;0.99978;0.99978;0.99958;0.99958
2018.11.28 09:36:00;0.99958;0.99960;0.99958;0.99959
2018.11.28 09:37:00;0.99958;0.99973;0.99958;0.99973
2018.11.28 09:38:00;0.99972;0.99973;0.99965;0.99965
2018.11.28 09:39:00;0.99965;0.99966;0.99937;0.99937
2018.11.28 09:40:00;0.99937;0.99944;0.99928;0.99941
2018.11.28 09:41:00;0.99940;0.99940;0.99922;0.99924
2018.11.28 09:42:00;0.99923;0.99944;0.99923;0.99932
2018.11.28 09:43:00;0.99932;0.99932;0.99925;0.99928
2018.11.28 09:44:00;0.99928;0.99944;0.99928;0.99942
2018.11.28 09:45:00;0.99941;0.99955;0.99936;0.99953
2018.11.28 09:46:00;0.99954;0.99984;0.99953;0.99971
2018.11.28 09:47:00;0.99970;0.99976;0.99965;0.99966
2018.11.28 09:48:00;0.99967;0.99974;0.99965;0.99967
2018.11.28 09:49:00;0.99968;0.99974;0.99964;0.99968
2018.11.28 09:50:00;0.99969;0.99974;0.99965;0.99966
2018.11.28 09:51:00;0.99967;0.99971;0.99964;0.99967
2018.11.28 09:52:00;0.99966;0.99967;0.99951;0.99957
2018.11.28 09:53:00;0.99956;0.99957;0.99947;0.99953
2018.11.28 09:54:00;0.99953;0.99957;0.99952;0.99953
2018.11.28 09:55:00;0.99953;0.99962;0.99945;0.99956
2018.11.28 09:56:00;0.99957;0.99965;0.99955;0.99964
2018.11.28 09:57:00;0.99964;0.99987;0.99964;0.99974
2018.11.28 09:58:00;0.99975;0.99983;0.99967;0.99977
2018.11.28 09:59:00;0.99979;0.99994;0.99978;0.99984
2018.11.28 10:00:00;0.99983;1.00002;0.99968;0.99986
2018.11.28 10:01:00;0.99985;0.99986;0.99968;0.99973
2018.11.28 10:02:00;0.99971;0.99994;0.99960;0.99990
2018.11.28 10:03:00;0.99990;0.99990;0.99966;0.99970
2018.11.28 10:04:00;0.99972;0.99986;0.99969;0.99986
2018.11.28 10:05:00;0.99986;0.99986;0.99973;0.99974
2018.11.28 10:06:00;0.99973;0.99977;0.99967;0.99967
2018.11.28 10:07:00;0.99967;0.99967;0.99952;0.99953
2018.11.28 10:08:00;0.99954;0.99959;0.99952;0.99953
2018.11.28 10:09:00;0.99953;0.99958;0.99951;0.99955
2018.11.28 10:10:00;0.99956;0.99984;0.99956;0.99983
2018.11.28 10:11:00;0.99983;0.99988;0.99966;0.99984
2018.11.28 10:12:00;0.99985;1.00001;0.99978;0.99983
2018.11.28 10:13:00;0.99983;0.99999;0.99983;0.99992
2018.11.28 10:14:00;0.99993;1.00006;0.99986;1.00005
2018.11.28 10:15:00;1.00005;1.00010;1.00000;1.00010
2018.11.28 10:16:00;1.00011;1.00013;0.99995;0.99997
2018.11.28 10:17:00;0.99997;1.00020;0.99997;1.00005
2018.11.28 10:18:00;1.00005;1.00007;0.99976;0.99976
2018.11.28 10:19:00;0.99977;0.99984;0.99973;0.99977
2018.11.28 10:20:00;0.99976;0.99988;0.99972;0.99974
2018.11.28 10:21:00;0.99974;0.99981;0.99973;0.99974
2018.11.28 10:22:00;0.99975;0.99980;0.99974;0.99976
2018.11.28 10:23:00;0.99978;0.99992;0.99978;0.99988
2018.11.28 10:24:00;0.99987;0.99991;0.99963;0.99964
2018.11.28 10:25:00;0.99965;0.99975;0.99965;0.99973
2018.11.28 10:26:00;0.99973;0.99973;0.99959;0.99967
2018.11.28 10:27:00;0.99967;0.99979;0.99960;0.99979
2018.11.28 10:28:00;0.99981;0.99981;0.99965;0.99966
2018.11.28 10:29:00;0.99966;0.99975;0.99965;0.99972
2018.11.28 10:30:00;0.99973;0.99974;0.99961;0.99961
2018.11.28 10:31:00;0.99961;0.99970;0.99960;0.99965
2018.11.28 10:32:00;0.99964;0.99990;0.99963;0.99986
2018.11.28 10:33:00;0.99986;0.99987;0.99978;0.99982
2018.11.28 10:34:00;0.99983;0.99986;0.99976;0.99976
2018.11.28 10:35:00;0.99976;0.99984;0.99966;0.99975
2018.11.28 10:36:00;0.99975;0.99975;0.99965;0.99973
2018.11.28 10:37:00;0.99973;0.99979;0.99966;0.99973
2018.11.28 10:38:00;0.99973;0.99983;0.99973;0.99974
2018.11.28 10:39:00;0.99974;0.99974;0.99961;0.99964
2018.11.28 10:40:00;0.99964;0.99976;0.99964;0.99975
2018.11.28 10:41:00;0.99975;0.99992;0.99973;0.99989
2018.11.28 10:42:00;0.99991;0.99996;0.99984;0.99995
2018.11.28 10:43:00;0.99994;1.00004;0.99987;1.00001
2018.11.28 10:44:00;1.00000;1.00002;0.99984;0.99984
2018.11.28 10:45:00;0.99986;0.99996;0.99983;0.99992
2018.11.28 10:46:00;0.99993;0.99994;0.99979;0.99981
2018.11.28 10:47:00;0.99982;0.99984;0.99977;0.99978
2018.11.28 10:48:00;0.99978;0.99986;0.99978;0.99986
2018.11.28 10:49:00;0.99986;0.99987;0.99980;0.99985
2018.11.28 10:50:00;0.99986;0.99988;0.99982;0.99986
2018.11.28 10:51:00;0.99986;0.99988;0.99977;0.99978
2018.11.28 10:52:00;0.99979;0.99988;0.99978;0.99985
2018.11.28 10:53:00;0.99985;0.99986;0.99978;0.99983
2018.11.28 10:54:00;0.99984;0.99986;0.99964;0.99964
2018.11.28 10:55:00;0.99965;0.99968;0.99956;0.99961
2018.11.28 10:56:00;0.99960;0.99961;0.99942;0.99944
2018.11.28 10:57:00;0.99944;0.99957;0.99941;0.99954
2018.11.28 10:58:00;0.99954;0.99954;0.99924;0.99926
2018.11.28 10:59:00;0.99926;0.99932;0.99922;0.99926
2018.11.28 11:00:00;0.99925;0.99943;0.99925;0.99943
2018.11.28 11:01:00;0.99944;0.99947;0.99939;0.99944
2018.11.28 11:02:00;0.99945;0.99949;0.99943;0.99944
2018.11.28 11:03:00;0.99945;0.99953;0.99940;0.99943
2018.11.28 11:04:00;0.99941;0.99950;0.99939;0.99949
2018.11.28 11:05:00;0.99948;0.99950;0.99942;0.99950
2018.11.28 11:06:00;0.99950;0.99955;0.99945;0.99953
2018.11.28 11:07:00;0.99952;0.99961;0.99946;0.99957
2018.11.28 11:08:00;0.99956;0.99964;0.99941;0.99942
2018.11.28 11:09:00;0.99944;0.99946;0.99919;0.99922
2018.11.28 11:10:00;0.99921;0.99926;0.99911;0.99917
2018.11.28 11:11:00;0.99916;0.99927;0.99907;0.99913
2018.11.28 11:12:00;0.99914;0.99919;0.99898;0.99912
2018.11.28 11:13:00;0.99913;0.99917;0.99904;0.99915
2018.11.28 11:14:00;0.99914;0.99916;0.99904;0.99914
2018.11.28 11:15:00;0.99914;0.99917;0.99903;0.99914
2018.11.28 11:16:00;0.99915;0.99925;0.99915;0.99924
2018.11.28 11:17:00;0.99924;0.99929;0.99917;0.99917
2018.11.28 11:18:00;0.99916;0.99916;0.99909;0.99911
2018.11.28 11:19:00;0.99910;0.99914;0.99906;0.99906
2018.11.28 11:20:00;0.99905;0.99907;0.99904;0.99906
2018.11.28 11:21:00;0.99906;0.99906;0.99899;0.99901
2018.11.28 11:22:00;0.99900;0.99901;0.99894;0.99901
2018.11.28 11:23:00;0.99901;0.99906;0.99896;0.99906
2018.11.28 11:24:00;0.99908;0.99908;0.99902;0.99904
2018.11.28 11:25:00;0.99904;0.99909;0.99903;0.99907
2018.11.28 11:26:00;0.99907;0.99908;0.99896;0.99902
2018.11.28 11:27:00;0.99902;0.99905;0.99894;0.99901
2018.11.28 11:28:00;0.99902;0.99904;0.99891;0.99892
2018.11.28 11:29:00;0.99891;0.99891;0.99877;0.99883
2018.11.28 11:30:00;0.99883;0.99883;0.99870;0.99878
2018.11.28 11:31:00;0.99879;0.99884;0.99872;0.99873
2018.11.28 11:32:00;0.99873;0.99880;0.99871;0.99876
2018.11.28 11:33:00;0.99876;0.99882;0.99873;0.99874
2018.11.28 11:34:00;0.99875;0.99894;0.99875;0.99885
2018.11.28 11:35:00;0.99884;0.99906;0.99884;0.99904
2018.11.28 11:36:00;0.99905;0.99917;0.99902;0.99914
2018.11.28 11:37:00;0.99913;0.99934;0.99913;0.99926
2018.11.28 11:38:00;0.99927;0.99945;0.99923;0.99942
2018.11.28 11:39:00;0.99943;0.99945;0.99935;0.99945
2018.11.28 11:40:00;0.99945;0.99946;0.99933;0.99936
2018.11.28 11:41:00;0.99936;0.99936;0.99927;0.99934
2018.11.28 11:42:00;0.99934;0.99943;0.99927;0.99935
2018.11.28 11:43:00;0.99936;0.99936;0.99925;0.99928
2018.11.28 11:44:00;0.99927;0.99929;0.99925;0.99927
2018.11.28 11:45:00;0.99927;0.99934;0.99924;0.99934
2018.11.28 11:46:00;0.99934;0.99938;0.99924;0.99926
2018.11.28 11:47:00;0.99926;0.99926;0.99908;0.99910
2018.11.28 11:48:00;0.99909;0.99916;0.99906;0.99907
2018.11.28 11:49:00;0.99907;0.99911;0.99905;0.99909
2018.11.28 11:50:00;0.99909;0.99909;0.99900;0.99900
2018.11.28 11:51:00;0.99900;0.99904;0.99887;0.99898
2018.11.28 11:52:00;0.99898;0.99906;0.99888;0.99897
2018.11.28 11:53:00;0.99896;0.99919;0.99896;0.99915
2018.11.28 11:54:00;0.99914;0.99917;0.99907;0.99917
2018.11.28 11:55:00;0.99917;0.99929;0.99917;0.99925
2018.11.28 11:56:00;0.99926;0.99931;0.99922;0.99926
2018.11.28 11:57:00;0.99926;0.99927;0.99914;0.99917
2018.11.28 11:58:00;0.99917;0.99926;0.99917;0.99926
2018.11.28 11:59:00;0.99926;0.99941;0.99917;0.99927
2018.11.28 12:00:00;0.99928;0.99933;0.99917;0.99917
2018.11.28 12:01:00;0.99918;0.99918;0.99896;0.99904
2018.11.28 12:02:00;0.99905;0.99906;0.99897;0.99897
2018.11.28 12:03:00;0.99897;0.99907;0.99891;0.99895
2018.11.28 12:04:00;0.99896;0.99896;0.99889;0.99893
2018.11.28 12:05:00;0.99892;0.99896;0.99885;0.99885
2018.11.28 12:06:00;0.99885;0.99885;0.99868;0.99874
2018.11.28 12:07:00;0.99874;0.99882;0.99871;0.99875
2018.11.28 12:08:00;0.99876;0.99876;0.99869;0.99872
2018.11.28 12:09:00;0.99872;0.99872;0.99854;0.99861
2018.11.28 12:10:00;0.99862;0.99863;0.99852;0.99853
2018.11.28 12:11:00;0.99853;0.99867;0.99853;0.99862
2018.11.28 12:12:00;0.99862;0.99862;0.99854;0.99856
2018.11.28 12:13:00;0.99855;0.99865;0.99855;0.99858
2018.11.28 12:14:00;0.99859;0.99867;0.99855;0.99865
2018.11.28 12:15:00;0.99865;0.99865;0.99844;0.99845
2018.11.28 12:16:00;0.99846;0.99846;0.99834;0.99836
2018.11.28 12:17:00;0.99836;0.99841;0.99834;0.99838
2018.11.28 12:18:00;0.99838;0.99856;0.99832;0.99853
2018.11.28 12:19:00;0.99853;0.99854;0.99843;0.99854
2018.11.28 12:20:00;0.99854;0.99854;0.99845;0.99854
2018.11.28 12:21:00;0.99854;0.99877;0.99848;0.99877
2018.11.28 12:22:00;0.99876;0.99877;0.99862;0.99864
2018.11.28 12:23:00;0.99865;0.99865;0.99846;0.99846
2018.11.28 12:24:00;0.99845;0.99855;0.99838;0.99855
2018.11.28 12:25:00;0.99855;0.99856;0.99847;0.99854
2018.11.28 12:26:00;0.99855;0.99865;0.99850;0.99863
2018.11.28 12:27:00;0.99863;0.99864;0.99848;0.99848
2018.11.28 12:28:00;0.99847;0.99857;0.99847;0.99855
2018.11.28 12:29:00;0.99856;0.99857;0.99846;0.99847
2018.11.28 12:30:00;0.99847;0.99853;0.99843;0.99847
2018.11.28 12:31:00;0.99847;0.99860;0.99838;0.99857
2018.11.28 12:32:00;0.99857;0.99877;0.99854;0.99875
2018.11.28 12:33:00;0.99875;0.99885;0.99873;0.99878
2018.11.28 12:34:00;0.99877;0.99877;0.99860;0.99864
2018.11.28 12:35:00;0.99864;0.99867;0.99860;0.99865
2018.11.28 12:36:00;0.99865;0.99867;0.99853;0.99856
2018.11.28 12:37:00;0.99855;0.99857;0.99838;0.99842
2018.11.28 12:38:00;0.99842;0.99853;0.99840;0.99853
2018.11.28 12:39:00;0.99853;0.99858;0.99852;0.99858
2018.11.28 12:40:00;0.99857;0.99857;0.99841;0.99845
2018.11.28 12:41:00;0.99846;0.99855;0.99844;0.99846
2018.11.28 12:42:00;0.99846;0.99858;0.99846;0.99849
2018.11.28 12:43:00;0.99848;0.99855;0.99847;0.99848
2018.11.28 12:44:00;0.99848;0.99856;0.99847;0.99854
2018.11.28 12:45:00;0.99855;0.99855;0.99843;0.99847
2018.11.28 12:46:00;0.99847;0.99856;0.99847;0.99849
2018.11.28 12:47:00;0.99848;0.99856;0.99846;0.99848
2018.11.28 12:48:00;0.99848;0.99858;0.99845;0.99854
2018.11.28 12:49:00;0.99854;0.99857;0.99853;0.99857
2018.11.28 12:50:00;0.99857;0.99865;0.99854;0.99856
2018.11.28 12:51:00;0.99856;0.99856;0.99846;0.99850
2018.11.28 12:52:00;0.99849;0.99869;0.99849;0.99865
2018.11.28 12:53:00;0.99864;0.99871;0.99864;0.99866
2018.11.28 12:54:00;0.99866;0.99866;0.99848;0.99848
2018.11.28 12:55:00;0.99848;0.99856;0.99845;0.99845
2018.11.28 12:56:00;0.99845;0.99855;0.99841;0.99845
2018.11.28 12:57:00;0.99845;0.99846;0.99829;0.99834
2018.11.28 12:58:00;0.99833;0.99834;0.99823;0.99827
2018.11.28 12:59:00;0.99827;0.99836;0.99827;0.99834
2018.11.28 13:00:00;0.99833;0.99833;0.99818;0.99827
2018.11.28 13:01:00;0.99826;0.99827;0.99819;0.99819
2018.11.28 13:02:00;0.99820;0.99832;0.99819;0.99830
2018.11.28 13:03:00;0.99830;0.99830;0.99820;0.99822
2018.11.28 13:04:00;0.99822;0.99822;0.99808;0.99816
2018.11.28 13:05:00;0.99817;0.99833;0.99817;0.99830
2018.11.28 13:06:00;0.99829;0.99835;0.99825;0.99832
2018.11.28 13:07:00;0.99832;0.99837;0.99832;0.99837
2018.11.28 13:08:00;0.99837;0.99845;0.99836;0.99837
2018.11.28 13:09:00;0.99838;0.99842;0.99832;0.99836
2018.11.28 13:10:00;0.99837;0.99844;0.99835;0.99837
2018.11.28 13:11:00;0.99837;0.99838;0.99818;0.99829
2018.11.28 13:12:00;0.99828;0.99829;0.99823;0.99828
2018.11.28 13:13:00;0.99829;0.99831;0.99824;0.99830
2018.11.28 13:14:00;0.99829;0.99837;0.99826;0.99836
2018.11.28 13:15:00;0.99835;0.99842;0.99834;0.99839
2018.11.28 13:16:00;0.99839;0.99841;0.99833;0.99837
2018.11.28 13:17:00;0.99837;0.99856;0.99836;0.99855
2018.11.28 13:18:00;0.99855;0.99864;0.99849;0.99864
2018.11.28 13:19:00;0.99863;0.99867;0.99853;0.99867
2018.11.28 13:20:00;0.99868;0.99868;0.99862;0.99867
2018.11.28 13:21:00;0.99866;0.99877;0.99866;0.99877
2018.11.28 13:22:00;0.99876;0.99885;0.99876;0.99876
2018.11.28 13:23:00;0.99877;0.99884;0.99873;0.99878
2018.11.28 13:24:00;0.99878;0.99878;0.99863;0.99863
2018.11.28 13:25:00;0.99862;0.99865;0.99854;0.99856
2018.11.28 13:26:00;0.99856;0.99866;0.99856;0.99859
2018.11.28 13:27:00;0.99859;0.99868;0.99857;0.99868
2018.11.28 13:28:00;0.99867;0.99868;0.99828;0.99835
2018.11.28 13:29:00;0.99836;0.99866;0.99828;0.99864
2018.11.28 13:30:00;0.99865;0.99881;0.99860;0.99881
2018.11.28 13:31:00;0.99881;0.99881;0.99867;0.99873
2018.11.28 13:32:00;0.99873;0.99881;0.99868;0.99878
2018.11.28 13:33:00;0.99878;0.99878;0.99874;0.99877
2018.11.28 13:34:00;0.99876;0.99878;0.99871;0.99878
2018.11.28 13:35:00;0.99878;0.99884;0.99877;0.99884
2018.11.28 13:36:00;0.99884;0.99885;0.99878;0.99879
2018.11.28 13:37:00;0.99882;0.99886;0.99878;0.99879
2018.11.28 13:38:00;0.99879;0.99888;0.99877;0.99885
2018.11.28 13:39:00;0.99885;0.99890;0.99876;0.99879
2018.11.28 13:40:00;0.99879;0.99879;0.99878;0.99879
2018.11.28 13:41:00;0.99879;0.99889;0.99878;0.99879
2018.11.28 13:42:00;0.99879;0.99879;0.99868;0.99874
2018.11.28 13:43:00;0.99873;0.99879;0.99869;0.99875
2018.11.28 13:44:00;0.99875;0.99877;0.99868;0.99869
2018.11.28 13:45:00;0.99869;0.99869;0.99864;0.99867
2018.11.28 13:46:00;0.99867;0.99872;0.99865;0.99869
2018.11.28 13:47:00;0.99868;0.99872;0.99868;0.99872
2018.11.28 13:48:00;0.99871;0.99871;0.99863;0.99865
2018.11.28 13:49:00;0.99864;0.99868;0.99860;0.99868
2018.11.28 13:50:00;0.99868;0.99875;0.99865;0.99875
2018.11.28 13:51:00;0.99875;0.99877;0.99867;0.99876
2018.11.28 13:52:00;0.99877;0.99888;0.99876;0.99884
2018.11.28 13:53:00;0.99883;0.99909;0.99877;0.99906
2018.11.28 13:54:00;0.99905;0.99905;0.99891;0.99897
2018.11.28 13:55:00;0.99899;0.99906;0.99881;0.99884
2018.11.28 13:56:00;0.99884;0.99895;0.99880;0.99894
2018.11.28 13:57:00;0.99896;0.99900;0.99887;0.99893
2018.11.28 13:58:00;0.99895;0.99913;0.99895;0.99908
2018.11.28 13:59:00;0.99907;0.99911;0.99902;0.99907
2018.11.28 14:00:00;0.99905;0.99905;0.99883;0.99887
2018.11.28 14:01:00;0.99886;0.99895;0.99881;0.99888
2018.11.28 14:02:00;0.99888;0.99899;0.99887;0.99899
2018.11.28 14:03:00;0.99899;0.99906;0.99896;0.99898
2018.11.28 14:04:00;0.99897;0.99903;0.99897;0.99898
2018.11.28 14:05:00;0.99898;0.99905;0.99894;0.99898
2018.11.28 14:06:00;0.99905;0.99907;0.99893;0.99893
2018.11.28 14:07:00;0.99893;0.99899;0.99887;0.99899
2018.11.28 14:08:00;0.99898;0.99903;0.99898;0.99899
2018.11.28 14:09:00;0.99898;0.99918;0.99898;0.99909
2018.11.28 14:10:00;0.99909;0.99919;0.99909;0.99919
2018.11.28 14:11:00;0.99919;0.99927;0.99916;0.99922
2018.11.28 14:12:00;0.99921;0.99921;0.99915;0.99917
2018.11.28 14:13:00;0.99921;0.99923;0.99908;0.99908
2018.11.28 14:14:00;0.99908;0.99911;0.99901;0.99910
2018.11.28 14:15:00;0.99910;0.99910;0.99901;0.99902
2018.11.28 14:16:00;0.99902;0.99912;0.99899;0.99912
2018.11.28 14:17:00;0.99912;0.99915;0.99908;0.99908
2018.11.28 14:18:00;0.99908;0.99909;0.99896;0.99908
2018.11.28 14:19:00;0.99908;0.99919;0.99907;0.99919
2018.11.28 14:20:00;0.99918;0.99918;0.99904;0.99908
2018.11.28 14:21:00;0.99908;0.99917;0.99907;0.99917
2018.11.28 14:22:00;0.99918;0.99931;0.99917;0.99928
2018.11.28 14:23:00;0.99928;0.99928;0.99924;0.99925
2018.11.28 14:24:00;0.99926;0.99927;0.99918;0.99919
2018.11.28 14:25:00;0.99920;0.99933;0.99919;0.99926
2018.11.28 14:26:00;0.99927;0.99931;0.99925;0.99926
2018.11.28 14:27:00;0.99927;0.99929;0.99909;0.99914
2018.11.28 14:28:00;0.99915;0.99916;0.99906;0.99912
2018.11.28 14:29:00;0.99912;0.99930;0.99912;0.99930
2018.11.28 14:30:00;0.99930;0.99930;0.99917;0.99922
2018.11.28 14:31:00;0.99922;0.99930;0.99918;0.99928
2018.11.28 14:32:00;0.99928;0.99950;0.99928;0.99940
2018.11.28 14:33:00;0.99940;0.99946;0.99934;0.99945
2018.11.28 14:34:00;0.99945;0.99953;0.99942;0.99949
2018.11.28 14:35:00;0.99950;0.99952;0.99940;0.99947
2018.11.28 14:36:00;0.99946;0.99946;0.99938;0.99942
2018.11.28 14:37:00;0.99938;0.99942;0.99937;0.99942
2018.11.28 14:38:00;0.99942;0.99946;0.99938;0.99942
2018.11.28 14:39:00;0.99942;0.99944;0.99938;0.99938
2018.11.28 14:40:00;0.99938;0.99940;0.99936;0.99938
2018.11.28 14:41:00;0.99938;0.99946;0.99933;0.99946
2018.11.28 14:42:00;0.99947;0.99951;0.99938;0.99941
2018.11.28 14:43:00;0.99943;0.99955;0.99943;0.99954
2018.11.28 14:44:00;0.99953;0.99953;0.99941;0.99941
2018.11.28 14:45:00;0.99940;0.99942;0.99934;0.99936
2018.11.28 14:46:00;0.99937;0.99943;0.99907;0.99911
2018.11.28 14:47:00;0.99910;0.99932;0.99907;0.99915
2018.11.28 14:48:00;0.99914;0.99927;0.99913;0.99915
2018.11.28 14:49:00;0.99914;0.99922;0.99894;0.99895
2018.11.28 14:50:00;0.99896;0.99909;0.99895;0.99905
2018.11.28 14:51:00;0.99904;0.99905;0.99894;0.99894
2018.11.28 14:52:00;0.99895;0.99904;0.99894;0.99898
2018.11.28 14:53:00;0.99899;0.99900;0.99893;0.99898
2018.11.28 14:54:00;0.99898;0.99906;0.99896;0.99896
2018.11.28 14:55:00;0.99895;0.99895;0.99860;0.99872
2018.11.28 14:56:00;0.99871;0.99874;0.99866;0.99867
2018.11.28 14:57:00;0.99866;0.99893;0.99866;0.99889
2018.11.28 14:58:00;0.99888;0.99889;0.99873;0.99876
2018.11.28 14:59:00;0.99874;0.99877;0.99862;0.99867
2018.11.28 15:00:00;0.99867;0.99875;0.99862;0.99872
2018.11.28 15:01:00;0.99873;0.99877;0.99873;0.99875
2018.11.28 15:02:00;0.99875;0.99895;0.99874;0.99879
2018.11.28 15:03:00;0.99879;0.99880;0.99862;0.99872
2018.11.28 15:04:00;0.99873;0.99877;0.99867;0.99876
2018.11.28 15:05:00;0.99877;0.99877;0.99873;0.99874
2018.11.28 15:06:00;0.99875;0.99899;0.99875;0.99895
2018.11.28 15:07:00;0.99896;0.99908;0.99887;0.99889
2018.11.28 15:08:00;0.99890;0.99890;0.99883;0.99885
2018.11.28 15:09:00;0.99886;0.99894;0.99886;0.99888
2018.11.28 15:10:00;0.99888;0.99891;0.99884;0.99888
2018.11.28 15:11:00;0.99887;0.99909;0.99884;0.99909
2018.11.28 15:12:00;0.99908;0.99909;0.99898;0.99898
2018.11.28 15:13:00;0.99899;0.99901;0.99896;0.99898
2018.11.28 15:14:00;0.99898;0.99909;0.99892;0.99893
2018.11.28 15:15:00;0.99892;0.99898;0.99888;0.99891
2018.11.28 15:16:00;0.99890;0.99890;0.99876;0.99882
2018.11.28 15:17:00;0.99882;0.99893;0.99882;0.99892
2018.11.28 15:18:00;0.99890;0.99905;0.99884;0.99905
2018.11.28 15:19:00;0.99905;0.99906;0.99894;0.99895
2018.11.28 15:20:00;0.99895;0.99900;0.99889;0.99890
2018.11.28 15:21:00;0.99891;0.99895;0.99888;0.99890
2018.11.28 15:22:00;0.99889;0.99889;0.99863;0.99870
2018.11.28 15:23:00;0.99870;0.99875;0.99864;0.99874
2018.11.28 15:24:00;0.99875;0.99877;0.99869;0.99877
2018.11.28 15:25:00;0.99877;0.99877;0.99862;0.99865
2018.11.28 15:26:00;0.99865;0.99878;0.99864;0.99875
2018.11.28 15:27:00;0.99876;0.99880;0.99876;0.99879
2018.11.28 15:28:00;0.99878;0.99889;0.99868;0.99887
2018.11.28 15:29:00;0.99888;0.99896;0.99858;0.99886
2018.11.28 15:30:00;0.99886;0.99886;0.99858;0.99881
2018.11.28 15:31:00;0.99882;0.99886;0.99876;0.99877
2018.11.28 15:32:00;0.99876;0.99877;0.99866;0.99871
2018.11.28 15:33:00;0.99872;0.99881;0.99870;0.99879
2018.11.28 15:34:00;0.99877;0.99887;0.99871;0.99887
2018.11.28 15:35:00;0.99888;0.99892;0.99885;0.99885
2018.11.28 15:36:00;0.99886;0.99903;0.99886;0.99892
2018.11.28 15:37:00;0.99892;0.99898;0.99883;0.99888
2018.11.28 15:38:00;0.99889;0.99892;0.99861;0.99867
2018.11.28 15:39:00;0.99867;0.99869;0.99857;0.99860
2018.11.28 15:40:00;0.99858;0.99862;0.99847;0.99848
2018.11.28 15:41:00;0.99847;0.99856;0.99846;0.99855
2018.11.28 15:42:00;0.99854;0.99862;0.99842;0.99861
2018.11.28 15:43:00;0.99860;0.99880;0.99858;0.99877
2018.11.28 15:44:00;0.99878;0.99886;0.99874;0.99878
2018.11.28 15:45:00;0.99878;0.99892;0.99876;0.99884
2018.11.28 15:46:00;0.99884;0.99884;0.99869;0.99874
2018.11.28 15:47:00;0.99874;0.99874;0.99849;0.99852
2018.11.28 15:48:00;0.99853;0.99864;0.99853;0.99862
2018.11.28 15:49:00;0.99861;0.99862;0.99849;0.99850
2018.11.28 15:50:00;0.99850;0.99864;0.99849;0.99862
2018.11.28 15:51:00;0.99861;0.99863;0.99849;0.99849
2018.11.28 15:52:00;0.99850;0.99858;0.99839;0.99840
2018.11.28 15:53:00;0.99842;0.99849;0.99842;0.99842
2018.11.28 15:54:00;0.99843;0.99848;0.99831;0.99848
2018.11.28 15:55:00;0.99848;0.99849;0.99840;0.99843
2018.11.28 15:56:00;0.99843;0.99858;0.99832;0.99853
2018.11.28 15:57:00;0.99854;0.99874;0.99850;0.99872
2018.11.28 15:58:00;0.99871;0.99871;0.99855;0.99859
2018.11.28 15:59:00;0.99858;0.99867;0.99850;0.99865
2018.11.28 16:00:00;0.99866;0.99866;0.99852;0.99857
2018.11.28 16:01:00;0.99857;0.99867;0.99850;0.99862
2018.11.28 16:02:00;0.99862;0.99877;0.99858;0.99876
2018.11.28 16:03:00;0.99876;0.99876;0.99859;0.99867
2018.11.28 16:04:00;0.99868;0.99876;0.99866;0.99872
2018.11.28 16:05:00;0.99871;0.99872;0.99854;0.99861
2018.11.28 16:06:00;0.99861;0.99876;0.99859;0.99876
2018.11.28 16:07:00;0.99877;0.99902;0.99877;0.99894
2018.11.28 16:08:00;0.99893;0.99917;0.99890;0.99915
2018.11.28 16:09:00;0.99915;0.99920;0.99908;0.99908
2018.11.28 16:10:00;0.99908;0.99912;0.99890;0.99910
2018.11.28 16:11:00;0.99909;0.99909;0.99899;0.99906
2018.11.28 16:12:00;0.99906;0.99917;0.99901;0.99911
2018.11.28 16:13:00;0.99912;0.99915;0.99899;0.99899
2018.11.28 16:14:00;0.99898;0.99915;0.99890;0.99914
2018.11.28 16:15:00;0.99914;0.99917;0.99903;0.99910
2018.11.28 16:16:00;0.99909;0.99918;0.99905;0.99913
2018.11.28 16:17:00;0.99913;0.99926;0.99911;0.99919
2018.11.28 16:18:00;0.99918;0.99921;0.99908;0.99915
2018.11.28 16:19:00;0.99915;0.99917;0.99904;0.99916
2018.11.28 16:20:00;0.99916;0.99918;0.99907;0.99907
2018.11.28 16:21:00;0.99907;0.99907;0.99888;0.99893
2018.11.28 16:22:00;0.99893;0.99895;0.99880;0.99884
2018.11.28 16:23:00;0.99884;0.99884;0.99865;0.99865
2018.11.28 16:24:00;0.99866;0.99866;0.99846;0.99854
2018.11.28 16:25:00;0.99854;0.99854;0.99842;0.99843
2018.11.28 16:26:00;0.99840;0.99845;0.99836;0.99844
2018.11.28 16:27:00;0.99844;0.99845;0.99823;0.99826
2018.11.28 16:28:00;0.99826;0.99830;0.99820;0.99827
2018.11.28 16:29:00;0.99829;0.99839;0.99823;0.99832
2018.11.28 16:30:00;0.99831;0.99834;0.99822;0.99829
2018.11.28 16:31:00;0.99830;0.99831;0.99806;0.99811
2018.11.28 16:32:00;0.99810;0.99818;0.99790;0.99816
2018.11.28 16:33:00;0.99816;0.99832;0.99810;0.99830
2018.11.28 16:34:00;0.99829;0.99838;0.99825;0.99833
2018.11.28 16:35:00;0.99834;0.99837;0.99821;0.99821
2018.11.28 16:36:00;0.99820;0.99826;0.99808;0.99826
2018.11.28 16:37:00;0.99826;0.99831;0.99822;0.99830
2018.11.28 16:38:00;0.99830;0.99831;0.99822;0.99829
2018.11.28 16:39:00;0.99830;0.99838;0.99830;0.99833
2018.11.28 16:40:00;0.99835;0.99842;0.99821;0.99826
2018.11.28 16:41:00;0.99826;0.99838;0.99823;0.99836
2018.11.28 16:42:00;0.99836;0.99839;0.99822;0.99828
2018.11.28 16:43:00;0.99828;0.99856;0.99823;0.99854
2018.11.28 16:44:00;0.99855;0.99879;0.99855;0.99869
2018.11.28 16:45:00;0.99868;0.99904;0.99862;0.99887
2018.11.28 16:46:00;0.99887;0.99891;0.99886;0.99889
2018.11.28 16:47:00;0.99890;0.99900;0.99889;0.99898
2018.11.28 16:48:00;0.99899;0.99911;0.99895;0.99909
2018.11.28 16:49:00;0.99907;0.99907;0.99893;0.99897
2018.11.28 16:50:00;0.99898;0.99907;0.99894;0.99895
2018.11.28 16:51:00;0.99896;0.99912;0.99896;0.99909
2018.11.28 16:52:00;0.99909;0.99912;0.99892;0.99899
2018.11.28 16:53:00;0.99900;0.99915;0.99898;0.99914
2018.11.28 16:54:00;0.99914;0.99914;0.99898;0.99898
2018.11.28 16:55:00;0.99898;0.99937;0.99892;0.99936
2018.11.28 16:56:00;0.99941;0.99943;0.99916;0.99925
2018.11.28 16:57:00;0.99927;0.99928;0.99916;0.99918
2018.11.28 16:58:00;0.99917;0.99919;0.99907;0.99908
2018.11.28 16:59:00;0.99907;0.99911;0.99906;0.99906
2018.11.28 17:00:00;0.99904;0.99923;0.99892;0.99898
2018.11.28 17:01:00;0.99898;0.99922;0.99895;0.99921
2018.11.28 17:02:00;0.99921;0.99926;0.99910;0.99916
2018.11.28 17:03:00;0.99915;0.99928;0.99914;0.99924
2018.11.28 17:04:00;0.99923;0.99937;0.99923;0.99928
2018.11.28 17:05:00;0.99929;0.99952;0.99922;0.99952
2018.11.28 17:06:00;0.99953;0.99973;0.99953;0.99955
2018.11.28 17:07:00;0.99954;0.99959;0.99941;0.99958
2018.11.28 17:08:00;0.99958;0.99960;0.99940;0.99940
2018.11.28 17:09:00;0.99939;0.99947;0.99936;0.99938
2018.11.28 17:10:00;0.99939;0.99943;0.99915;0.99915
2018.11.28 17:11:00;0.99916;0.99927;0.99916;0.99925
2018.11.28 17:12:00;0.99927;0.99932;0.99919;0.99925
2018.11.28 17:13:00;0.99924;0.99929;0.99913;0.99914
2018.11.28 17:14:00;0.99915;0.99925;0.99914;0.99922
2018.11.28 17:15:00;0.99920;0.99921;0.99912;0.99916
2018.11.28 17:16:00;0.99916;0.99933;0.99914;0.99930
2018.11.28 17:17:00;0.99929;0.99939;0.99922;0.99926
2018.11.28 17:18:00;0.99927;0.99928;0.99918;0.99918
2018.11.28 17:19:00;0.99919;0.99927;0.99913;0.99919
2018.11.28 17:20:00;0.99920;0.99944;0.99919;0.99938
2018.11.28 17:21:00;0.99938;0.99953;0.99934;0.99947
2018.11.28 17:22:00;0.99946;0.99947;0.99925;0.99926
2018.11.28 17:23:00;0.99926;0.99926;0.99900;0.99904
2018.11.28 17:24:00;0.99905;0.99916;0.99904;0.99915
2018.11.28 17:25:00;0.99915;0.99922;0.99908;0.99917
2018.11.28 17:26:00;0.99918;0.99933;0.99918;0.99919
2018.11.28 17:27:00;0.99919;0.99949;0.99908;0.99937
2018.11.28 17:28:00;0.99937;0.99951;0.99936;0.99949
2018.11.28 17:29:00;0.99947;0.99957;0.99946;0.99951
2018.11.28 17:30:00;0.99951;0.99957;0.99937;0.99939
2018.11.28 17:31:00;0.99940;0.99954;0.99940;0.99945
2018.11.28 17:32:00;0.99945;0.99956;0.99943;0.99947
2018.11.28 17:33:00;0.99949;0.99953;0.99938;0.99939
2018.11.28 17:34:00;0.99939;0.99942;0.99931;0.99931
2018.11.28 17:35:00;0.99931;0.99953;0.99925;0.99934
2018.11.28 17:36:00;0.99932;0.99937;0.99922;0.99935
2018.11.28 17:37:00;0.99935;0.99956;0.99935;0.99956
2018.11.28 17:38:00;0.99955;0.99963;0.99949;0.99949
2018.11.28 17:39:00;0.99949;0.99958;0.99945;0.99957
2018.11.28 17:40:00;0.99957;0.99965;0.99956;0.99963
2018.11.28 17:41:00;0.99962;0.99973;0.99960;0.99973
2018.11.28 17:42:00;0.99973;0.99981;0.99972;0.99979
2018.11.28 17:43:00;0.99978;0.99978;0.99966;0.99971
2018.11.28 17:44:00;0.99971;0.99994;0.99970;0.99986
2018.11.28 17:45:00;0.99986;0.99999;0.99982;0.99995
2018.11.28 17:46:00;0.99995;1.00006;0.99989;0.99989
2018.11.28 17:47:00;0.99989;1.00004;0.99989;0.99989
2018.11.28 17:48:00;0.99989;1.00004;0.99983;1.00003
2018.11.28 17:49:00;1.00003;1.00008;0.99988;0.99996
2018.11.28 17:50:00;0.99996;1.00012;0.99992;1.00007
2018.11.28 17:51:00;1.00008;1.00014;1.00003;1.00008
2018.11.28 17:52:00;1.00009;1.00011;1.00000;1.00008
2018.11.28 17:53:00;1.00008;1.00012;1.00005;1.00005
2018.11.28 17:54:00;1.00005;1.00008;0.99985;1.00008
2018.11.28 17:55:00;1.00009;1.00012;1.00003;1.00010
2018.11.28 17:56:00;1.00009;1.00015;0.99995;0.99996
2018.11.28 17:57:00;0.99996;1.00029;0.99995;1.00028
2018.11.28 17:58:00;1.00029;1.00052;1.00028;1.00031
2018.11.28 17:59:00;1.00031;1.00051;1.00028;1.00030
2018.11.28 18:00:00;1.00029;1.00035;1.00016;1.00028
2018.11.28 18:01:00;1.00027;1.00030;1.00014;1.00019
2018.11.28 18:02:00;1.00018;1.00034;1.00013;1.00022
2018.11.28 18:03:00;1.00021;1.00024;1.00012;1.00013
2018.11.28 18:04:00;1.00014;1.00014;0.99995;1.00004
2018.11.28 18:05:00;1.00005;1.00006;0.99979;0.99984
2018.11.28 18:06:00;0.99984;0.99984;0.99970;0.99971
2018.11.28 18:07:00;0.99972;0.99987;0.99965;0.99975
2018.11.28 18:08:00;0.99974;0.99981;0.99973;0.99981
2018.11.28 18:09:00;0.99981;0.99981;0.99970;0.99975
2018.11.28 18:10:00;0.99974;0.99976;0.99966;0.99968
2018.11.28 18:11:00;0.99969;0.99979;0.99968;0.99973
2018.11.28 18:12:00;0.99972;0.99973;0.99966;0.99970
2018.11.28 18:13:00;0.99971;0.99972;0.99963;0.99965
2018.11.28 18:14:00;0.99964;0.99966;0.99959;0.99965
2018.11.28 18:15:00;0.99965;0.99966;0.99955;0.99955
2018.11.28 18:16:00;0.99956;0.99965;0.99952;0.99955
2018.11.28 18:17:00;0.99956;0.99961;0.99953;0.99953
2018.11.28 18:18:00;0.99953;0.99970;0.99952;0.99968
2018.11.28 18:19:00;0.99969;0.99979;0.99969;0.99974
2018.11.28 18:20:00;0.99975;0.99975;0.99965;0.99967
2018.11.28 18:21:00;0.99966;0.99977;0.99961;0.99973
2018.11.28 18:22:00;0.99973;0.99993;0.99969;0.99992
2018.11.28 18:23:00;0.99991;1.00004;0.99989;0.99994
2018.11.28 18:24:00;0.99993;0.99994;0.99984;0.99988
2018.11.28 18:25:00;0.99987;0.99995;0.99985;0.99995
2018.11.28 18:26:00;0.99996;0.99997;0.99974;0.99974
2018.11.28 18:27:00;0.99972;0.99995;0.99972;0.99981
2018.11.28 18:28:00;0.99982;0.99983;0.99969;0.99974
2018.11.28 18:29:00;0.99973;0.99976;0.99970;0.99975
2018.11.28 18:30:00;0.99975;0.99976;0.99972;0.99975
2018.11.28 18:31:00;0.99976;0.99982;0.99971;0.99975
2018.11.28 18:32:00;0.99976;0.99981;0.99969;0.99970
2018.11.28 18:33:00;0.99969;0.99969;0.99962;0.99965
2018.11.28 18:34:00;0.99965;0.99966;0.99960;0.99962
2018.11.28 18:35:00;0.99961;0.99964;0.99958;0.99963
2018.11.28 18:36:00;0.99962;0.99965;0.99960;0.99961
2018.11.28 18:37:00;0.99962;0.99964;0.99954;0.99954
2018.11.28 18:38:00;0.99953;0.99967;0.99952;0.99967
2018.11.28 18:39:00;0.99967;0.99974;0.99963;0.99971
2018.11.28 18:40:00;0.99972;0.99982;0.99972;0.99974
2018.11.28 18:41:00;0.99973;0.99976;0.99958;0.99959
2018.11.28 18:42:00;0.99959;0.99962;0.99950;0.99952
2018.11.28 18:43:00;0.99951;0.99954;0.99951;0.99952
2018.11.28 18:44:00;0.99952;0.99965;0.99948;0.99962
2018.11.28 18:45:00;0.99961;0.99962;0.99947;0.99956
2018.11.28 18:46:00;0.99957;0.99974;0.99949;0.99973
2018.11.28 18:47:00;0.99973;0.99973;0.99960;0.99960
2018.11.28 18:48:00;0.99959;0.99974;0.99959;0.99964
2018.11.28 18:49:00;0.99965;0.99979;0.99961;0.99977
2018.11.28 18:50:00;0.99976;0.99984;0.99975;0.99982
2018.11.28 18:51:00;0.99982;0.99983;0.99965;0.99967
2018.11.28 18:52:00;0.99968;0.99969;0.99961;0.99962
2018.11.28 18:53:00;0.99964;0.99965;0.99950;0.99957
2018.11.28 18:54:00;0.99956;0.99965;0.99951;0.99963
2018.11.28 18:55:00;0.99963;0.99967;0.99963;0.99964
2018.11.28 18:56:00;0.99963;0.99965;0.99963;0.99963
2018.11.28 18:57:00;0.99963;0.99966;0.99952;0.99952
2018.11.28 18:58:00;0.99952;0.99959;0.99940;0.99942
2018.11.28 18:59:00;0.99943;0.99947;0.99937;0.99944
2018.11.28 19:00:00;0.99944;0.99946;0.99778;0.99818
2018.11.28 19:01:00;0.99816;0.99816;0.99685;0.99686
2018.11.28 19:02:00;0.99687;0.99690;0.99637;0.99645
2018.11.28 19:03:00;0.99644;0.99671;0.99635;0.99637
2018.11.28 19:04:00;0.99636;0.99636;0.99581;0.99608
2018.11.28 19:05:00;0.99610;0.99624;0.99584;0.99608
2018.11.28 19:06:00;0.99608;0.99615;0.99573;0.99591
2018.11.28 19:07:00;0.99591;0.99628;0.99561;0.99567
2018.11.28 19:08:00;0.99566;0.99577;0.99527;0.99534
2018.11.28 19:09:00;0.99535;0.99537;0.99518;0.99532
2018.11.28 19:10:00;0.99532;0.99535;0.99458;0.99469
2018.11.28 19:11:00;0.99469;0.99521;0.99463;0.99498
2018.11.28 19:12:00;0.99500;0.99500;0.99462;0.99479
2018.11.28 19:13:00;0.99478;0.99480;0.99451;0.99452
2018.11.28 19:14:00;0.99451;0.99452;0.99430;0.99441
2018.11.28 19:15:00;0.99440;0.99452;0.99430;0.99436
2018.11.28 19:16:00;0.99437;0.99469;0.99427;0.99468
2018.11.28 19:17:00;0.99469;0.99530;0.99465;0.99509
2018.11.28 19:18:00;0.99508;0.99517;0.99493;0.99514
2018.11.28 19:19:00;0.99515;0.99518;0.99486;0.99490
2018.11.28 19:20:00;0.99491;0.99494;0.99440;0.99450
2018.11.28 19:21:00;0.99449;0.99480;0.99444;0.99461
2018.11.28 19:22:00;0.99461;0.99499;0.99431;0.99493
2018.11.28 19:23:00;0.99494;0.99543;0.99494;0.99537
2018.11.28 19:24:00;0.99533;0.99534;0.99494;0.99516
2018.11.28 19:25:00;0.99515;0.99549;0.99512;0.99534
2018.11.28 19:26:00;0.99534;0.99540;0.99518;0.99535
2018.11.28 19:27:00;0.99535;0.99559;0.99521;0.99535
2018.11.28 19:28:00;0.99534;0.99541;0.99516;0.99518
2018.11.28 19:29:00;0.99517;0.99529;0.99502;0.99520
2018.11.28 19:30:00;0.99519;0.99560;0.99510;0.99559
2018.11.28 19:31:00;0.99559;0.99574;0.99550;0.99571
2018.11.28 19:32:00;0.99570;0.99592;0.99566;0.99592
2018.11.28 19:33:00;0.99589;0.99609;0.99580;0.99597
2018.11.28 19:34:00;0.99595;0.99638;0.99593;0.99633
2018.11.28 19:35:00;0.99633;0.99634;0.99596;0.99596
2018.11.28 19:36:00;0.99595;0.99606;0.99571;0.99596
2018.11.28 19:37:00;0.99597;0.99597;0.99566;0.99573
2018.11.28 19:38:00;0.99572;0.99586;0.99571;0.99578
2018.11.28 19:39:00;0.99576;0.99584;0.99539;0.99541
2018.11.28 19:40:00;0.99539;0.99564;0.99537;0.99559
2018.11.28 19:41:00;0.99560;0.99578;0.99557;0.99564
2018.11.28 19:42:00;0.99562;0.99590;0.99551;0.99589
2018.11.28 19:43:00;0.99589;0.99613;0.99589;0.99597
2018.11.28 19:44:00;0.99596;0.99604;0.99588;0.99600
2018.11.28 19:45:00;0.99601;0.99601;0.99572;0.99579
2018.11.28 19:46:00;0.99578;0.99595;0.99576;0.99583
2018.11.28 19:47:00;0.99584;0.99584;0.99548;0.99553
2018.11.28 19:48:00;0.99552;0.99568;0.99540;0.99558
2018.11.28 19:49:00;0.99560;0.99567;0.99517;0.99525
2018.11.28 19:50:00;0.99525;0.99544;0.99520;0.99542
2018.11.28 19:51:00;0.99541;0.99553;0.99523;0.99523
2018.11.28 19:52:00;0.99522;0.99550;0.99520;0.99541
2018.11.28 19:53:00;0.99542;0.99542;0.99500;0.99521
2018.11.28 19:54:00;0.99518;0.99520;0.99503;0.99513
2018.11.28 19:55:00;0.99515;0.99543;0.99515;0.99530
2018.11.28 19:56:00;0.99529;0.99529;0.99503;0.99520
2018.11.28 19:57:00;0.99518;0.99524;0.99507;0.99510
2018.11.28 19:58:00;0.99510;0.99531;0.99509;0.99527
2018.11.28 19:59:00;0.99527;0.99542;0.99514;0.99539
2018.11.28 20:00:00;0.99539;0.99586;0.99538;0.99579
2018.11.28 20:01:00;0.99577;0.99582;0.99523;0.99528
2018.11.28 20:02:00;0.99527;0.99550;0.99515;0.99516
2018.11.28 20:03:00;0.99515;0.99519;0.99497;0.99512
2018.11.28 20:04:00;0.99512;0.99537;0.99509;0.99530
2018.11.28 20:05:00;0.99531;0.99531;0.99509;0.99509
2018.11.28 20:06:00;0.99510;0.99511;0.99468;0.99468
2018.11.28 20:07:00;0.99468;0.99475;0.99416;0.99416
2018.11.28 20:08:00;0.99415;0.99421;0.99408;0.99412
2018.11.28 20:09:00;0.99411;0.99416;0.99401;0.99412
2018.11.28 20:10:00;0.99411;0.99427;0.99401;0.99402
2018.11.28 20:11:00;0.99403;0.99419;0.99400;0.99418
2018.11.28 20:12:00;0.99419;0.99426;0.99393;0.99399
2018.11.28 20:13:00;0.99400;0.99429;0.99399;0.99428
2018.11.28 20:14:00;0.99426;0.99430;0.99400;0.99414
2018.11.28 20:15:00;0.99412;0.99416;0.99400;0.99412
2018.11.28 20:16:00;0.99411;0.99424;0.99403;0.99412
2018.11.28 20:17:00;0.99412;0.99412;0.99373;0.99382
2018.11.28 20:18:00;0.99381;0.99389;0.99358;0.99358
2018.11.28 20:19:00;0.99359;0.99389;0.99354;0.99384
2018.11.28 20:20:00;0.99382;0.99390;0.99360;0.99382
2018.11.28 20:21:00;0.99381;0.99387;0.99349;0.99349
2018.11.28 20:22:00;0.99348;0.99366;0.99347;0.99361
2018.11.28 20:23:00;0.99360;0.99360;0.99312;0.99333
2018.11.28 20:24:00;0.99334;0.99359;0.99332;0.99358
2018.11.28 20:25:00;0.99357;0.99357;0.99343;0.99351
2018.11.28 20:26:00;0.99349;0.99349;0.99331;0.99344
2018.11.28 20:27:00;0.99343;0.99353;0.99336;0.99353
2018.11.28 20:28:00;0.99355;0.99370;0.99354;0.99361
2018.11.28 20:29:00;0.99362;0.99368;0.99353;0.99362
2018.11.28 20:30:00;0.99363;0.99372;0.99354;0.99354
2018.11.28 20:31:00;0.99355;0.99355;0.99315;0.99322
2018.11.28 20:32:00;0.99324;0.99363;0.99307;0.99362
2018.11.28 20:33:00;0.99362;0.99368;0.99338;0.99368
2018.11.28 20:34:00;0.99371;0.99371;0.99357;0.99360
2018.11.28 20:35:00;0.99359;0.99376;0.99354;0.99372
2018.11.28 20:36:00;0.99372;0.99381;0.99369;0.99373
2018.11.28 20:37:00;0.99374;0.99374;0.99366;0.99369
2018.11.28 20:38:00;0.99369;0.99373;0.99369;0.99370
2018.11.28 20:39:00;0.99371;0.99374;0.99358;0.99358
2018.11.28 20:40:00;0.99357;0.99357;0.99312;0.99321
2018.11.28 20:41:00;0.99322;0.99327;0.99312;0.99321
2018.11.28 20:42:00;0.99321;0.99346;0.99321;0.99343
2018.11.28 20:43:00;0.99343;0.99365;0.99332;0.99362
2018.11.28 20:44:00;0.99363;0.99364;0.99341;0.99341
2018.11.28 20:45:00;0.99342;0.99352;0.99340;0.99351
2018.11.28 20:46:00;0.99350;0.99352;0.99337;0.99341
2018.11.28 20:47:00;0.99341;0.99341;0.99311;0.99321
2018.11.28 20:48:00;0.99319;0.99321;0.99303;0.99304
2018.11.28 20:49:00;0.99304;0.99326;0.99302;0.99302
2018.11.28 20:50:00;0.99301;0.99313;0.99292;0.99296
2018.11.28 20:51:00;0.99294;0.99296;0.99282;0.99282
2018.11.28 20:52:00;0.99282;0.99283;0.99249;0.99253
2018.11.28 20:53:00;0.99254;0.99258;0.99248;0.99255
2018.11.28 20:54:00;0.99256;0.99276;0.99253;0.99272
2018.11.28 20:55:00;0.99271;0.99271;0.99255;0.99262
2018.11.28 20:56:00;0.99261;0.99262;0.99253;0.99256
2018.11.28 20:57:00;0.99255;0.99262;0.99249;0.99255
2018.11.28 20:58:00;0.99256;0.99304;0.99254;0.99293
2018.11.28 20:59:00;0.99294;0.99310;0.99285;0.99310
2018.11.28 21:00:00;0.99309;0.99311;0.99288;0.99298
2018.11.28 21:01:00;0.99297;0.99305;0.99293;0.99293
2018.11.28 21:02:00;0.99292;0.99304;0.99292;0.99293
2018.11.28 21:03:00;0.99292;0.99299;0.99290;0.99298
2018.11.28 21:04:00;0.99297;0.99323;0.99297;0.99322
2018.11.28 21:05:00;0.99323;0.99326;0.99312;0.99325
2018.11.28 21:06:00;0.99325;0.99343;0.99324;0.99342
2018.11.28 21:07:00;0.99341;0.99355;0.99336;0.99351
2018.11.28 21:08:00;0.99352;0.99354;0.99334;0.99334
2018.11.28 21:09:00;0.99334;0.99334;0.99306;0.99308
2018.11.28 21:10:00;0.99308;0.99308;0.99282;0.99293
2018.11.28 21:11:00;0.99293;0.99298;0.99281;0.99282
2018.11.28 21:12:00;0.99283;0.99294;0.99282;0.99282
2018.11.28 21:13:00;0.99282;0.99288;0.99263;0.99268
2018.11.28 21:14:00;0.99267;0.99277;0.99254;0.99264
2018.11.28 21:15:00;0.99264;0.99290;0.99263;0.99290
2018.11.28 21:16:00;0.99290;0.99295;0.99274;0.99275
2018.11.28 21:17:00;0.99276;0.99284;0.99273;0.99276
2018.11.28 21:18:00;0.99276;0.99282;0.99276;0.99279
2018.11.28 21:19:00;0.99280;0.99281;0.99247;0.99258
2018.11.28 21:20:00;0.99259;0.99264;0.99251;0.99256
2018.11.28 21:21:00;0.99256;0.99261;0.99251;0.99255
2018.11.28 21:22:00;0.99257;0.99271;0.99247;0.99271
2018.11.28 21:23:00;0.99271;0.99272;0.99265;0.99267
2018.11.28 21:24:00;0.99266;0.99280;0.99265;0.99273
2018.11.28 21:25:00;0.99274;0.99279;0.99273;0.99279
2018.11.28 21:26:00;0.99280;0.99287;0.99276;0.99281
2018.11.28 21:27:00;0.99284;0.99284;0.99267;0.99268
2018.11.28 21:28:00;0.99269;0.99274;0.99253;0.99257
2018.11.28 21:29:00;0.99258;0.99266;0.99255;0.99257
2018.11.28 21:30:00;0.99263;0.99286;0.99261;0.99285
2018.11.28 21:31:00;0.99284;0.99296;0.99283;0.99292
2018.11.28 21:32:00;0.99292;0.99313;0.99290;0.99305
2018.11.28 21:33:00;0.99304;0.99310;0.99297;0.99307
2018.11.28 21:34:00;0.99308;0.99308;0.99302;0.99305
2018.11.28 21:35:00;0.99304;0.99315;0.99304;0.99315
2018.11.28 21:36:00;0.99314;0.99317;0.99309;0.99316
2018.11.28 21:37:00;0.99316;0.99318;0.99315;0.99315
2018.11.28 21:38:00;0.99315;0.99325;0.99312;0.99324
2018.11.28 21:39:00;0.99324;0.99325;0.99308;0.99310
2018.11.28 21:40:00;0.99310;0.99313;0.99304;0.99305
2018.11.28 21:41:00;0.99306;0.99306;0.99294;0.99295
2018.11.28 21:42:00;0.99296;0.99296;0.99288;0.99291
2018.11.28 21:43:00;0.99292;0.99295;0.99274;0.99275
2018.11.28 21:44:00;0.99274;0.99277;0.99274;0.99276
2018.11.28 21:45:00;0.99274;0.99274;0.99265;0.99265
2018.11.28 21:46:00;0.99264;0.99272;0.99264;0.99272
2018.11.28 21:47:00;0.99272;0.99274;0.99266;0.99269
2018.11.28 21:48:00;0.99270;0.99273;0.99265;0.99266
2018.11.28 21:49:00;0.99266;0.99276;0.99266;0.99274
2018.11.28 21:50:00;0.99274;0.99275;0.99264;0.99265
2018.11.28 21:51:00;0.99266;0.99275;0.99265;0.99275
2018.11.28 21:52:00;0.99274;0.99277;0.99271;0.99273
2018.11.28 21:53:00;0.99273;0.99275;0.99272;0.99272
2018.11.28 21:54:00;0.99273;0.99286;0.99273;0.99285
2018.11.28 21:55:00;0.99285;0.99294;0.99284;0.99286
2018.11.28 21:56:00;0.99287;0.99303;0.99287;0.99303
2018.11.28 21:57:00;0.99301;0.99304;0.99287;0.99288
2018.11.28 21:58:00;0.99288;0.99295;0.99286;0.99294
2018.11.28 21:59:00;0.99293;0.99306;0.99287;0.99304
2018.11.28 22:00:00;0.99303;0.99319;0.99293;0.99316
2018.11.28 22:01:00;0.99316;0.99323;0.99314;0.99323
2018.11.28 22:02:00;0.99321;0.99334;0.99320;0.99333
2018.11.28 22:03:00;0.99332;0.99336;0.99332;0.99335
2018.11.28 22:04:00;0.99336;0.99336;0.99316;0.99328
2018.11.28 22:05:00;0.99328;0.99331;0.99324;0.99324
2018.11.28 22:06:00;0.99324;0.99325;0.99321;0.99323
2018.11.28 22:07:00;0.99322;0.99322;0.99306;0.99315
2018.11.28 22:08:00;0.99314;0.99314;0.99302;0.99306
2018.11.28 22:09:00;0.99307;0.99307;0.99303;0.99304
2018.11.28 22:10:00;0.99306;0.99309;0.99289;0.99309
2018.11.28 22:11:00;0.99308;0.99309;0.99300;0.99303
2018.11.28 22:12:00;0.99302;0.99309;0.99300;0.99308
2018.11.28 22:13:00;0.99308;0.99316;0.99308;0.99313
2018.11.28 22:14:00;0.99314;0.99316;0.99309;0.99311
2018.11.28 22:15:00;0.99311;0.99311;0.99305;0.99305
2018.11.28 22:16:00;0.99305;0.99323;0.99304;0.99322
2018.11.28 22:17:00;0.99323;0.99325;0.99315;0.99316
2018.11.28 22:18:00;0.99316;0.99335;0.99315;0.99334
2018.11.28 22:19:00;0.99334;0.99343;0.99334;0.99343
2018.11.28 22:20:00;0.99343;0.99343;0.99328;0.99334
2018.11.28 22:21:00;0.99334;0.99334;0.99323;0.99324
2018.11.28 22:22:00;0.99324;0.99334;0.99324;0.99333
2018.11.28 22:23:00;0.99333;0.99334;0.99326;0.99326
2018.11.28 22:24:00;0.99325;0.99328;0.99324;0.99327
2018.11.28 22:25:00;0.99327;0.99334;0.99327;0.99333
2018.11.28 22:26:00;0.99332;0.99334;0.99330;0.99332
2018.11.28 22:27:00;0.99333;0.99335;0.99331;0.99332
2018.11.28 22:28:00;0.99332;0.99333;0.99325;0.99329
2018.11.28 22:29:00;0.99329;0.99335;0.99328;0.99335
2018.11.28 22:30:00;0.99333;0.99337;0.99325;0.99334
2018.11.28 22:31:00;0.99334;0.99337;0.99333;0.99336
2018.11.28 22:32:00;0.99336;0.99347;0.99335;0.99346
2018.11.28 22:33:00;0.99347;0.99348;0.99345;0.99346
2018.11.28 22:34:00;0.99345;0.99346;0.99333;0.99333
2018.11.28 22:35:00;0.99334;0.99346;0.99334;0.99346
2018.11.28 22:36:00;0.99346;0.99346;0.99335;0.99336
2018.11.28 22:37:00;0.99336;0.99350;0.99336;0.99346
2018.11.28 22:38:00;0.99347;0.99352;0.99344;0.99352
2018.11.28 22:39:00;0.99352;0.99358;0.99352;0.99355
2018.11.28 22:40:00;0.99355;0.99356;0.99343;0.99344
2018.11.28 22:41:00;0.99343;0.99343;0.99334;0.99334
2018.11.28 22:42:00;0.99334;0.99334;0.99326;0.99327
2018.11.28 22:43:00;0.99327;0.99332;0.99325;0.99325
2018.11.28 22:44:00;0.99324;0.99328;0.99324;0.99327
2018.11.28 22:45:00;0.99327;0.99328;0.99327;0.99327
2018.11.28 22:46:00;0.99326;0.99326;0.99316;0.99317
2018.11.28 22:47:00;0.99316;0.99318;0.99315;0.99316
2018.11.28 22:48:00;0.99315;0.99335;0.99314;0.99334
2018.11.28 22:49:00;0.99334;0.99337;0.99330;0.99334
2018.11.28 22:50:00;0.99336;0.99337;0.99330;0.99330
2018.11.28 22:51:00;0.99330;0.99330;0.99307;0.99318
2018.11.28 22:52:00;0.99318;0.99327;0.99315;0.99325
2018.11.28 22:53:00;0.99326;0.99335;0.99317;0.99330
2018.11.28 22:54:00;0.99329;0.99335;0.99325;0.99335
2018.11.28 22:55:00;0.99336;0.99339;0.99329;0.99334
2018.11.28 22:56:00;0.99334;0.99336;0.99334;0.99335
2018.11.28 22:57:00;0.99334;0.99344;0.99333;0.99339
2018.11.28 22:58:00;0.99339;0.99346;0.99337;0.99344
2018.11.28 22:59:00;0.99344;0.99347;0.99339;0.99341
2018.11.28 23:00:00;0.99341;0.99347;0.99335;0.99342
2018.11.28 23:01:00;0.99342;0.99342;0.99340;0.99341
2018.11.28 23:02:00;0.99342;0.99344;0.99342;0.99343
2018.11.28 23:03:00;0.99345;0.99345;0.99342;0.99345
2018.11.28 23:04:00;0.99344;0.99346;0.99342;0.99343
2018.11.28 23:05:00;0.99345;0.99345;0.99342;0.99345
2018.11.28 23:06:00;0.99345;0.99345;0.99342;0.99344
2018.11.28 23:07:00;0.99344;0.99352;0.99343;0.99352
2018.11.28 23:08:00;0.99352;0.99354;0.99351;0.99354
2018.11.28 23:09:00;0.99353;0.99353;0.99352;0.99353
2018.11.28 23:10:00;0.99351;0.99352;0.99341;0.99341
2018.11.28 23:11:00;0.99339;0.99339;0.99328;0.99332
2018.11.28 23:12:00;0.99332;0.99335;0.99332;0.99334
2018.11.28 23:13:00;0.99334;0.99336;0.99332;0.99333
2018.11.28 23:14:00;0.99334;0.99349;0.99333;0.99346
2018.11.28 23:15:00;0.99346;0.99349;0.99346;0.99347
2018.11.28 23:16:00;0.99348;0.99350;0.99347;0.99348
2018.11.28 23:17:00;0.99349;0.99354;0.99348;0.99349
2018.11.28 23:18:00;0.99349;0.99349;0.99349;0.99349
2018.11.28 23:19:00;0.99348;0.99349;0.99347;0.99347
2018.11.28 23:20:00;0.99348;0.99348;0.99347;0.99348
2018.11.28 23:21:00;0.99348;0.99349;0.99345;0.99349
2018.11.28 23:22:00;0.99347;0.99349;0.99332;0.99333
2018.11.28 23:23:00;0.99333;0.99334;0.99329;0.99330
2018.11.28 23:24:00;0.99331;0.99334;0.99331;0.99331
2018.11.28 23:25:00;0.99331;0.99343;0.99331;0.99343
2018.11.28 23:26:00;0.99343;0.99350;0.99343;0.99346
2018.11.28 23:27:00;0.99347;0.99349;0.99347;0.99348
2018.11.28 23:28:00;0.99347;0.99350;0.99347;0.99349
2018.11.28 23:29:00;0.99348;0.99353;0.99343;0.99353
2018.11.28 23:30:00;0.99353;0.99353;0.99340;0.99341
2018.11.28 23:31:00;0.99341;0.99350;0.99340;0.99350
2018.11.28 23:32:00;0.99349;0.99351;0.99343;0.99351
2018.11.28 23:33:00;0.99350;0.99355;0.99350;0.99354
2018.11.28 23:34:00;0.99354;0.99355;0.99349;0.99351
2018.11.28 23:35:00;0.99352;0.99353;0.99352;0.99352
2018.11.28 23:36:00;0.99353;0.99358;0.99352;0.99353
2018.11.28 23:37:00;0.99352;0.99355;0.99352;0.99355
2018.11.28 23:38:00;0.99358;0.99362;0.99358;0.99359
2018.11.28 23:39:00;0.99359;0.99362;0.99349;0.99352
2018.11.28 23:40:00;0.99352;0.99361;0.99348;0.99351
2018.11.28 23:41:00;0.99352;0.99353;0.99351;0.99351
2018.11.28 23:42:00;0.99352;0.99353;0.99351;0.99352
2018.11.28 23:43:00;0.99351;0.99355;0.99348;0.99353
2018.11.28 23:44:00;0.99352;0.99352;0.99352;0.99352
2018.11.28 23:45:00;0.99351;0.99353;0.99343;0.99343
2018.11.28 23:46:00;0.99343;0.99345;0.99342;0.99345
2018.11.28 23:47:00;0.99343;0.99350;0.99338;0.99349
2018.11.28 23:48:00;0.99350;0.99350;0.99345;0.99346
2018.11.28 23:49:00;0.99345;0.99347;0.99342;0.99344
2018.11.28 23:50:00;0.99345;0.99348;0.99345;0.99347
2018.11.28 23:51:00;0.99346;0.99352;0.99346;0.99352
2018.11.28 23:52:00;0.99351;0.99353;0.99348;0.99352
2018.11.28 23:53:00;0.99349;0.99353;0.99348;0.99352
2018.11.28 23:54:00;0.99352;0.99354;0.99352;0.99352
2018.11.28 23:55:00;0.99350;0.99350;0.99346;0.99350
2018.11.28 23:56:00;0.99350;0.99351;0.99349;0.99351
2018.11.28 23:57:00;0.99350;0.99354;0.99348;0.99350
2018.11.28 23:58:00;0.99349;0.99355;0.99349;0.99351
